{
  "icoCircle": "icon-mapfre_066_circle",
  "sizeCircle": "g-font--40 g-c--gray1",
  "addClass": "g-c--white1 g-ico--center g-font--20",
  "tittle" : "MIS NOTIFICACIONES",
  "icoUser": "icon-mapfre_037_user",
	"icoAlert": "icon-mapfre_036_notification",
	"icoClose": "icon-mapfre_049_close2",
	"sizeClose": "g-font--40",
  "nameUser": "Hola <b>Gonzalo!</b>",
  "label": "Hola Gonzalo!",
  "ico": "icon-mapfre_037_user",
  "numb" : 3,
  "alertBadge": {
    "icoCircle": "icon-mapfre_066_circle",
    "addClass": "g-font--30 g-c--green1",
    "addClassNum": "g-ico--center g-font--11 g-c--white1"
  },
  "list": [
		{
		 	"tipo" : "Mi prefil"
   	},
   	{
	   	"tipo" : "Cerrar sesión"
   	}
  ]
}