{
  "addClass": "g-b--1 g-bc--gray11  g-p--10  g-b-radius--5",
  "iconLeft": {
    "iconFile": "icon-mapfre_099_search",
    "iconClass": "g-font--21  g-pr--10  g-c--gray9"
  },
  "input": {
    "type": "text",
    "value": "",
    "inputClass": "w-10",
    "placeholder": "Buscar"
  },
  "iconRight": {
    "iconFile": "icon-mapfre_049_close2",
    "iconClass": "g-font--21  g-pl--10  g-c--gray9"
  }
}