{
  "addClass" : "g-form-focus disabled",
  "label" : "Etiqueta",
  "disabled" : true,
  "listOption" : [
    { "value" : "option 1" },
    { "value" : "option 2" },
    { "value" : "option 3" },
    { "value" : "option 4" }
  ],
  "error" : ""
}