{
  "addClass": " g-mb--10  g-bg-c--white1",
  "textPrimary" : {
    "textClass" : "g-font--20 g-font--medium g-c--gray8",
    "text": "Llámanos a este número o escribenos por whatsapp"
  },
  "textSecundary" : {
    "secondTextClass": "g-font--light",
    "secondText": "Te indicaremos que hacer a continuación y enviaremos ayuda si es necesario."
  },
  "classWidth" : "w-px-lg--22 ",
  "addBtnClass" : "g-btn g-text--uppercase d-flex align-items-center g-pl--15 g-pr--15 ",
  "iconBtn" : {
    "iconClass" : "g-font--25 g-font-md--21  g-mr--10  ",
    "icon" : "icon-mapfre_045_call"
  },
  "textBtnClass" : "g-font--14 g-font--normal g-line--10",
  "textBtn" : "943 234 122"

}
