{
  "addClass" : " g-mb--10 ",
  "icon" : {
    "addClass" : "g-items-icon g-c--gray3 g-font--45  g-pr--20 ",
    "iconFile" : "icon-mapfre_042_home"
  },
  "text": "Full Cobertura Premium",
  "secondText": "Seat Ibiza 2016 - CGG 5463",
  "second": {
    "text": "PÓLIZA 76584847394",
    "secondText": "Venció el 04/05/2018"
  },
  "thrid": {
    "text": "<span class='g-font--medium'>Prima:</span> S/. 360,45",
    "secondText": "<span class='g-font--medium'>4 cuotas:</span> S/. 35"
  },
  "verDetalle": {
    "text" : "Ver detalle"
  },
  "btnPrimary" : {
    "addClassBtn" : " g-text--uppercase g-c--pointer g-font--11",
    "text" : "RENOVAR POR: S/ 70"
  },
  "btnPrimary-" : {
    "addClassBtn" : " g-btn--gray16 g-text--uppercase g-c--pointer g-line--10 g-pl--15 g-pr--15 ",
    "text" : "<span class='g-font--11 g-font--light text-center'>A PARTIR DE:</span><br><span class='g-font--12 g-font--bold text-center'> 08/08</span>"
  }
}
