{
  "addClass" : "g-font--light",
  "text" : "loremipsum@gmail.com",
  "editIcon" : {
    "href" : "#",
    "addClass" : "g-border-right  g-pr--10  ",
    "iconFile" : "icon-mapfre_003_check",
    "addIconClass" : "g-c--green1"
  },
  "profile" : false
}
