{
  "classmh" : "g-mh-md--10",
  "icon" : {
    "iconFile": "icon-mapfre_014_perfil",
    "iconClass": "g-c--gray6 g-font--55 g-font-lg--75  g-px--10 "
  },
  "dateList": {
    "text" : "MIS DATOS",
    "text2" : "CESAR AUGUSTO MORI TAPIA",
    "text3" : "DNI: 11111111"
  },
  "btnAdd": {
    "addClass": "g-btn-outline g-btn block g-text--uppercase",
    "text": "Agregar Dirección"
  },
  "btnIconAdd": {
    "iconFile": "icon-mapfre_035_edit",
    "iconClass": "g-c--pointer g-c--green1 g-font--25 g-font-md--21"
  }
}