{
  "classTitle": "text-md-left text-center g-font--18 g-font-md--24  g-mb--10 ",
  "title": "¡COTIZA TU SCTR EN 1 MINUTO!",
  "classDes": "text-center text-md-left",
  "description": "Completa los datos para ofrecerte una cotización personalizada"
}