<?xml version="1.0" encoding="UTF-8"?>
<svg width="22px" height="20px" viewBox="0 0 22 20" version="1.1" xmlns="http://www.w3.org/2000/svg" xmlns:xlink="http://www.w3.org/1999/xlink">
    <!-- Generator: sketchtool 49.2 (51160) - http://www.bohemiancoding.com/sketch -->
    <title>6F1801A5-9312-4586-9026-D88DDF7C1D2B</title>
    <desc>Created with sketchtool.</desc>
    <defs></defs>
    <g id="Symbols" stroke="none" stroke-width="1" fill="none" fill-rule="evenodd">
        <g id="icon_32x32-/-download" transform="translate(-5.000000, -6.000000)" fill="#8DB602">
            <path d="M21.3925781,10.1464844 C22.1660195,10.2324223 22.8929002,10.4472639 23.5732422,10.7910156 C24.2535841,11.1347673 24.8479792,11.5751926 25.3564453,12.1123047 C25.8649114,12.6494167 26.2659491,13.265296 26.5595703,13.9599609 C26.8531916,14.6546259 27,15.3958294 27,16.1835938 C27,16.9283891 26.8782564,17.6731734 26.6347656,18.4179688 C26.3912748,19.1627641 26.0367862,19.8323538 25.5712891,20.4267578 C25.1057919,21.0211618 24.5364617,21.5117168 23.8632812,21.8984375 C23.1901008,22.2851582 22.4238324,22.4928384 21.5644531,22.5214844 C21.3782543,22.5214844 21.2171231,22.4534512 21.0810547,22.3173828 C20.9449863,22.1813144 20.8769531,22.0201832 20.8769531,21.8339844 C20.8769531,21.6477855 20.9449863,21.4866543 21.0810547,21.3505859 C21.2171231,21.2145175 21.3782543,21.1464844 21.5644531,21.1464844 L21.7578125,21.1464844 C22.345055,21.1464844 22.8785783,20.9996759 23.3583984,20.7060547 C23.8382185,20.4124334 24.2499983,20.0257185 24.59375,19.5458984 C24.9375017,19.0660783 25.202473,18.532555 25.3886719,17.9453125 C25.5748707,17.35807 25.6679688,16.7708363 25.6679688,16.1835938 C25.6679688,15.5390593 25.5390638,14.9339221 25.28125,14.3681641 C25.0234362,13.802406 24.6725283,13.3082703 24.2285156,12.8857422 C23.784503,12.463214 23.2760445,12.1266289 22.703125,11.8759766 C22.1302055,11.6253243 21.5214876,11.5 20.8769531,11.5 L20.3828125,11.4785156 L20.2324219,11.0058594 C19.8743472,9.86002031 19.2978555,8.96842767 18.5029297,8.33105469 C17.7080038,7.69368171 16.6302151,7.375 15.2695312,7.375 C14.410152,7.375 13.6367222,7.52180843 12.9492188,7.81542969 C12.2617153,8.10905095 11.6709009,8.51724999 11.1767578,9.04003906 C10.6826147,9.56282813 10.3030612,10.1858688 10.0380859,10.9091797 C9.77311065,11.6324906 9.640625,12.4095011 9.640625,13.2402344 L9.66210938,13.2402344 L9.70507812,13.8847656 L9.08203125,13.9921875 C8.32291287,14.1210944 7.67838807,14.5292934 7.1484375,15.2167969 C6.61848693,15.9043003 6.35351562,16.6777301 6.35351562,17.5371094 C6.35351562,18.5110726 6.67935872,19.3561162 7.33105469,20.0722656 C7.98275065,20.788415 8.75259973,21.1464844 9.640625,21.1464844 L10.2421875,21.1464844 C10.4427093,21.1464844 10.6074212,21.2145175 10.7363281,21.3505859 C10.865235,21.4866543 10.9296875,21.6477855 10.9296875,21.8339844 C10.9296875,22.0201832 10.865235,22.1813144 10.7363281,22.3173828 C10.6074212,22.4534512 10.4427093,22.5214844 10.2421875,22.5214844 L9.640625,22.5214844 C9.01041352,22.5214844 8.41601842,22.3889987 7.85742188,22.1240234 C7.29882533,21.8590482 6.80827034,21.4973981 6.38574219,21.0390625 C5.96321403,20.5807269 5.62662886,20.0507843 5.37597656,19.4492188 C5.12532427,18.8476532 5,18.2102898 5,17.5371094 C5,16.4342393 5.30793963,15.4388065 5.92382812,14.5507812 C6.53971662,13.662756 7.32746916,13.0683609 8.28710938,12.7675781 C8.34440133,11.8079379 8.55566224,10.9163453 8.92089844,10.0927734 C9.28613464,9.26920161 9.77310894,8.55306294 10.3818359,7.94433594 C10.9905629,7.33560894 11.7067016,6.85937672 12.5302734,6.515625 C13.3538453,6.17187328 14.2669221,6 15.2695312,6 C16.0429726,6 16.7519499,6.09667872 17.3964844,6.29003906 C18.0410188,6.4833994 18.6210912,6.75911279 19.1367188,7.1171875 C19.6523463,7.47526221 20.0963523,7.9121068 20.46875,8.42773438 C20.8411477,8.94336195 21.1490873,9.51627289 21.3925781,10.1464844 Z M18.8789062,21.2109375 L19.0507812,21.3613281 C19.1510422,21.461589 19.2011719,21.5690098 19.2011719,21.6835938 C19.2011719,21.7981777 19.1510422,21.9055985 19.0507812,22.0058594 L16.515625,24.7773438 L16.515625,24.7988281 L16.34375,24.9707031 C16.286458,25.0279951 16.229167,25.0673827 16.171875,25.0888672 C16.114583,25.1103517 16.0501306,25.1210938 15.9785156,25.1210938 C15.9212237,25.1210938 15.8603519,25.1103517 15.7958984,25.0888672 C15.731445,25.0673827 15.6777346,25.0279951 15.6347656,24.9707031 L15.4628906,24.7988281 L15.4628906,24.7773438 L12.9707031,22.0488281 C12.8704422,21.9485672 12.8203125,21.8268236 12.8203125,21.6835938 C12.8203125,21.5403639 12.8704422,21.4186203 12.9707031,21.3183594 L13.1425781,21.2109375 C13.242839,21.1106766 13.3610019,21.0677083 13.4970703,21.0820312 C13.6331387,21.0963542 13.7513016,21.1536453 13.8515625,21.2539062 L15.3125,22.8867188 L15.3125,15.96875 C15.3125,15.7825512 15.3769525,15.62142 15.5058594,15.4853516 C15.6347663,15.3492832 15.7994782,15.28125 16,15.28125 C16.1861988,15.28125 16.34733,15.3492832 16.4833984,15.4853516 C16.6194668,15.62142 16.6875,15.7825512 16.6875,15.96875 L16.6875,22.8867188 L18.1914062,21.2109375 C18.2916672,21.1106766 18.40983,21.0605469 18.5458984,21.0605469 C18.6819668,21.0605469 18.7929683,21.1106766 18.8789062,21.2109375 Z" id="icon_download"></path>
        </g>
    </g>
</svg>