{
  "addClass" : "",
  "list" : [
    {
      "itemClass" : "",
      "icon" : false,
      "iconFile" : "",
      "iconClass" : "",
      "title" : {
        "textClass" : "",
        "text" : "Lore ipsum"
      },
      "subtitle" : false,
      "imgSrc" : false
    },
    {
      "itemClass" : "",
      "icon" : false,
      "iconFile" : "",
      "iconClass" : "",
      "title" : {
        "textClass" : "",
        "text" : "Lore ipsum"
      },
      "subtitle" : false,
      "imgSrc" : false
    },
    {
      "itemClass" : "",
      "icon" : false,
      "iconFile" : "",
      "iconClass" : "",
      "title" : {
        "textClass" : "",
        "text" : "Lore ipsum"
      },
      "subtitle" : false,
      "imgSrc" : false
    },
    {
      "itemClass" : "",
      "icon" : false,
      "iconFile" : "",
      "iconClass" : "",
      "title" : {
        "textClass" : "",
        "text" : "Lore ipsum"
      },
      "subtitle" : false,
      "imgSrc" : false
    }
  ]
}