{
  "addClass" : "green",
  "ico-font" : "icon-mapfre_003_check",
  "list": [
    { "addClass" : "", "text" : "Lore ipsum"},
    { "addClass" : "", "text" : "Lore ipsum"},
    { "addClass" : "", "text" : "Lore ipsum"},
    { "addClass" : "", "text" : "Lore ipsum"}
  ]
}