{
  "dateAddDni": {
    "icon": {
      "addClass": "d-none d-lg-flex g-bg-c--gray1 g-c--white1  g-mt--20   g-pl--10 ",
      "iconFile": "icon-mapfre_014_perfil",
      "iconClass": ""
    },
    "title": "NUEVOS DATOS",
    "subtitle": "",
    "dateGeneral": {
      "addClass": "",
      "alert": {
        "addClass": "g-bg-c--red7 g-b--1 g-bc--orange1  g-p--10   g-mt--10 ",
        "icon": {
          "iconFile": "icon-mapfre_013_atention",
          "iconClass": "g-font--30 g-c--orange1  g-pr--10 "
        },
        "textClass": "",
        "titleClass": "g-c--orange1",
        "titleText": "Hemos detectado que deseas cambiar información sensible, necesitamos fotos de tu documento de identidad como confirmación.",
        "subTitle": false,
        "btnDetalle": false
      },
      "dataCompares": [{
          "addClass": "justify-content-between g-bb--1 g-bc--gray7  g-pb--10 ",
          "labelClass": "g-c--gray2 g-font--light",
          "label": "Nombres",
          "text": "Gonsalo Antonio",
          "divCenter": {
            "addClass": "align-self-end",
            "icon": "icon-mapfre_075_arrow-right g-font--25 g-font-md--21 g-c--gray1"
          },
          "divRigth": {
            "addClass": "align-self-end mr-auto g-pt--10  g-pl--15   g-pl-lg--25 ",
            "addClassText": "g-font--medium g-font--14 g-font-md--18",
            "text": "Gonsalo Antonio"
          }

        },
        {
          "addClass": "justify-content-between g-bb--1 g-bc--gray7  g-pb--10 ",
          "labelClass": "g-c--gray2 g-font--light",
          "label": "Apellido paterno",
          "text": "Gutierrez",
          "divCenter": {
            "addClass": "align-self-end",
            "icon": "icon-mapfre_075_arrow-right g-font--25 g-font-md--21 g-c--gray1"
          },
          "divRigth": {
            "addClass": "align-self-end mr-auto g-pt--10  g-pl--15   g-pl-lg--25 ",
            "addClassText": "g-font--medium g-font--14 g-font-md--18",
            "text": "Almendariz"
          }

        },
        {
          "addClass": "justify-content-between g-bb--1 g-bc--gray7  g-pb--10 ",
          "labelClass": "g-c--gray2 g-font--light",
          "label": "Fecha de nacimiento",
          "text": "12/03/2000",
          "divCenter": {
            "addClass": "align-self-end",
            "icon": "icon-mapfre_075_arrow-right g-font--25 g-font-md--21 g-c--gray1"
          },
          "divRigth": {
            "addClass": "align-self-end mr-auto g-pt--10  g-pl--15   g-pl-lg--25 ",
            "addClassText": "g-font--medium g-font--14 g-font-md--18",
            "text": "20/03/1995"
          }

        }
      ]
    },
    "addPhoto": {
      "addClass": "mw--500",
      "iconClass": "icon-mapfre_076_upload g-font--21 g-c--red1",
      "textDescription": "Sube una foto de ambas caras de tu DNI para poder hacer el cambio",
      "frontImg": {
        "srcImg": "/images/icons/add-img.svg",
        "text": "Frontal &nbsp;"
      },
      "revImg": {
        "srcImg": "/images/icons/add-doc.svg",
        "text": "Reverso &nbsp;"
      },
      "textLink": {
        "link": "Agrega"
      },
      "text": "o arrastra las imágenes"
    },
    "dataPrivacy": "privacy",
    "onclickPrivacy": "fullModal.open('privacy')",
    "privacy": {
      "closeButton": {
        "addClass": "g-text--uppercase g-btn-outline  g-px--35  g-modal--close",
        "text": "Cerrar",
        "data": "",
        "onclick": "fullModal.close('privacy')"
      }
    },
    "dataElectronic": "privacy",
    "onclickElectronic": "fullModal.open('privacy')",
    "electronic": {
      "closeButton": {
        "addClass": "g-text--uppercase g-btn-outline  g-px--35  g-modal--close",
        "text": "Cerrar",
        "data": "",
        "onclick": "fullModal.close('electronic')"
      }
    },
    "buttomLink": {
      "addClass": "g-text--uppercase g-btn-outline disabled",
      "data": "terms",
      "text": "Siguiente"
    }
  }
}
