{
  "addClass" : "",
  "icon" : false,
  "title": "DETALLES DE MI PÓLIZA",
  "titleClass": " g-pl--15  pl-lg-0",
  "payment": false,
  "dots": true,
  "filter": false,
  "mont": false,
  "dropdown": {
    "lists": [
      {
        "icon" : {
          "iconFile": "icon-mapfre_092_transpasarpoliza",
          "iconClass": "g-font--30 g-c--green1"
        },
        "textClass" : "g-font--medium g-c--green1",
        "text" : "Trapasar póliza"
      },
      {
        "icon" : {
          "iconFile": "icon-mapfre_093_pdf",
          "iconClass": "g-font--30 g-c--green1"
        },
        "textClass" : "g-font--medium g-c--green1",
        "text" : "Ver póliza y condicionado"
      }
    ],
    "inputs": false
  },
  "accordion": false
}