{
  "addClass": "",
  "data": "",
  "modalContainer": "",
  "modalWrapper": "g-full-modal--medium",
  "page": "Perfil",
  "title": "",
  "content": false,
  "btnOne": {
    "data": "",
    "addClass1": "g-btn-outline",
    "text1": "Cancelar",
    "addClass2": "",
    "text2": "Guardar"
  },
  "btnTwo": false
}