<?xml version="1.0" encoding="UTF-8"?>
<svg width="200px" height="100px" viewBox="0 0 200 100" version="1.1" xmlns="http://www.w3.org/2000/svg" xmlns:xlink="http://www.w3.org/1999/xlink">
    <!-- Generator: Sketch 52.2 (67145) - http://www.bohemiancoding.com/sketch -->
    <title>imagemaking / pago@1x</title>
    <desc>Created with Sketch.</desc>
    <g id="imagemaking-/-pago" stroke="none" stroke-width="1" fill="none" fill-rule="evenodd">
        <g id="imagemaking_pago-en-banca-2" transform="translate(48.000000, 1.000000)">
            <path d="M82.0842105,83.0683333 L65.2105263,83.0683333 C64.1973684,83.0683333 57.8421053,83.0683333 51.8736842,82.9033333 C47.811533,82.8535386 43.9936659,80.9638187 41.5026316,77.77 C35.8236406,70.0464003 32.8879005,60.6619382 33.1578947,51.095 C33.1763507,41.6093364 37.4282544,32.622104 44.7631579,26.565 C27.9085518,27.7088254 14.8039528,41.615167 14.7368421,58.4283333 C14.7555554,68.6385323 19.6867206,78.2221475 28,84.205 L28,91.8316667 C28,93.4265018 28.6365771,94.9560167 29.7696917,96.0837354 C30.9028062,97.2114542 32.4396393,97.845 34.0421053,97.845 L34.8526316,97.845 C37.734628,97.8405084 40.214822,95.8167406 40.7842105,93.005 L41.3,90.4016667 L63.6631579,90.4016667 C65.6600232,90.3985976 67.6521576,90.2083125 69.6131579,89.8333333 L70.1289474,92.3816667 C70.6150052,95.2353245 72.889416,97.4545207 75.7657895,97.8816667 C77.6231396,98.1361131 79.5002348,97.5779983 80.9129623,96.3512631 C82.3256898,95.1245279 83.135745,93.3492684 83.1342105,91.4833333 L83.1342105,83.82 L84.1657895,82.9583333 C83.4289474,83.0133333 82.7657895,83.0683333 82.0842105,83.0683333 Z" id="Path" fill="#E0E1E0"></path>
            <ellipse id="Oval" fill="#231F20" cx="77.8289474" cy="47.465" rx="3.62894737" ry="3.61166667"></ellipse>
            <path d="M11.1631579,52.9283333 C9.28583269,52.9107248 7.46906225,52.264968 6.00526316,51.095 C5.12773388,51.0488203 4.26328926,50.8631379 3.44473684,50.545 C0.971925995,49.7611395 -0.468897539,47.2056421 0.147368421,44.6966667 C0.264365592,44.1904057 0.771579838,43.8743933 1.28026315,43.9908333 C1.78894647,44.1072734 2.10647084,44.6120723 1.98947368,45.1183333 C1.56560691,46.7510841 2.53164501,48.4213787 4.16315789,48.8766667 L4.49473684,49.005 C4.14722102,47.992475 4.22016132,46.8837825 4.69736842,45.925 C5.3909237,43.9402311 7.12519605,42.4960154 9.21052632,42.1666667 C10.4920237,42.0707203 11.7206327,42.6927014 12.3973684,43.78 C13.1694847,45.2335313 13.0629111,46.9942285 12.1210526,48.345 C11.4106584,49.4761368 10.320842,50.320457 9.04473684,50.7283333 C10.0859152,51.0904044 11.2059194,51.1664047 12.2868421,50.9483333 C13.4311533,50.7608789 14.3360874,49.8822205 14.5526316,48.7483333 C14.6217343,48.4208399 14.8611394,48.1549137 15.1806654,48.0507267 C15.5001915,47.9465397 15.8512947,48.0199203 16.1017181,48.2432267 C16.3521414,48.4665331 16.4638395,48.8058399 16.3947368,49.1333333 C16.046181,50.9959267 14.5820316,52.4531039 12.7105263,52.8 C12.2016387,52.9034418 11.6822297,52.9465198 11.1631579,52.9283333 Z M9.46842105,44 L9.35789474,44 C7.9425661,44.3028322 6.79357987,45.327812 6.33684211,46.695 C5.90582711,47.5245273 6.03803017,48.5332577 6.66842105,49.225 C6.66842105,49.225 6.66842105,49.225 6.66842105,49.225 C8.1665408,49.2821494 9.59538567,48.5951732 10.4815789,47.3916667 C11.0527379,46.6157236 11.1650631,45.5956373 10.7763158,44.715 C10.4852313,44.2768848 9.99608157,44.0094765 9.46842105,44 Z" id="Shape" fill="#231F20" fill-rule="nonzero"></path>
            <path d="M75.8947368,98.7616667 C72.3204262,98.8280888 69.2138675,96.3314881 68.5263158,92.84 L68.1578947,90.8783333 C66.4289869,91.1665641 64.679306,91.3137203 62.9263158,91.3183333 L46.0526316,91.3183333 C44.4669719,91.3111139 42.8842243,91.1824002 41.3184211,90.9333333 L40.8763158,93.1883333 C40.176398,96.3900499 37.334381,98.6772334 34.0421053,98.6883333 L33.2315789,98.6883333 C29.385933,98.6883333 26.2684211,95.5856666 26.2684211,91.7583333 L26.2684211,84.6083333 C15.6916559,76.7826537 10.8130128,63.4405203 13.8622022,50.679755 C16.9113917,37.9189897 27.3026632,28.1909407 40.2868421,25.9416667 C40.7849367,25.8524592 41.2620449,26.1799324 41.3552632,26.675 C41.4035175,26.9137265 41.3523272,27.1617217 41.2134175,27.3621815 C41.0745079,27.5626413 40.8597811,27.6983898 40.6184211,27.7383333 C28.2915788,29.8803226 18.4513993,39.1595578 15.6382475,51.2944998 C12.8250956,63.4294418 17.5857858,76.0613267 27.7236842,83.3616667 L28.1105263,83.6366667 L28.1105263,91.7216667 C28.1105263,94.5364779 30.4032997,96.8183333 33.2315789,96.8183333 L34.0421053,96.8183333 C36.486355,96.8137538 38.5892148,95.0965467 39.0710526,92.7116667 L39.8631579,88.7333333 L40.7473684,88.88 C42.4979611,89.1982295 44.2731118,89.3638574 46.0526316,89.375 L63,89.375 C64.9414887,89.36223 66.8776942,89.1719862 68.7842105,88.8066667 L69.6868421,88.6416667 L70.4236842,92.3083333 C70.6178299,94.2732941 71.8505377,95.9859104 73.6574585,96.8010564 C75.4643794,97.6162023 77.5709991,97.4100378 79.1837743,96.2602231 C80.7965496,95.1104083 81.6704614,93.1916274 81.4763158,91.2266667 L81.4763158,83.38 L81.8447368,83.105 C87.6001953,78.7368824 91.6664005,72.5274076 93.3578947,65.5233333 L93.5052632,64.9 L98.5526316,64.2583333 C99.615985,64.2730095 100.641384,63.8653803 101.401953,63.1256356 C102.162523,62.3858908 102.595564,61.3750142 102.605263,60.3166667 L102.605263,56.3383333 C102.605263,55.2978006 102.189935,54.2998855 101.450647,53.5641177 C100.711359,52.82835 99.7086692,52.415 98.6631579,52.415 L93.45,51.755 L93.3026316,51.15 C91.8965459,45.5117239 88.928756,40.3793469 84.7368421,36.3366667 L84.3684211,36.0066667 L86.6894737,24.1633333 C86.7280752,23.9874355 86.6551052,23.8058794 86.5052632,23.705 C86.3524682,23.6126119 86.1606897,23.6126119 86.0078947,23.705 L76.5026316,30.525 L76.0236842,30.305 C73.6318331,29.1839925 71.1062436,28.370781 68.5078947,27.885 C68.0078515,27.7834738 67.6806994,27.3032223 67.7710526,26.8033333 C67.8815273,26.3113444 68.3577763,25.9900012 68.8578947,26.07 C71.3987344,26.5590903 73.8722037,27.3468314 76.2263158,28.4166667 L84.8657895,22.22 C85.6216593,21.6711969 86.6387377,21.6412285 87.4259063,22.1445658 C88.2130749,22.6479031 88.6084248,23.5810171 88.4210526,24.4933333 L86.45,35.3833333 C90.5071764,39.4563161 93.4277188,44.5113337 94.9236842,50.05 L98.7552632,50.5266667 C101.903555,50.5867231 104.421165,53.149476 104.410526,56.2833333 L104.410526,60.3166667 C104.370302,63.4601834 101.803535,65.9902429 98.6447368,66 L94.9605263,66.4766667 C93.156907,73.545033 89.0576952,79.8224735 83.3,84.3333333 L83.3,91.4466667 C83.2951309,93.3947781 82.5116041,95.2609014 81.1223117,96.6332595 C79.7330194,98.0056176 77.8521509,98.7714133 75.8947368,98.7616667 Z" id="Path" fill="#231F20"></path>
            <path d="M46.0526316,31.5333333 C39.612913,27.6124797 36.5780995,19.908306 38.6245306,12.6763653 C40.6709618,5.44442463 47.2994769,0.448714506 54.8486842,0.448714506 C62.3978916,0.448714506 69.0264067,5.44442463 71.0728378,12.6763653 C73.1192689,19.908306 70.0844554,27.6124797 63.6447368,31.5333333" id="Path" fill="#8DB602"></path>
            <path d="M45.85,31.9366667 C39.2339397,27.9089707 36.1157752,19.994214 38.2179539,12.5644405 C40.3201327,5.13466696 47.1298704,0.00222039833 54.8855263,0.00222039833 C62.6411822,0.00222039833 69.45092,5.13466696 71.5530987,12.5644405 C73.6552774,19.994214 70.5371129,27.9089707 63.9210526,31.9366667 L63.4421053,31.1666667 C69.7169357,27.351571 72.6765758,19.8485903 70.6855188,12.8038961 C68.6944617,5.75920184 62.2386255,0.892053773 54.8855263,0.892053773 C47.5324272,0.892053773 41.0765909,5.75920184 39.0855339,12.8038961 C37.0944768,19.8485903 40.0541169,27.351571 46.3289474,31.1666667 L45.85,31.9366667 Z" id="Path" fill="#8DB602"></path>
            <path d="M55.9815789,8.745 C56.828965,8.7392435 57.6707552,8.88197668 58.4684211,9.16666667 C59.2489715,9.46243192 59.9582121,9.91843204 60.55,10.505 C61.6,11.4583333 59.9973684,13.2183333 58.8921053,12.1183333 C58.5193077,11.7055824 58.0842858,11.3530372 57.6026316,11.0733333 C57.1004504,10.8171015 56.5458366,10.6791083 55.9815789,10.67 L55.9815789,16.17 C56.6447368,16.3533333 57.2894737,16.555 57.8236842,16.775 C58.3951758,16.987489 58.9344725,17.2774458 59.4263158,17.6366667 C59.8891272,17.9815508 60.267077,18.4266617 60.5315789,18.9383333 C60.8299267,19.5420327 60.975381,20.2091953 60.9552632,20.8816667 C60.9691392,21.5456669 60.8305305,22.2040579 60.55,22.8066667 C60.2905272,23.3580232 59.9206967,23.8508619 59.4631579,24.255 C58.9984246,24.6763027 58.4534508,25.0004831 57.8605263,25.2083333 C57.2725213,25.4441999 56.6508812,25.5864963 56.0184211,25.63 L56.0184211,27.28 C56.0184211,28.215 54.4894737,28.1233333 54.4894737,27.28 L54.4894737,25.6666667 C53.6112253,25.6744676 52.7403967,25.5061194 51.9289474,25.1716667 C51.0040873,24.8660518 50.2240766,24.2332724 49.7368421,23.3933333 C48.7605263,21.7066667 50.8236842,20.6616667 51.5789474,21.7983333 C51.8977337,22.3889875 52.4025206,22.8591667 53.0157895,23.1366667 C53.4949181,23.4486243 54.0470479,23.6317912 54.6184211,23.6683333 L54.6184211,18.0033333 C54.0958248,17.8604638 53.5895888,17.663849 53.1078947,17.4166667 C52.561046,17.1882292 52.0518392,16.8792158 51.5973684,16.5 C51.1591682,16.141811 50.8067537,15.6908643 50.5657895,15.18 C50.3027137,14.6047127 50.1706173,13.9786777 50.1789474,13.3466667 C50.1642512,12.7140555 50.2966428,12.0866214 50.5657895,11.5133333 C50.8180724,10.9886305 51.1753737,10.520736 51.6157895,10.1383333 C52.0025392,9.74559441 52.4503931,9.41749403 52.9421053,9.16666667 C53.4152641,8.93163393 53.9268102,8.78262608 54.4526316,8.72666667 L54.4526316,7.07666667 C54.4056975,6.77665683 54.5402897,6.47720752 54.7962941,6.31206449 C55.0522985,6.14692147 55.381912,6.14692147 55.6379164,6.31206449 C55.8939209,6.47720752 56.0285131,6.77665683 55.9815789,7.07666667 L55.9815789,8.745 Z M54.4526316,10.6883333 C53.8572318,10.7760387 53.3139969,11.075675 52.9236842,11.5316667 C52.4238606,12.0060296 52.1665291,12.679993 52.2236842,13.365 C52.2160778,13.696178 52.2920824,14.0239625 52.4447368,14.3183333 C52.5794753,14.5855114 52.7675122,14.8225573 52.9973684,15.015 C53.236589,15.2213368 53.503106,15.3940563 53.7894737,15.5283333 C54.0009356,15.6564693 54.2227552,15.766851 54.4526316,15.8583333 L54.4526316,10.6883333 Z M55.9815789,23.6683333 C56.3472085,23.6181058 56.7057467,23.525822 57.05,23.3933333 C57.3745147,23.254279 57.6733747,23.0621844 57.9342105,22.825 C58.1865134,22.6012581 58.3875451,22.3261557 58.5236842,22.0183333 C58.6743919,21.6841705 58.749839,21.3212459 58.7447368,20.955 C58.7595786,20.5975302 58.6768219,20.2427376 58.5052632,19.9283333 C58.3479311,19.6446201 58.1349477,19.3952446 57.8789474,19.195 C57.6103726,18.9874733 57.3124052,18.8206647 56.9947368,18.7 C56.6631579,18.5533333 56.3131579,18.425 55.9815789,18.315 L55.9815789,23.6683333 Z" id="Shape" fill="#FFFFFF" fill-rule="nonzero"></path>
            <path d="M67.6973684,33.2016667 L67.5315789,33.2016667 C63.3030539,32.4232759 59.0251322,31.9393241 54.7289474,31.7533333 C50.2785818,31.7225197 45.8398009,32.2085835 41.5026316,33.2016667 C41.1735712,33.28354 40.8256189,33.1844785 40.589845,32.9417975 C40.3540711,32.6991165 40.2662953,32.3496852 40.3595819,32.0251308 C40.4528684,31.7005765 40.7130449,31.4502067 41.0421053,31.3683333 C45.5293082,30.3344519 50.1232,29.8298687 54.7289474,29.865 C59.1375507,30.0405118 63.5273412,30.5368369 67.8631579,31.35 C68.1059671,31.3943514 68.320724,31.5338532 68.4592542,31.7372122 C68.5977844,31.9405713 68.6484912,32.1907639 68.6,32.4316667 C68.5354192,32.8771321 68.1495765,33.2062796 67.6973684,33.2016667 Z" id="Path" fill="#231F20"></path>
        </g>
    </g>
</svg>