<?xml version="1.0" encoding="UTF-8"?>
<svg width="200px" height="100px" viewBox="0 0 200 100" version="1.1" xmlns="http://www.w3.org/2000/svg" xmlns:xlink="http://www.w3.org/1999/xlink">
    <!-- Generator: Sketch 52 (66869) - http://www.bohemiancoding.com/sketch -->
    <title>imagemaking / doctor</title>
    <desc>Created with Sketch.</desc>
    <g id="imagemaking-/-doctor" stroke="none" stroke-width="1" fill="none" fill-rule="evenodd">
        <g id="img_doctor" transform="translate(46.000000, 0.000000)">
            <path d="M16.0098039,2.94117647 C16.0185305,2.25345467 16.20062,1.57904929 16.5392157,0.980392157 C16.136272,0.833694118 15.7128432,0.750993188 15.2843137,0.735294118 C13.2411478,0.721035014 11.487623,2.18709919 11.1396944,4.20047343 C10.7917658,6.21384767 11.9515923,8.18336435 13.8810524,8.85560966 C15.8105125,9.52785497 17.9430776,8.70544401 18.9215686,6.91176471 C17.1852694,6.36998307 16.0046386,4.76003211 16.0098039,2.94117647 Z" id="Path" fill="#E0E0E0"></path>
            <path d="M41.4509804,2.94117647 C41.4631213,2.25265855 41.6485695,1.57830153 41.9901961,0.980392157 C39.8959549,0.306662565 37.6387781,1.37713908 36.8353191,3.42511637 C36.03186,5.47309366 36.9589927,7.79283328 38.9526789,8.7228726 C40.946365,9.65291192 43.3195749,8.8727569 44.372549,6.94117647 C42.6238824,6.39699491 41.4373715,4.77251019 41.4509804,2.94117647 Z" id="Path" fill="#E0E0E0"></path>
            <path d="M100.980392,92.2254902 C95.1251704,92.2234386 89.9660532,88.3771122 88.2924915,82.7661571 C86.6189297,77.155202 88.8280798,71.1111659 93.7254902,67.9019608 C88.1640739,68.2387291 83.4079995,72.0198843 81.8260674,77.3621923 C80.2441352,82.7045004 82.1746042,88.4656346 86.6559891,91.7762168 C91.1373739,95.086799 97.2114361,95.2389392 101.852941,92.1568627 C101.568627,92.2058824 101.27451,92.2254902 100.980392,92.2254902 Z" id="Path" fill="#E0E0E0"></path>
            <path d="M49.4901961,54.5294118 L50.2352941,54.5294118 C51.92755,51.8027981 53.2464953,48.86155 54.1568627,45.7843137 C52.6665401,49.3788891 50.0840505,52.414086 46.7745098,54.4607843 C47.6666667,54.5 48.5686275,54.5294118 49.4901961,54.5294118 Z" id="Path" fill="#E0E0E0"></path>
            <path d="M35.1960784,58.4803922 C32.8807724,58.8111072 30.5446846,58.9749282 28.2058824,58.9705882 C16.4411765,58.9705882 6.52941176,55.254902 2.57843137,46.2843137 C6.5,58.4411765 15.8921569,67.372549 27.1960784,67.8529412 C32.9803629,68.0531484 38.6420276,66.1554809 43.1372549,62.5098039 C40.2656192,61.6647016 37.5738199,60.2988627 35.1960784,58.4803922 Z" id="Path" fill="#E0E0E0"></path>
            <path d="M28.3235294,68.627451 L27.3431373,68.627451 C12.245098,67.9705882 0,52.9411765 0,35.0882353 L0,18.1862745 C0,10.4607843 5.46078431,4.17647059 12.1862745,4.17647059 L12.1862745,5.64705882 C6.2745098,5.64705882 1.47058824,11.2745098 1.47058824,18.1862745 L1.47058824,35.0882353 C1.47058824,52.1666667 13.0882353,66.5392157 27.3627451,67.127451 C34.0998849,67.3206313 40.6234899,64.75298 45.4215686,60.0196078 C51.6470588,54.0392157 55.2254902,45.2352941 55.2254902,35.8627451 L55.2254902,18.2156863 C55.2254902,11.3529412 50.4215686,5.67647059 44.5098039,5.67647059 L44.5098039,4.17647059 C51.2254902,4.17647059 56.6960784,10.4607843 56.6960784,18.1862745 L56.6960784,35.8333333 C56.8369429,45.2916744 53.1326231,54.4021075 46.4313725,61.0784314 C41.6069191,65.8540151 35.111552,68.5618833 28.3235294,68.627451 Z" id="Path" fill="#303030"></path>
            <path d="M50.2843137,99.5098039 L48.3235294,99.5098039 C37.5308494,99.4406611 28.574389,91.1476422 27.6764706,80.3921569 L29.1372549,80.2745098 C29.9753571,90.2827438 38.3195871,97.9929654 48.3627451,98.0392157 L50.3235294,98.0392157 C60.9672458,98.0230193 69.5916467,89.3986184 69.6078431,78.754902 L69.6078431,57.9215686 C69.6078431,50.8068416 75.375469,45.0392157 82.4901961,45.0392157 C89.6049231,45.0392157 95.372549,50.8068416 95.372549,57.9215686 L95.372549,67.8529412 L93.9019608,67.8529412 L93.9019608,57.9215686 C93.9019608,51.619025 88.7927397,46.5098039 82.4901961,46.5098039 C76.1876525,46.5098039 71.0784314,51.619025 71.0784314,57.9215686 L71.0784314,78.754902 C71.0621998,90.2261024 61.7555244,99.5152264 50.2843137,99.5098039 Z" id="Path" fill="#303030"></path>
            <path d="M94.5980392,95.0980392 C86.8714673,95.0980392 80.6078431,88.8344151 80.6078431,81.1078431 C80.6078431,73.3812712 86.8714673,67.1176471 94.5980392,67.1176471 C102.324611,67.1176471 108.588235,73.3812712 108.588235,81.1078431 C108.577435,88.8299371 102.320133,95.0872391 94.5980392,95.0980392 Z M94.5980392,68.627451 C87.6836507,68.627451 82.0784314,74.2326703 82.0784314,81.1470588 C82.0784314,88.0614473 87.6836507,93.6666667 94.5980392,93.6666667 C101.512428,93.6666667 107.117647,88.0614473 107.117647,81.1470588 C107.10685,74.2371474 101.507951,68.6382477 94.5980392,68.627451 Z" id="Shape" fill="#303030" fill-rule="nonzero"></path>
            <circle id="Oval" fill="#8DB602" cx="94.5980392" cy="81.1078431" r="4.42156863"></circle>
            <path d="M15.3529412,9.80392157 C12.645663,9.80392157 10.4509804,7.60923897 10.4509804,4.90196078 C10.4509804,2.1946826 12.645663,4.97318935e-16 15.3529412,0 C18.0602194,-4.97318935e-16 20.254902,2.1946826 20.254902,4.90196078 C20.254902,6.20204162 19.7384469,7.44887452 18.8191509,8.3681705 C17.8998549,9.28746647 16.653022,9.80392157 15.3529412,9.80392157 Z M15.3529412,1.45098039 C13.4537098,1.4509881 11.9135787,2.98966768 11.9117802,4.8888982 C11.9099817,6.78812871 13.4471959,8.32972242 15.3464238,8.33332714 C17.2456518,8.33693185 18.7887067,6.80118445 18.7941176,4.90196078 C18.788714,3.00528129 17.2496284,1.47058054 15.3529412,1.47058824 L15.3529412,1.45098039 Z" id="Shape" fill="#303030" fill-rule="nonzero"></path>
            <path d="M40.7254902,9.80392157 C38.018212,9.80392157 35.8235294,7.60923897 35.8235294,4.90196078 C35.8235294,2.1946826 38.018212,4.97318935e-16 40.7254902,0 C43.4327684,-4.97318935e-16 45.627451,2.1946826 45.627451,4.90196078 C45.627451,7.60923897 43.4327684,9.80392157 40.7254902,9.80392157 Z M40.7254902,1.45098039 C38.8262588,1.4509881 37.2861277,2.98966768 37.2843292,4.8888982 C37.2825307,6.78812871 38.8197449,8.32972242 40.7189729,8.33332714 C42.6182008,8.33693185 44.1612558,6.80118445 44.1666667,4.90196078 C44.1559102,3.00751637 42.6199576,1.47593973 40.7254902,1.47058824 L40.7254902,1.45098039 Z" id="Shape" fill="#303030" fill-rule="nonzero"></path>
            <path d="M28.3431373,58.5392157 C10.4117647,58.5392157 0.117647059,50.5392157 0.117647059,36.5784314 L1.58823529,36.5784314 C1.58823529,44.2352941 5.06862745,57.0686275 28.3431373,57.0686275 C51.6176471,57.0686275 55.2156863,44.2352941 55.2156863,36.5784314 L56.6862745,36.5784314 C56.6862745,50.5392157 46.3529412,58.5392157 28.3431373,58.5392157 Z" id="Path" fill="#303030"></path>
            <path d="M28.3431373,81.9411765 C25.2026946,81.9411765 22.6568627,79.3953447 22.6568627,76.254902 L22.6568627,71.3529412 C22.651202,71.1288748 22.7454025,70.9138791 22.913966,70.7661493 C23.0825296,70.6184194 23.3080238,70.5532332 23.5294118,70.5882353 C25.1089725,70.9013097 26.7134531,71.0719294 28.3235294,71.0980392 C29.9349269,71.0948743 31.5416201,70.9240194 33.1176471,70.5882353 C33.3364875,70.5333227 33.5684194,70.5833518 33.7451636,70.7235945 C33.9219078,70.8638372 34.0233432,71.0783277 34.0196078,71.3039216 L34.0196078,76.2058824 C34.0326697,77.7207537 33.4406998,79.1782114 32.3750201,80.2549344 C31.3093404,81.3316574 29.8580627,81.9386208 28.3431373,81.9411765 Z M24.127451,72.1960784 L24.127451,76.254902 C24.0525009,77.8077452 24.8382769,79.2758073 26.1719742,80.074676 C27.5056714,80.8735448 29.1707992,80.8735448 30.5044964,80.074676 C31.8381937,79.2758073 32.6239697,77.8077452 32.5490196,76.254902 L32.5490196,72.2058824 C31.159645,72.4440091 29.7527667,72.5653483 28.3431373,72.5686275 C26.9304863,72.5516891 25.5211789,72.4271456 24.127451,72.1960784 Z" id="Shape" fill="#303030" fill-rule="nonzero"></path>
        </g>
    </g>
</svg>