<?xml version="1.0" encoding="UTF-8"?>
<svg width="200px" height="100px" viewBox="0 0 200 100" version="1.1" xmlns="http://www.w3.org/2000/svg" xmlns:xlink="http://www.w3.org/1999/xlink">
    <!-- Generator: Sketch 53.2 (72643) - https://sketchapp.com -->
    <title>imagemaking / paso 2</title>
    <desc>Created with Sketch.</desc>
    <g id="imagemaking-/-paso-2" stroke="none" stroke-width="1" fill="none" fill-rule="evenodd">
        <g id="imagemaking-auto-inspección-2" transform="translate(42.000000, 0.000000)">
            <path d="M19.3255814,77.5813953 C18.5255165,77.5686943 17.8836201,76.9164448 17.8837209,76.1162791 L17.8837209,69.7674419 L12.1162791,69.7674419 L12.1162791,83.0930233 C12.1162791,83.4815963 12.2706391,83.8542543 12.5454017,84.1290169 C12.8201643,84.4037795 13.1928224,84.5581395 13.5813953,84.5581395 L24.0930233,84.5581395 C24.4815963,84.5581395 24.8542543,84.4037795 25.1290169,84.1290169 C25.4037795,83.8542543 25.5581395,83.4815963 25.5581395,83.0930233 L25.5581395,77.5813953 L19.3255814,77.5813953 Z" id="Path" fill="#DFE0DF"></path>
            <path d="M23.6511628,62.7906977 C22.3580478,62.7907125 21.1182321,62.2754381 20.2060466,61.3588881 C19.2938611,60.4423381 18.7845105,59.2000769 18.7906977,57.9069767 L18.7906977,31.3953488 L7.37209302,31.3953488 C4.68773226,31.3953488 2.51162791,33.5714532 2.51162791,36.255814 L2.51162791,64.8837209 C2.50544075,66.1768211 3.01479132,67.4190823 3.92697681,68.3356323 C4.8391623,69.2521823 6.07897806,69.7674567 7.37209302,69.7674419 L97.6744186,69.7674419 C98.9675336,69.7674567 100.207349,69.2521823 101.119535,68.3356323 C102.03172,67.4190823 102.541071,66.1768211 102.534884,64.8837209 L102.534884,62.7906977 L23.6511628,62.7906977 Z" id="Path" fill="#DFE0DF"></path>
            <path d="M30.4418605,17.627907 L38.627907,1.74418605 L30.5813953,1.74418605 C27.7290473,1.75020376 25.1183775,3.34710832 23.8139535,5.88372093 L10.6511628,31.4651163 L93.1395349,31.4651163 L89.6046512,24.4883721 L34.5813953,24.4883721 C32.9351689,24.5049034 31.4028499,23.6499523 30.5523199,22.240366 C29.7017899,20.8307798 29.6597805,19.0765911 30.4418605,17.627907 Z" id="Path" fill="#DFE0DF"></path>
            <path d="M22.7209302,85.1395349 L12.1860465,85.1395349 C10.7437837,85.126771 9.58133887,83.9539472 9.58139535,82.5116279 L9.58139535,68 L25.3255814,68 L25.3255814,82.5116279 C25.3256379,83.9539472 24.163193,85.126771 22.7209302,85.1395349 L22.7209302,85.1395349 Z M11.9069767,70.3255814 L11.9069767,82.5116279 C11.9004575,82.5895815 11.9269553,82.6666924 11.9800143,82.7241729 C12.0330732,82.7816534 12.1078213,82.8142256 12.1860465,82.8139535 L22.7209302,82.8139535 C22.7991554,82.8142256 22.8739036,82.7816534 22.9269625,82.7241729 C22.9800214,82.6666924 23.0065193,82.5895815 23,82.5116279 L23,70.3255814 L11.9069767,70.3255814 Z" id="Shape" fill="#000000" fill-rule="nonzero"></path>
            <path d="M88.5813953,88.627907 L78.0465116,88.627907 C77.3701163,88.6283798 76.7226728,88.3534821 76.2532438,87.8665044 C75.7838148,87.3795266 75.5328536,86.7224344 75.5581395,86.0465116 L75.5581395,71.744186 L91.0697674,71.744186 L91.0697674,86.0465116 C91.0950534,86.7224344 90.8440922,87.3795266 90.3746632,87.8665044 C89.9052342,88.3534821 89.2577907,88.6283798 88.5813953,88.627907 Z M77.627907,73.8372093 L77.627907,86.0465116 C77.627907,86.2777006 77.8153227,86.4651163 78.0465116,86.4651163 L88.5813953,86.4651163 C88.8125843,86.4651163 89,86.2777006 89,86.0465116 L89,73.8372093 L77.627907,73.8372093 Z" id="Shape" fill="#000000" fill-rule="nonzero"></path>
            <path d="M96.2325581,70.2790698 L5.97674419,70.2790698 C2.67587952,70.2790698 4.04239335e-16,67.6031902 0,64.3023256 L0,35.6744186 C-4.04239335e-16,32.3735539 2.67587952,29.6976744 5.97674419,29.6976744 L96.2325581,29.6976744 C97.8358888,29.6728023 99.3824634,30.2907507 100.527196,31.4136375 C101.671929,32.5365242 102.319559,34.0709064 102.325581,35.6744186 L102.325581,64.3023256 C102.319559,65.9058378 101.671929,67.44022 100.527196,68.5631067 C99.3824634,69.6859934 97.8358888,70.3039419 96.2325581,70.2790698 L96.2325581,70.2790698 Z M5.97674419,31.9302326 C3.94530425,31.9807186 2.32495414,33.6423515 2.3255814,35.6744186 L2.3255814,64.3023256 C2.3255814,66.3701824 4.00191059,68.0465116 6.06976744,68.0465116 L96.2325581,68.0465116 C98.3042106,68.0465511 99.987212,66.3739386 100,64.3023256 L100,35.6744186 C99.987212,33.6028056 98.3042106,31.9301931 96.2325581,31.9302326 L5.97674419,31.9302326 Z" id="Shape" fill="#000000" fill-rule="nonzero"></path>
            <path d="M93.6511628,31.9767442 L7.37209302,31.9767442 L21.3255814,4.76744186 C22.8558406,1.87812486 25.8701624,0.0838857307 29.1395349,0.11627907 L72.0930233,0.11627907 C75.4095909,0.0954239856 78.4493416,1.96257058 79.9302326,4.93023256 L93.6511628,31.9767442 Z M11.1860465,29.6511628 L89.8604651,29.6511628 L77.8139535,5.86046512 C76.730405,3.69372629 74.515591,2.32522328 72.0930233,2.3255814 L29.2093023,2.3255814 C26.7931627,2.32366325 24.577583,3.66915697 23.4651163,5.81395349 L11.1860465,29.6511628 Z" id="Shape" fill="#000000" fill-rule="nonzero"></path>
            <circle id="Oval" fill="#8DB602" cx="18.8139535" cy="49.9767442" r="6.72093023"></circle>
            <circle id="Oval" fill="#8DB602" cx="84.6744186" cy="49.9767442" r="6.72093023"></circle>
            <path d="M68.4883721,54.6511628 L37.7209302,54.6511628 C37.0787387,54.6511628 36.5581395,54.1305637 36.5581395,53.4883721 C36.5705119,52.8513757 37.0839338,52.3379537 37.7209302,52.3255814 L68.4883721,52.3255814 C69.1305637,52.3255814 69.6511628,52.8461805 69.6511628,53.4883721 C69.6511628,54.1305637 69.1305637,54.6511628 68.4883721,54.6511628 Z" id="Path" fill="#8DB602"></path>
            <path d="M68.4883721,47.6511628 L37.7209302,47.6511628 C37.0839338,47.6387905 36.5705119,47.1253685 36.5581395,46.4883721 C36.5581395,45.8461805 37.0787387,45.3255814 37.7209302,45.3255814 L68.4883721,45.3255814 C69.1305637,45.3255814 69.6511628,45.8461805 69.6511628,46.4883721 C69.6511628,47.1305637 69.1305637,47.6511628 68.4883721,47.6511628 L68.4883721,47.6511628 Z" id="Path" fill="#8DB602"></path>
            <circle id="Oval" fill="#8DB602" cx="91.9767442" cy="75.6976744" r="22.1162791"></circle>
            <circle id="Oval" fill="#FFFFFF" cx="91.9767442" cy="75.9767442" r="3.72093023"></circle>
            <path d="M100.813953,67.3023256 L83.1162791,67.3023256 C81.503226,67.3149776 80.1986985,68.6195051 80.1860465,70.2325581 L80.1860465,81.744186 C80.1988186,83.3534195 81.5069949,84.6512135 83.1162791,84.6511628 L100.813953,84.6511628 C101.588953,84.657363 102.334343,84.3538324 102.884547,83.8079951 C103.434751,83.2621577 103.744211,82.5192105 103.744186,81.744186 L103.744186,70.2325581 C103.744186,68.6142354 102.432276,67.3023256 100.813953,67.3023256 Z M91.9767442,82.1860465 C89.463221,82.1954605 87.1919564,80.6885959 86.2235426,78.3690997 C85.2551288,76.0496036 85.7806147,73.3750665 87.5546187,71.5943933 C89.3286228,69.81372 92.0011692,69.2782021 94.3242829,70.2379055 C96.6473965,71.197609 98.1627731,73.4632033 98.1627907,75.9767442 C98.1689737,77.6214114 97.519962,79.2008376 96.3591824,80.365981 C95.1984028,81.5311244 93.621423,82.1860581 91.9767442,82.1860465 L91.9767442,82.1860465 Z" id="Shape" fill="#FFFFFF" fill-rule="nonzero"></path>
            <path d="M98.4651163,67.3023256 L85.4651163,67.3023256 L85.4651163,66.0232558 C85.4588702,65.6985187 85.5835157,65.3849195 85.8109844,65.1530764 C86.0384531,64.9212333 86.3496214,64.7906376 86.6744186,64.7906977 L97.255814,64.7906977 C97.5806112,64.7906376 97.8917795,64.9212333 98.1192482,65.1530764 C98.3467169,65.3849195 98.4713624,65.6985187 98.4651163,66.0232558 L98.4651163,67.3023256 Z" id="Path" fill="#FFFFFF"></path>
            <circle id="Oval" fill="#8DB602" cx="101.116279" cy="70.4186047" r="1.23255814"></circle>
        </g>
    </g>
</svg>