<?xml version="1.0" encoding="UTF-8"?>
<svg width="200px" height="100px" viewBox="0 0 200 100" version="1.1" xmlns="http://www.w3.org/2000/svg" xmlns:xlink="http://www.w3.org/1999/xlink">
    <!-- Generator: Sketch 53.2 (72643) - https://sketchapp.com -->
    <title>imagemaking / inspeccion@1x</title>
    <desc>Created with Sketch.</desc>
    <g id="imagemaking-/-inspeccion" stroke="none" stroke-width="1" fill="none" fill-rule="evenodd">
        <g id="imagemaking_autoinspeccion" transform="translate(65.000000, 1.000000)">
            <path d="M27.2095652,13.032 L27.2095652,9.612 C27.2047586,7.65323626 27.9826266,5.77331709 29.3710314,4.38825782 C30.7594362,3.00319855 32.6438963,2.22720496 34.6073913,2.232 L37.5845652,2.232 C37.59367,1.66681249 37.6973429,1.10711152 37.8913043,0.576 C37.5011657,0.482773166 37.1016023,0.434457931 36.7004348,0.432 L30.3852174,0.432 C27.395676,0.432 24.9721739,2.84966235 24.9721739,5.832 L21.9769565,5.832 C20.0134615,5.82720496 18.1290014,6.60319855 16.7405966,7.98825782 C15.3521918,9.37331709 14.5743238,11.2532363 14.5791304,13.212 L14.5791083,16.632 L52.4704348,16.632 L52.4704348,13.212 C52.4704348,13.212 52.4704348,13.086 52.4704348,13.032 L27.2095652,13.032 Z" id="Path" fill="#DFE0DF"></path>
            <rect id="Rectangle" fill="#000000" x="27.4441304" y="44.37" width="11.8184783" height="1.8"></rect>
            <polygon id="Path" fill="#000000" points="49.8721739 46.152 45.2891304 46.152 45.2891304 44.352 48.0678261 44.352 48.0678261 36.81 19.956087 36.81 19.956087 44.352 21.3634783 44.352 21.3634783 46.152 18.1517391 46.152 18.1517391 35.01 49.8721739 35.01"></polygon>
            <path d="M45.5958696,36.81 L21.1830435,36.81 L21.1830435,29.232 C21.2416005,27.953623 22.3187167,26.9592903 23.6008696,27 L36.7906522,27 C40.1701124,26.888714 43.2219864,29.0037772 44.2967391,32.202 L45.5958696,36.81 Z M22.9873913,35.01 L43.3043478,35.01 L42.6367391,32.706 C41.7897343,30.2410648 39.3979393,28.6430127 36.7906522,28.8 L23.6008696,28.8 C23.276087,28.8 22.9873913,28.998 22.9873913,29.232 L22.9873913,35.01 Z" id="Shape" fill="#000000" fill-rule="nonzero"></path>
            <path d="M25.0623913,49.5 C22.8999564,49.5 21.1469565,47.7512242 21.1469565,45.594 C21.1469565,43.4367758 22.8999564,41.688 25.0623913,41.688 C27.2248262,41.688 28.9778261,43.4367758 28.9778261,45.594 C28.9778261,46.6299356 28.5653082,47.623442 27.8310218,48.3559591 C27.0967353,49.0884762 26.1008292,49.5 25.0623913,49.5 Z M25.0623913,43.488 C23.8964702,43.488 22.9513043,44.4308883 22.9513043,45.594 C22.9513043,46.7571117 23.8964702,47.7 25.0623913,47.7 C26.2283124,47.7 27.1734783,46.7571117 27.1734783,45.594 C27.1734783,44.4308883 26.2283124,43.488 25.0623913,43.488 L25.0623913,43.488 Z" id="Shape" fill="#000000" fill-rule="nonzero"></path>
            <path d="M42.2758696,49.5 C40.1134346,49.5 38.3604348,47.7512242 38.3604348,45.594 C38.3604348,43.4367758 40.1134346,41.688 42.2758696,41.688 C44.4383045,41.688 46.1913043,43.4367758 46.1913043,45.594 C46.1913043,46.6299356 45.7787865,47.623442 45.0445001,48.3559591 C44.3102136,49.0884762 43.3143074,49.5 42.2758696,49.5 Z M42.2758696,43.488 C41.1099484,43.488 40.1647826,44.4308883 40.1647826,45.594 C40.1647826,46.7571117 41.1099484,47.7 42.2758696,47.7 C43.4417907,47.7 44.3869565,46.7571117 44.3869565,45.594 C44.3869565,45.0354541 44.1645391,44.4997847 43.7686335,44.1048331 C43.3727279,43.7098815 42.8357646,43.488 42.2758696,43.488 Z" id="Shape" fill="#000000" fill-rule="nonzero"></path>
            <path d="M22.5543478,92.7 C18.5682927,92.7 15.3369565,89.4764502 15.3369565,85.5 L15.3369565,18.9 C15.3463073,18.2918944 15.4311567,17.6872878 15.5895652,17.1 L8.11956522,17.1 C4.13351007,17.1 0.902173913,20.3235498 0.902173913,24.3 L0.902173913,90.9 C0.902173913,94.8764502 4.13351007,98.1 8.11956522,98.1 L60.4456522,98.1 C63.7280441,98.0893671 66.5898498,95.8705253 67.4104348,92.7 L22.5543478,92.7 Z" id="Path" fill="#DFE0DF"></path>
            <path d="M50.0345652,59.868 L17.9893478,59.868" id="Path" fill="#FFFFFF"></path>
            <path d="M50.0345652,60.768 L18.0434783,60.768 C17.5452214,60.768 17.1413043,60.3650563 17.1413043,59.868 C17.1413043,59.3709437 17.5452214,58.968 18.0434783,58.968 L50.0345652,58.968 C50.5328221,58.968 50.9367391,59.3709437 50.9367391,59.868 C50.9367391,60.3650563 50.5328221,60.768 50.0345652,60.768 Z" id="Path" fill="#000000"></path>
            <path d="M50.0345652,70.02 L17.9893478,70.02" id="Path" fill="#FFFFFF"></path>
            <path d="M50.0345652,70.92 L18.0434783,70.92 C17.5452214,70.92 17.1413043,70.5170563 17.1413043,70.02 C17.1413043,69.5229437 17.5452214,69.12 18.0434783,69.12 L50.0345652,69.12 C50.5287913,69.1295762 50.9271398,69.5269648 50.9367391,70.02 C50.9367391,70.5170563 50.5328221,70.92 50.0345652,70.92 Z" id="Path" fill="#000000"></path>
            <path d="M50.0345652,80.172 L17.9893478,80.172" id="Path" fill="#FFFFFF"></path>
            <path d="M50.0345652,81 L18.0434783,81 C17.5452214,81 17.1413043,80.5970563 17.1413043,80.1 C17.1413043,79.6029437 17.5452214,79.2 18.0434783,79.2 L50.0345652,79.2 C50.5287913,79.2095762 50.9271398,79.6069648 50.9367391,80.1 C50.9367391,80.5970563 50.5328221,81 50.0345652,81 Z" id="Path" fill="#000000"></path>
            <path d="M34.2826087,5.4 C32.4937773,5.39292591 30.8784902,6.46631815 30.1957859,8.11577968 C29.5130816,9.76524122 29.8987009,11.6628128 31.1714376,12.9168077 C32.4441743,14.1708027 34.3509727,14.5318917 35.9958104,13.8303955 C37.6406481,13.1288994 38.6964852,11.5042954 38.6671739,9.72 C38.6375376,7.32542114 36.6831545,5.39981749 34.2826087,5.4 Z M34.2826087,12.366 C32.8524382,12.3755977 31.6833965,11.2303664 31.6670394,9.80370309 C31.6506823,8.37703982 32.7931609,7.20543383 34.2231773,7.18239655 C35.6531937,7.15935927 36.8329978,8.29355375 36.8628261,9.72 C36.8628261,11.1415809 35.7076234,12.294 34.2826087,12.294 L34.2826087,12.366 Z" id="Shape" fill="#000000" fill-rule="nonzero"></path>
            <path d="M60.4456522,16.2 L54.1304348,16.2 L54.1304348,13.68 C54.1304348,9.10708227 50.4143982,5.4 45.8304348,5.4 L43.7013043,5.4 C43.2378129,2.30430864 40.5777926,0.0101208364 37.4402174,0 L31.125,0 C27.9874247,0.0101208364 25.3274045,2.30430864 24.863913,5.4 L22.7347826,5.4 C18.1508192,5.4 14.4347826,9.10708227 14.4347826,13.68 L14.4347826,16.2 L8.11956522,16.2 C3.63936983,16.209899 0.00992294985,19.8306003 0,24.3 L0,90.9 C0.00992294985,95.3693997 3.63936983,98.990101 8.11956522,99 L60.4456522,99 C64.9258476,98.990101 68.5552944,95.3693997 68.5652174,90.9 L68.5652174,24.3 C68.5552944,19.8306003 64.9258476,16.209899 60.4456522,16.2 Z M16.2391304,13.68 C16.2391304,10.1011948 19.147333,7.2 22.7347826,7.2 L26.6141304,7.2 L26.6141304,6.3 C26.6141304,3.81471863 28.6337155,1.8 31.125,1.8 L37.4402174,1.8 C38.6365744,1.8 39.7839317,2.27410578 40.6298838,3.11801948 C41.475836,3.96193319 41.951087,5.1065258 41.951087,6.3 L41.951087,7.2 L45.8304348,7.2 C49.4178844,7.2 52.326087,10.1011948 52.326087,13.68 L52.326087,16.2 L16.2391304,16.2 L16.2391304,13.68 Z M66.7608696,90.9 C66.7608696,94.3793939 63.9334504,97.2 60.4456522,97.2 L8.11956522,97.2 C4.63176696,97.2 1.80434783,94.3793939 1.80434783,90.9 L1.80434783,24.3 C1.80434783,20.8206061 4.63176696,18 8.11956522,18 L60.4456522,18 C63.9334504,18 66.7608696,20.8206061 66.7608696,24.3 L66.7608696,90.9 Z" id="Shape" fill="#000000" fill-rule="nonzero"></path>
            <ellipse id="Oval" fill="#8DB602" cx="68.5652174" cy="68.778" rx="13.4243478" ry="13.392"></ellipse>
            <path d="M68.5652174,82.62 C62.9531279,82.62 57.8936409,79.247505 55.7459872,74.0751041 C53.5983335,68.9027032 54.7854568,62.9490122 58.7538034,58.9902279 C62.7221499,55.0314437 68.6902218,53.8471809 73.8751164,55.9896595 C79.060011,58.1321381 82.4406522,63.1794336 82.4406522,68.778 C82.4307118,76.4186142 76.2242872,82.6100836 68.5652174,82.62 L68.5652174,82.62 Z M68.5652174,55.8 C63.3163823,55.8000051 58.5847231,58.9551733 56.5777706,63.7934775 C54.5708182,68.6317816 55.6840664,74.1997761 59.3981352,77.8997421 C63.112204,81.5997082 68.6951917,82.7025234 73.5423846,80.693675 C78.3895776,78.6848266 81.5457784,73.9601822 81.5384783,68.724 C81.5186135,61.5874721 75.719004,55.8098844 68.5652174,55.8 Z" id="Shape" fill="#8DB602" fill-rule="nonzero"></path>
            <path d="M76.1976087,64.476 C76.1803093,63.7545283 75.7327331,63.1131117 75.0605124,62.84644 C74.3882918,62.5797684 73.6213997,62.7394022 73.1121739,63.252 L73.1121739,63.252 L67.5547826,68.814 L67.5547826,68.814 L65.7504348,70.614 L63.946087,68.814 L63.946087,68.814 C63.6060183,68.4481983 63.1290152,68.2396049 62.628913,68.238 C61.6323993,68.238 60.8245652,69.0438875 60.8245652,70.038 C60.8311306,70.5306226 61.0398148,70.9990306 61.4019565,71.334 L61.4019565,71.334 L64.4152174,74.34 L64.4152174,74.34 L64.4152174,74.34 L64.4152174,74.34 C65.09637,74.9369626 66.1158039,74.9369626 66.7969565,74.34 L66.7969565,74.34 L66.7969565,74.34 L66.7969565,74.34 L69.6658696,71.478 L69.6658696,71.478 L75.3495652,65.79 L75.3495652,65.79 C75.8180425,65.5036471 76.1302101,65.0199594 76.1976087,64.476 L76.1976087,64.476 Z" id="Path" fill="#FFFFFF"></path>
        </g>
    </g>
</svg>