<?xml version="1.0" encoding="UTF-8"?>
<svg width="200px" height="100px" viewBox="0 0 200 100" version="1.1" xmlns="http://www.w3.org/2000/svg" xmlns:xlink="http://www.w3.org/1999/xlink">
    <!-- Generator: Sketch 53 (72520) - https://sketchapp.com -->
    <title>imagemaking / chofer de reemplazo paso2 doctor@1x</title>
    <desc>Created with Sketch.</desc>
    <g id="imagemaking-/-chofer-de-reemplazo-paso2-doctor" stroke="none" stroke-width="1" fill="none" fill-rule="evenodd">
        <g id="Asset-209" transform="translate(37.000000, 4.000000)">
            <path d="M26.4810811,71.5983784 C21.2046003,71.5778914 16.9341705,67.3019083 16.9205405,62.0254054 L16.9205405,3.65513514 C16.9338015,2.69080784 17.0973892,1.73444918 17.4054054,0.820540541 L10.7789189,0.820540541 C5.51698335,0.854581843 1.2635815,5.1190747 1.24324324,10.3810811 L1.24324324,68.8135135 C1.29067301,74.0560994 5.53622705,78.2905829 10.7789189,78.3243243 L101.287027,78.3243243 C105.455596,78.2938911 109.127882,75.5760977 110.375135,71.5983784 L26.4810811,71.5983784 Z" id="Path" fill="#DFE0DF"></path>
            <path d="M100.889189,79.1448649 L10.3810811,79.1448649 C4.6506083,79.1380143 0.00685054264,74.4942566 0,68.7637838 L0,10.3313514 C0.0341535997,4.62030872 4.66994029,0.00672938983 10.3810811,0 L100.889189,0 C106.619662,0.00685054264 111.26342,4.6506083 111.27027,10.3810811 L111.27027,68.8135135 C111.236117,74.5245561 106.60033,79.1381355 100.889189,79.1448649 L100.889189,79.1448649 Z M10.3810811,1.64108108 C5.5747111,1.64108108 1.67837838,5.5374138 1.67837838,10.3437838 L1.67837838,68.7762162 C1.67837838,73.5825862 5.5747111,77.4789189 10.3810811,77.4789189 L100.889189,77.4789189 C103.197289,77.4789189 105.410856,76.5620297 107.042929,74.9299563 C108.675003,73.297883 109.591892,71.0843165 109.591892,68.7762162 L109.591892,10.3437838 C109.591892,5.5374138 105.695559,1.64108108 100.889189,1.64108108 L10.3810811,1.64108108 Z" id="Shape" fill="#303030" fill-rule="nonzero"></path>
            <path d="M95.7297297,42.9664865 L73.5751351,42.9664865 C73.1219631,42.9664865 72.7545946,42.599118 72.7545946,42.1459459 C72.7545946,41.6927739 73.1219631,41.3254054 73.5751351,41.3254054 L95.7297297,41.3254054 C96.1829018,41.3254054 96.5502703,41.6927739 96.5502703,42.1459459 C96.5502703,42.599118 96.1829018,42.9664865 95.7297297,42.9664865 Z" id="Path" fill="#303030"></path>
            <path d="M67.1351351,42.9664865 L60.7945946,42.9664865 C60.3414226,42.9664865 59.9740541,42.599118 59.9740541,42.1459459 C59.9740541,41.6927739 60.3414226,41.3254054 60.7945946,41.3254054 L67.1351351,41.3254054 C67.5883072,41.3254054 67.9556757,41.6927739 67.9556757,42.1459459 C67.9556757,42.599118 67.5883072,42.9664865 67.1351351,42.9664865 Z" id="Path" fill="#303030"></path>
            <path d="M95.7297297,33.5675676 L90.072973,33.5675676 C89.7580183,33.6065577 89.4488188,33.460431 89.2789923,33.1923347 C89.1091657,32.9242384 89.1091657,32.5822481 89.2789923,32.3141518 C89.4488188,32.0460555 89.7580183,31.8999288 90.072973,31.9389189 L95.7297297,31.9389189 C96.1407804,31.9898053 96.4494602,32.3390548 96.4494602,32.7532432 C96.4494602,33.1674317 96.1407804,33.5166811 95.7297297,33.5675676 Z" id="Path" fill="#303030"></path>
            <path d="M83.2972973,33.5675676 L60.7945946,33.5675676 C60.4796399,33.6065577 60.1704405,33.460431 60.0006139,33.1923347 C59.8307873,32.9242384 59.8307873,32.5822481 60.0006139,32.3141518 C60.1704405,32.0460555 60.4796399,31.8999288 60.7945946,31.9389189 L83.2972973,31.9389189 C83.7083479,31.9898053 84.0170278,32.3390548 84.0170278,32.7532432 C84.0170278,33.1674317 83.7083479,33.5166811 83.2972973,33.5675676 Z" id="Path" fill="#303030"></path>
            <path d="M95.7297297,52.527027 L90.072973,52.527027 C89.7580183,52.5660172 89.4488188,52.4198904 89.2789923,52.1517941 C89.1091657,51.8836978 89.1091657,51.5417076 89.2789923,51.2736113 C89.4488188,51.005515 89.7580183,50.8593883 90.072973,50.8983784 L95.7297297,50.8983784 C96.1407804,50.9492648 96.4494602,51.2985143 96.4494602,51.7127027 C96.4494602,52.1268911 96.1407804,52.4761406 95.7297297,52.527027 Z" id="Path" fill="#303030"></path>
            <path d="M83.2972973,52.527027 L60.7945946,52.527027 C60.4796399,52.5660172 60.1704405,52.4198904 60.0006139,52.1517941 C59.8307873,51.8836978 59.8307873,51.5417076 60.0006139,51.2736113 C60.1704405,51.005515 60.4796399,50.8593883 60.7945946,50.8983784 L83.2972973,50.8983784 C83.7083479,50.9492648 84.0170278,51.2985143 84.0170278,51.7127027 C84.0170278,52.1268911 83.7083479,52.4761406 83.2972973,52.527027 Z" id="Path" fill="#303030"></path>
            <g id="Group-7" transform="translate(14.000000, 24.000000)" fill="#8DB602">
                <path d="M34.0335506,34.8453191 C32.1957101,34.8514475 30.3580058,34.8626148 28.5201654,34.8630233 C19.3071304,34.8647938 10.0942315,34.8638405 0.881196498,34.8637043 C0.0196789883,34.8637043 0.00224708171,34.8628872 0.0229474708,33.9749494 C0.0674805447,32.052537 -0.17016537,30.1133735 0.286468872,28.2138405 C1.16827821,24.5461946 3.42203307,22.0681401 6.89220817,20.6493463 C7.40958171,20.4378482 7.54345331,20.528821 7.50205253,21.1016226 C7.37144942,22.9045992 7.57899805,24.6754358 8.18203307,26.3870311 C8.2826751,26.672751 8.26428988,26.8694047 8.07621595,27.1267977 C7.54072957,27.8600272 7.56142996,28.8855136 8.07104086,29.532537 C8.72078794,30.3574202 9.66714981,30.6130428 10.6233171,30.2217782 C11.4509241,29.8832179 11.9093288,29.066642 11.8334728,28.066214 C11.7690564,27.2140934 11.1209436,26.4556693 10.2037257,26.3043658 C9.7176751,26.2240156 9.50277237,25.9901829 9.36958171,25.5633735 C8.860107,23.9311751 8.73168288,22.2872646 9.0865856,20.6001829 C9.18804475,20.1180817 9.31183852,20.1765058 9.63392023,20.3964475 C11.1682004,21.4435875 12.8432977,22.1502607 14.6762354,22.4963113 C18.1424611,23.1509611 21.3495233,22.4803774 24.2674611,20.5493852 C24.9621498,20.0897549 25.5672276,20.1711946 26.252928,20.3219533 C26.5296595,20.382965 26.5807296,20.5854747 26.5812743,20.8375564 C26.5839981,21.8506498 26.3306907,22.810358 26.0075195,23.7595798 C25.9180447,24.0225564 25.7064105,24.045572 25.4960019,24.1355914 C23.848142,24.840358 22.3982977,25.7500856 21.8916829,27.642537 C21.7064689,28.3340934 21.9306323,28.9896965 22.0081226,29.6522451 C22.0549708,30.0512724 22.4210409,30.3026732 22.8376362,30.3529261 C23.132072,30.3883346 23.3740759,30.2397549 23.4894261,29.9593463 C23.6685117,29.5246381 23.5478502,29.0922451 23.1872276,28.8686265 C22.7009047,28.5671089 22.7397179,28.2280039 22.8635117,27.7758638 C23.2009825,26.5445992 24.8113911,25.1018366 26.0895039,24.9354163 C26.405321,24.8944241 26.7419747,24.8697743 26.9841148,25.1357471 C27.894251,26.135358 28.5795428,27.2375175 28.4373638,28.6657082 C28.3920136,29.1202996 28.293142,29.5341712 27.6913327,29.6339961 C27.2430058,29.7083541 26.9338619,30.0332957 26.9341342,30.5482179 C26.9342704,30.9069339 27.1580253,31.101 27.466216,31.1592879 C27.939465,31.2486265 28.3058074,31.0198327 28.565107,30.6410973 C30.1331615,28.3494825 29.3793677,26.4349689 27.6161576,24.4963502 C27.4438813,24.3067782 27.3339786,24.1507082 27.4252237,23.9040739 C27.7014105,23.1579066 27.8754572,22.3880428 27.9694261,21.5984319 C28.0307101,21.0826926 28.2653599,21.0444241 28.6918969,21.2916031 C31.6579086,23.0100078 33.4562549,25.5377704 34.0354572,28.9232374 C34.0576556,29.0530233 34.0306907,29.2011946 34.1784533,29.2801829 L34.1784533,29.5525564 C33.952928,29.750572 34.0485311,30.0158638 34.0468969,30.2516031 C34.0354572,31.7828872 34.0364105,33.314035 34.0335506,34.8453191" id="Fill-1"></path>
                <path d="M18.380856,0 C19.3976265,0.347684825 20.4715953,0.513968872 21.4317121,1.04441634 C24.5409922,2.76159533 26.3091051,5.33293774 26.587607,8.91233463 C26.9632101,13.7409728 23.6211868,17.8430545 19.2030156,18.8735798 C13.3853891,20.2305447 7.69809339,15.7309339 7.56708171,9.75723735 C7.46589494,5.14608949 10.8939883,0.757198444 15.7009728,0.119708171 C15.7810506,0.109085603 15.8535019,0.0412645914 15.9294942,0 L18.380856,0 Z" id="Fill-3"></path>
                <path d="M34.0335506,34.8453191 C34.0364105,33.314035 34.0354572,31.7828872 34.0468969,30.2516031 C34.0485311,30.0158638 33.952928,29.750572 34.1784533,29.5525564 L34.1784533,34.8638405 C34.1302432,34.8577121 34.0817607,34.8514475 34.0335506,34.8453191" id="Fill-5"></path>
            </g>
            <circle id="Oval" fill="#8DB602" cx="107.615135" cy="74.1345946" r="17.5172973"></circle>
            <circle id="Oval" fill="#FFFFFF" cx="104.382703" cy="79.1448649" r="2.10108108"></circle>
            <path d="M104.37812,76.1793312 L106.411185,74.146267 L106.414184,74.1492664 L112.829503,67.7339473 C113.214715,67.290903 113.782486,67.0108108 114.415676,67.0108108 C115.576071,67.0108108 116.516757,67.9514969 116.516757,69.1118919 C116.516757,69.7552759 116.227573,70.3311175 115.772096,70.7165272 L109.219841,77.2687824 L109.216841,77.265783 L106.016204,80.4664201 C105.631003,80.9419546 105.042354,81.2459459 104.382703,81.2459459 C103.749894,81.2459459 103.182425,80.9661907 102.797226,80.5236092 L99.381022,77.1074054 L99.3842593,77.1041681 C98.9788942,76.7211312 98.7259459,76.1784836 98.7259459,75.5767568 C98.7259459,74.4163617 99.666632,73.4756757 100.827027,73.4756757 C101.501254,73.4756757 102.101308,73.7932503 102.485765,74.2869755 L104.37812,76.1793312 Z" id="Combined-Shape" fill="#FFFFFF"></path>
        </g>
    </g>
</svg>