<?xml version="1.0" encoding="UTF-8"?>
<svg width="200px" height="100px" viewBox="0 0 200 100" version="1.1" xmlns="http://www.w3.org/2000/svg" xmlns:xlink="http://www.w3.org/1999/xlink">
    <!-- Generator: Sketch 52 (66869) - http://www.bohemiancoding.com/sketch -->
    <title>imagemaking / servicios cerreria</title>
    <desc>Created with Sketch.</desc>
    <g id="imagemaking-/-servicios-cerreria" stroke="none" stroke-width="1" fill="none" fill-rule="evenodd">
        <g id="Imagemaking_cerrejia" transform="translate(64.000000, 0.000000)">
            <path d="M27.5712,44.1153846 C26.6668562,44.0970211 25.9174021,43.4076261 25.8223309,42.5066651 C25.7272597,41.6057041 26.3162698,40.7746188 27.1968,40.5673077 L28.0128,40.375 C28.6301549,40.2118258 29.2875275,40.3909294 29.7372919,40.8448442 C30.1870563,41.2987589 30.3608825,41.9585244 30.1932919,42.5756134 C30.0257013,43.1927024 29.5421549,43.6733643 28.9248,43.8365385 C28.608,43.9230769 28.2816,44 27.9648,44.0673077 C27.8358318,44.0981594 27.703791,44.1142877 27.5712,44.1153846 Z" id="Path" fill="#8DB602"></path>
            <path d="M28.464,43.8942308 C27.578686,43.8778541 26.8390789,43.2141048 26.7259938,42.3344834 C26.6129087,41.4548619 27.160508,40.6250972 28.0128,40.3846154 L29.04,40.0769231 C29.9757913,39.7636077 30.9879859,40.2694398 31.3008,41.2067308 C31.6136141,42.1440217 31.1085913,43.1578385 30.1728,43.4711538 C29.76,43.6057692 29.3472,43.7307692 28.9248,43.8461538 C28.7737005,43.8807502 28.6189744,43.8968933 28.464,43.8942308 Z" id="Path" fill="#8DB602"></path>
            <path d="M5.4624,33.5769231 C4.77746596,33.5928013 4.14514066,33.2105496 3.84,32.5961538 C2.30427756,29.5500647 1.5145123,26.1815914 1.536,22.7692308 C1.536,21.7814907 2.33544035,20.9807692 3.3216,20.9807692 C4.30775965,20.9807692 5.1072,21.7814907 5.1072,22.7692308 C5.08855577,25.6201205 5.74663713,28.4346311 7.0272,30.9807692 C7.24118348,31.404076 7.27845794,31.8952009 7.13081883,32.3460414 C6.98317973,32.796882 6.66272841,33.1704848 6.24,33.3846154 C5.99916428,33.5081625 5.73297047,33.5739947 5.4624,33.5769231 Z" id="Path" fill="#8DB602"></path>
            <path d="M15.7824,43.1057692 C15.5515449,43.1076206 15.3227861,43.0617955 15.1104,42.9711538 C13.6442527,42.3746911 12.2472355,41.6202535 10.944,40.7211538 C10.2075485,40.1315905 10.0518936,39.071886 10.5876132,38.29486 C11.1233328,37.5178341 12.1678788,37.288261 12.9792,37.7692308 C14.0626324,38.5430933 15.2320515,39.1884339 16.464,39.6923077 C17.2663023,40.0093605 17.7276675,40.8554905 17.5603325,41.7029487 C17.3929975,42.5504069 16.6447973,43.1569358 15.7824,43.1442308 L15.7824,43.1057692 Z" id="Path" fill="#8DB602"></path>
            <path d="M23.04,49.875 C21.7768065,48.6018875 20.7496269,47.1139972 20.0064,45.4807692 C19.8136031,45.7777866 19.5917044,46.0547992 19.344,46.3076923 C17.4823472,48.1783715 14.487804,48.2721632 12.5130947,46.5216424 C10.5383854,44.7711215 10.2674789,41.782606 11.8951251,39.7044871 C13.5227714,37.6263682 16.4852118,37.1784321 18.6528,38.6826923 C18.7632793,35.1821013 20.0948117,31.8309246 22.416,29.2115385 C15.5112387,25.841812 7.18096959,28.211722 3.07567865,34.7137402 C-1.0296123,41.2157583 0.403386018,49.7698438 6.40265976,54.5736943 C12.4019335,59.3775448 21.0482733,58.8943752 26.4768,53.4519231 C26.6976,53.2307692 26.8992,52.9903846 27.1008,52.7596154 C25.5949783,52.0334674 24.2221436,51.0582655 23.04,49.875 Z" id="Path" fill="#E0E0E0"></path>
            <path d="M17.6544,88.625 L17.6544,87.1538462 L17.904,87.1538462 L22.8672,82.1826923 L18.0672,77.375 L22.6368,72.8076923 L17.8368,68 L22.9056,62.9134615 L18.24,58.2403846 L17.712,58.2403846 L17.712,57.8365385 C17.240345,57.8928151 16.7661263,57.9249082 16.2912,57.9326923 C13.6487663,57.9342628 11.0526579,57.2377622 8.7648,55.9134615 L8.7648,61.8269231 L13.968,66.5 L8.832,71.5288462 L13.632,76.3365385 L9.1008,80.9423077 L13.9008,85.75 L8.9664,90.7403846 L8.7072,90.7403846 L8.7072,92.2115385 L14.6784,98.2596154 C15.0861744,98.6742152 15.6429464,98.9076608 16.224,98.9076608 C16.8050536,98.9076608 17.3618256,98.6742152 17.7696,98.2596154 L22.464,93.4519231 L17.6544,88.625 Z" id="Path" fill="#E0E0E0"></path>
            <path d="M67.2864,79.4711538 L66.24,78.4326923 L66.4128,78.2596154 L66.4128,71.2307692 L59.5968,71.2307692 L59.5968,64.7596154 L52.8,64.7596154 L52.8,57.5769231 L45.8208,57.9519231 L41.6448,53.7692308 C44.1813784,53.0961679 46.498057,51.7702301 48.3648,49.9230769 L45.12,46.7115385 C43.7320769,51.9156532 39.6647648,55.9748029 34.464,57.3461538 L38.64,61.5384615 L45.6192,61.1634615 L45.6192,68.3557692 L52.4544,68.3557692 L52.4544,74.8269231 L59.2704,74.8269231 L59.2704,81.8461538 L59.088,82.0288462 L60.1344,83.0673077 L68.6208,83.1153846 C69.2028767,83.1205672 69.762618,82.8912572 70.1742246,82.478991 C70.5858312,82.0667247 70.8147743,81.5060864 70.8096,80.9230769 L70.8096,79.5 L67.2864,79.4711538 Z" id="Path" fill="#E0E0E0"></path>
            <path d="M15.792,58.5961538 C7.07157087,58.5908442 0.00606771764,51.5068449 0.00960129647,42.7724398 C0.0131348753,34.0380347 7.0843675,26.9597729 15.8047981,26.9615417 C24.5252286,26.9633105 31.5935984,34.0444404 31.5936,42.7788462 C31.5830114,51.5138611 24.5130437,58.5908567 15.792,58.5961538 Z M15.792,28.4038462 C7.8390996,28.4038462 1.392,34.8612776 1.392,42.8269231 C1.392,50.7925685 7.8390996,57.25 15.792,57.25 C23.7449004,57.25 30.192,50.7925685 30.192,42.8269231 C30.192,39.0016852 28.6748615,35.3331192 25.9743376,32.6282676 C23.2738138,29.923416 19.6111175,28.4038462 15.792,28.4038462 Z" id="Shape" fill="#303030" fill-rule="nonzero"></path>
            <path d="M15.792,48.4903846 C12.6439066,48.4850763 10.0956719,45.9255876 10.0992036,42.7724467 C10.1027353,39.6193057 12.6566972,37.0655502 15.8047946,37.0673167 C18.952892,37.0690831 21.5039955,39.6257032 21.504,42.7788462 C21.4987044,45.9347965 18.9429053,48.4903891 15.792,48.4903846 Z M15.792,38.5096154 C13.4391984,38.514923 11.535674,40.4286666 11.5392048,42.785242 C11.5427356,45.1418174 13.4519859,47.0498301 15.8047928,47.0480649 C18.1575997,47.0462997 20.063994,45.1354242 20.064,42.7788462 C20.0640029,41.6449078 19.6136123,40.5575525 18.8121797,39.7566395 C18.0107472,38.9557264 16.9241212,38.5070615 15.792,38.5096154 Z" id="Shape" fill="#303030" fill-rule="nonzero"></path>
            <path d="M15.792,99.625 C15.0156706,99.62696 14.2714299,99.3149182 13.728,98.7596154 L7.7664,92.7115385 C7.63278987,92.5793803 7.5568561,92.3996128 7.5552,92.2115385 L7.5552,90.7403846 C7.5543555,90.3601463 7.84841364,90.0445791 8.2272,90.0192308 L12.48,85.7692308 L8.16,81.4519231 C8.02277013,81.3179925 7.94537285,81.1342187 7.94537285,80.9423077 C7.94537285,80.7503967 8.02277013,80.5666229 8.16,80.4326923 L12.2112,76.3653846 L7.8912,72.0384615 C7.61044476,71.7569062 7.61044476,71.3007861 7.8912,71.0192308 L12.48,66.4711538 L7.7952,62.2980769 C7.64270713,62.164779 7.5552,61.9719548 7.5552,61.7692308 L7.5552,55.8557692 C7.55187859,55.5958516 7.69223931,55.3553762 7.92,55.2307692 C8.14105261,55.0956847 8.41894739,55.0956847 8.64,55.2307692 C13.0765359,57.7490942 18.5074641,57.7490942 22.944,55.2307692 C23.1665364,55.1043529 23.4393346,55.1057092 23.6606071,55.234332 C23.8818795,55.3629549 24.0183888,55.5995238 24.0192,55.8557692 L24.0192,92.2115385 C24.0162115,92.3974747 23.9443637,92.5756685 23.8176,92.7115385 L17.8464,98.7692308 C17.3037051,99.3186172 16.5636052,99.626909 15.792,99.625 Z M8.9952,91.9326923 L14.7552,97.7692308 C15.3313907,98.3248262 16.2430093,98.3248262 16.8192,97.7692308 L22.5792,91.9326923 L22.5792,57.0480769 C18.2788463,59.08188 13.2955537,59.08188 8.9952,57.0480769 L8.9952,61.4423077 L13.9584,65.9038462 C14.1020815,66.039575 14.1880336,66.2255291 14.1984,66.4230769 C14.2001705,66.6203175 14.1242924,66.8103167 13.9872,66.9519231 L9.4176,71.5288462 L13.7376,75.8557692 C14.0183552,76.1373246 14.0183552,76.5934447 13.7376,76.875 L9.6864,80.9423077 L13.9968,85.2596154 C14.2775552,85.5411707 14.2775552,85.9972908 13.9968,86.2788462 L9.0336,91.25 L8.9952,91.9326923 Z" id="Shape" fill="#303030" fill-rule="nonzero"></path>
            <path d="M68.9568,83.8269231 L60.48,83.7788462 C60.2922266,83.7771874 60.1127467,83.7011319 59.9808,83.5673077 L58.944,82.5288462 C58.7038253,82.2534711 58.7038253,81.8426828 58.944,81.5673077 L58.944,75.5288462 L52.8,75.5288462 C52.6082562,75.5314595 52.4236015,75.4563204 52.2880056,75.3205072 C52.1524097,75.184694 52.0773909,74.9997434 52.08,74.8076923 L52.08,69.0384615 L45.936,69.0384615 C45.538355,69.0384615 45.216,68.71559 45.216,68.3173077 L45.216,61.9134615 L38.9952,62.25 C38.7902875,62.2657198 38.5892325,62.1879952 38.448,62.0384615 L34.272,57.8557692 C34.0912611,57.6746819 34.0216033,57.4102926 34.0896,57.1634615 C34.1562177,56.9147999 34.3501362,56.7205706 34.5984,56.6538462 C39.5357029,55.333091 43.3934721,51.4728055 44.7168,46.5288462 C44.7833121,46.2812474 44.9760797,46.087641 45.2230991,46.020344 C45.4701186,45.9530471 45.7342372,46.0221812 45.9168,46.2019231 L71.5872,71.9038462 C71.7188866,72.0411978 71.7942639,72.2230796 71.7984,72.4134615 L71.7984,80.9134615 C71.7984,82.5065906 70.5089801,83.7980769 68.9184,83.7980769 L68.9568,83.8269231 Z M60.7488,82.3365385 L68.9472,82.3846154 C69.3323078,82.3868411 69.702259,82.2344678 69.9744,81.9615385 C70.2448001,81.6836586 70.3963373,81.3111075 70.3968,80.9230769 L70.3968,72.7115385 L45.744,48.0769231 C44.1638201,52.5733644 40.633247,56.1095955 36.144,57.6923077 L39.2448,60.7980769 L45.9072,60.4423077 C46.1031372,60.4358312 46.2934328,60.508606 46.4352,60.6442308 C46.5797077,60.7784333 46.6629802,60.9660967 46.6656,61.1634615 L46.6656,67.6346154 L52.8,67.6346154 C53.197645,67.6346154 53.52,67.957487 53.52,68.3557692 L53.52,74.125 L59.616,74.125 C60.0114836,74.1301787 60.3308296,74.4500365 60.336,74.8461538 L60.336,81.9326923 L60.7488,82.3365385 Z" id="Shape" fill="#303030" fill-rule="nonzero"></path>
            <path d="M38.0928,49.875 C36.8296065,48.6018875 35.8024269,47.1139972 35.0592,45.4807692 C34.8664031,45.7777866 34.6445044,46.0547992 34.3968,46.3076923 C32.5351472,48.1783715 29.540604,48.2721632 27.5658947,46.5216424 C25.5911854,44.7711215 25.3202789,41.782606 26.9479251,39.7044871 C28.5755714,37.6263682 31.5380118,37.1784321 33.7056,38.6826923 C33.808085,35.185743 35.1292575,31.8349966 37.44,29.2115385 C30.5352387,25.841812 22.2049696,28.211722 18.0996786,34.7137402 C13.9943877,41.2157583 15.427386,49.7698438 21.4266598,54.5736943 C27.4259335,59.3775448 36.0722733,58.8943752 41.5008,53.4519231 C41.7216,53.2307692 41.9232,52.9903846 42.1248,52.7596154 C40.6291926,52.0306965 39.2662765,51.0556249 38.0928,49.875 Z" id="Path" fill="#E0E0E0"></path>
            <path d="M30.8736,58.5865385 C25.1405626,58.7281492 19.7814616,55.745659 16.8733504,50.7950062 C13.9652392,45.8443534 13.9652392,39.7037235 16.8733504,34.7530707 C19.7814616,29.8024179 25.1405626,26.8199277 30.8736,26.9615385 C35.0638466,26.9508026 39.0842033,28.6196912 42.0384,31.5961538 C46.5563223,36.1172941 47.9085401,42.9199772 45.4640019,48.8295347 C43.0194636,54.7390921 37.2600667,58.5905596 30.8736,58.5865385 Z M30.8736,28.4038462 C23.9999354,28.3931958 18.0770744,33.2498917 16.7303936,40.0011558 C15.3837127,46.7524198 18.9887176,53.5157442 25.3387888,56.1513057 C31.68886,58.7868671 39.0133573,56.5597713 42.8289643,50.8332212 C46.6445712,45.1066711 45.8873521,37.4774454 41.0208,32.6153846 C38.3364023,29.9094763 34.6820639,28.3927636 30.8736,28.4038462 Z M30.8736,48.4903846 C28.1531202,48.4905812 25.8113507,46.5659336 25.280433,43.8934866 C24.7495153,41.2210397 26.1773187,38.5451133 28.6906501,37.5022073 C31.2039816,36.4593013 34.1028376,37.339882 35.6143825,39.605418 C37.1259275,41.8709541 36.8291716,44.8904569 34.9056,46.8173077 C33.8386874,47.8920619 32.3867716,48.4945338 30.8736,48.4903846 Z M30.8736,38.5096154 C28.8401421,38.5100245 27.0901389,39.9490842 26.6938022,41.9467399 C26.2974655,43.9443955 27.3651778,45.9442859 29.2439813,46.723381 C31.1227848,47.5024761 33.2894195,46.8437926 34.4188832,45.1501473 C35.5483469,43.456502 35.326076,41.199587 33.888,39.7596154 C33.08847,38.9590315 32.0041457,38.509388 30.8736,38.5096154 Z" id="Shape" fill="#303030" fill-rule="nonzero"></path>
            <path d="M29.6064,43.5576923 C28.7240508,43.566585 27.9675237,42.9286031 27.825962,42.0562427 C27.6844002,41.1838824 28.2002579,40.3387627 29.04,40.0673077 C37.9079577,37.149341 43.1454911,27.9965211 41.1768546,18.8576209 C39.2082181,9.71872075 30.668755,3.54316255 21.3884901,4.54709626 C12.1082251,5.55102998 5.08220358,13.4104533 5.1072,22.7596154 C5.1072,23.7473554 4.30775965,24.5480769 3.3216,24.5480769 C2.33544035,24.5480769 1.536,23.7473554 1.536,22.7596154 C1.53920158,11.6170835 9.92826438,2.26909997 20.989682,1.08225963 C32.0510996,-0.104580712 42.2267024,7.25149772 44.5862322,18.1405192 C46.9457619,29.0295406 40.7302194,39.9487908 30.1728,43.4615385 C29.9895823,43.5206362 29.7988275,43.5530193 29.6064,43.5576923 Z" id="Path" fill="#8DB602"></path>
        </g>
    </g>
</svg>