{
  "addClass" : "",
  "alert" : {
    "addClass" : "g-bg-c--red7 g-b--1 g-bc--orange1  g-p--10   g-mt--10 ",
    "icon" : {
      "iconFile" : "icon-mapfre_013_atention",
      "iconClass" : "g-font--30 g-c--orange1  g-pr--10 "
    },
    "textClass" : "",
    "titleClass" : "g-c--orange1",
    "titleText" : "Para solicitar una modificación de <b>nombre, fecha de nacimiento</b> o <b>DNI/CEX</b> necesitaremos una foto de tu DNI/CEX como confirmación.",
    "subTitle" : false,
    "btnDetalle": false
  },
  "data1" : [
    {
      "addClass" : "g-form-focus",
      "value" : "D.N.I",
      "listOption" : [
        { "value" : "DNI" },
        { "value" : "RUC" },
        { "value" : "CEX" }
      ],
      "label" : "Tipo de documento"
    }
  ],
  "data2" : [
    {
      "addClass" : "g-form-focus",
      "value" : "123456777",
      "label" : "Nro. de documento"
    }
  ],
  "data3" : [
    {
      "addClass" : "g-form-focus",
      "value" : "Marco Aro Cuadrado",
      "label" : "Nombre del contratante"
    }
  ],
  "data4" : [
    {
      "addClass" : "g-form-focus",
      "value" : "5784933",
      "label" : "Teléfono fijo"
    }
  ],
  "data5" : [
    {
      "addClass" : "g-form-focus",
      "value" : "93404303",
      "label" : "Teléfono móvil"
    }
  ],
  "data6" : [
    {
      "label" : "Aplicar estos cambios a todas mis pólizas"
    }
  ]
}