{
  "tooltip" : [
    {
      "alignTooltip" : "g-tooltip-bottom-left g-tooltip--disable",
      "iconFile" : "icon-mapfre_048_tooltip g-tooltip--color g-font--32",
      "message": "<span class='d-block g-font--medium'>¿Lugar de actividad de riesgo?</span>Representa el lugar donde se desarrolla la actividad que pueda suponer un daño grave para la salud de los trabajadores."
    },
    {
      "alignTooltip" : "g-tooltip-bottom-right",
      "iconFile" : "icon-mapfre_048_tooltip g-tooltip--color g-font--32",
      "message": "<span class='d-block g-font--medium'>¿Lugar de actividad de riesgo?</span>Representa el lugar donde se desarrolla la actividad que pueda suponer un daño grave para la salud de los trabajadores."
    },
    {
      "alignTooltip" : "g-tooltip-top-left",
      "iconFile" : "icon-mapfre_048_tooltip g-tooltip--color g-font--32",
      "message": "<span class='d-block g-font--medium'>¿Lugar de actividad de riesgo?</span>Representa el lugar donde se desarrolla la actividad que pueda suponer un daño grave para la salud de los trabajadores."
    },
    {
      "alignTooltip" : "g-tooltip-top-right",
      "iconFile" : "icon-mapfre_048_tooltip g-tooltip--color g-font--32",
      "message": "<span class='d-block g-font--medium'>¿Lugar de actividad de riesgo?</span>Representa el lugar donde se desarrolla la actividad que pueda suponer un daño grave para la salud de los trabajadores."
    }
  ]
}
