{
  "loginTitle": {
    "iconTitle": {
      "circle-addClass": "g-icon-circle--md",
      "addClass": "g-font--18 g-c--gray18 align-self-center",
      "iconFile": "icon-mapfre_014_perfil"
    },
    "title": "Habilitar Usuario"
  },
  "password": false,
  "dataName": false,
  "dataEmail": false,
  "link": false,
  "linkText": "",
  "btn-primary": {
    "data": "refresh",
    "text": "aceptar",
    "addClass": "g-btn--default g-text--uppercase g-mt-lg--50 g-mb-lg--90  g-mb--30  g-modal--link"
  },
  "btn-secondary": false,
  "listItems": {
    "listA": {
      "addClass": "green g-font--13 g-font--light g-c--gray2",
      "ico-font": "icon-mapfre_003_check",
      "list": [
        {
          "text": "Actualizar datos"
        },
        {
          "text": "Solicitar servicios"
        }
      ]
    },
    "listB": {
      "addClass": "green g-font--13 g-font--light g-c--gray2",
      "ico-font": "icon-mapfre_003_check",
      "list": [
        {
          "text": "Gestionar tus pólizas"
        },
        {
          "text": "Pagar recibos"
        }
      ]
    }
  },
  "floatIcon": {
    "circle-addClass": "",
    "addClass": "g-font--21 g-font--bold g-c--green1 align-self-center",
    "iconFile": "icon-mapfre_033_angle2-right"
  },
  "openClick": {
    "click": "vehicular-confirmation",
    "openModal": "delete"
  },
  "formModal": {
    "value": "#open-modal",
    "addClass": "block g-text--uppercase g-modal--link",
    "data": "modal01",
    "text": "modal01",
    "title-modal": {
      "title": "AGREGAR DIRECCIÓN"
    },
    "cont-add-adress": true,
    "btns": {
      "btnsClass": "d-flex flex-column-reverse flex-md-row justify-content-center",
      "btn": [
        {
          "addClass": "g-p--10 text-center w-10",
          "textClass": "g-btn g-text--uppercase g-px--60 w-px-lg--24 g-c--pointer",
          "text": "ACEPTAR"
        }
      ]
    }
  },
  "alert": {
    "dataModal": "delete",
    "modalSize": "g-modal--confirm-big",
    "value": "#open-modal",
    "addClass": "block g-modal--link",
    "contentClass": "g-pb--50 g-px-lg--50",
    "formContent": {
      "message": {
        "icon": {
          "iconFile": "icon--fail g-mr--10",
          "iconClass": ""
        },
        "title": {
          "titleClass": "g-font--18 g-font--medium g-mt--20 g-mb--15",
          "titleText": "¡Oops!"
        },
        "description": [
          {
            "descriptionClass": "g-font--light g-px-lg--70 g-mb-lg--20",
            "descriptionText": "Problema de conexión.<br>Tu solicitud no ha sido procesada con éxito."
          }
        ]
      }
    },
    "btns": {
      "btnsClass": "d-flex flex-column-reverse flex-md-row justify-content-center",
      "btn": [
        {
          "addClass": "g-p--10 text-center w-10",
          "textClass": "g-btn g-text--uppercase g-px--60 w-px-lg--24 g-c--pointer",
          "text": "ACEPTAR"
        }
      ]
    }
  }
}