{
  "loginTitle" : {
    "iconTitle" : {
      "circle-addClass" : "g-icon-circle--md",
      "addClass" : "g-font--18 g-c--gray18 align-self-center",
      "iconFile" : "icon-mapfre_014_perfil"
    },
    "title" : "Tipo de usuario"
  },
  "docType": false,
  "password": false,
  "dataName": false,
  "dataEmail": false,
  "company": true,
  "link": false,
  "btn-primary": false,
  "btn-secondary": false,
  "alert" : false,
  "listItems" : {
    "listA" :{
      "addClass" : "green g-font--13 g-font--light g-c--gray2",
      "ico-font" : "icon-mapfre_003_check",
      "list" : [
        { "text" : "Actualizar datos"},
        { "text" : "Solicitar servicios"}
      ]
    },
    "listB" : {
      "addClass" : "green g-font--13 g-font--light g-c--gray2",
      "ico-font" : "icon-mapfre_003_check",
      "list" : [
        { "text" : "Gestionar tus pólizas"},
        { "text" : "Pagar recibos"}
      ]
    }
  },
  "floatIcon" : {
    "circle-addClass" : "",
    "addClass" : "g-font--21 g-font--bold g-c--green1 align-self-center",
    "iconFile" : "icon-mapfre_033_angle2-right"
  }
}