{
  "loginTitle" : {
    "iconTitle" : {
      "circle-addClass" : "g-icon-circle--md",
      "addClass" : "g-font--18 g-c--gray18 align-self-center",
      "iconFile" : "icon-mapfre_014_perfil"
    },
    "title" : "Bienvenido <span class='g-font--normal'>Gonsalo</spam>"
  },
  "docType" : false,
  "password" : {
      "addClass": "g-form-focus",
      "currency": "",
      "type": "password",
      "value": "*************",
      "iconFile": "",
      "iconColor": "g-c--green1",
      "label": "Confirmar nueva contraseña",
      "requerid": false,
      "error": ""
  },
  "passwordError": false,
  "dataName": false,
  "dataEmail" : false,
  "link" : true,
  "linkText" : "He olvidado mi contraseña",
  "btn-primary": {
    "btnClass": "g-mb--20  g-mt--30",
    "text" : "Ingresar",
    "addClass" : "g-btn--default g-text--uppercase"
  },
  "btn-secondary" : {
    "btnClass": "g-mb--20",
    "text" : "ingresar con otro perfil",
    "addClass" : "g-btn--default g-btn-outline g-text--uppercase g-py--10 g-px--0 g-px-lg--10"
  },
  "listItems" : {
    "listA" :{
      "addClass" : "green g-font--13 g-font--light g-c--gray2",
      "ico-font" : "icon-mapfre_003_check",
      "list" : [
        { "text" : "Actualizar datos"},
        { "text" : "Solicitar servicios"}
      ]
    },
    "listB" : {
      "addClass" : "green g-font--13 g-font--light g-c--gray2",
      "ico-font" : "icon-mapfre_003_check",
      "list" : [
        { "text" : "Gestionar tus pólizas"},
        { "text" : "Pagar recibos"}
      ]
    }
  },
  "floatIcon" : {
    "circle-addClass" : "",
    "addClass" : "g-font--21 g-font--bold g-c--green1 align-self-center",
    "iconFile" : "icon-mapfre_033_angle2-right"
  }
}