{
  "iconFile": "icon-mapfre_044_logo_landing ",
  "addClass": "g-font--40",
  "acordion": [
    {
      "classAccordion": "g-bg-c--gray8 g-c--gray10 g-pt--5",
      "dataGroup": "true",
      "item": [
        {
          "dataOpen": "true",
          "itemClass": "",
          "titleClass": "",
          "boxClass": "",
          "clickClass": "g-pl--20 g-pr--15 g-py--10",
          "icon": {
            "iconFile": "icon-mapfre_022_car2",
            "iconClass": "g-px--15 g-font--20 "
          },
          "arrow": {
            "clickOn": {
              "iconFile": "icon-mapfre_101_ico-dow",
              "iconClass": "g-font--10 g-c-pointer g-c--white1"
            },
            "clickOff": {
              "iconFile": "icon-mapfre_102_ico-up",
              "iconClass": "g-c--pointer"
            }
          },
          "textClass": "g-text--uppercase g-font--bold",
          "text": "VEHÍCULOS",
          "contentClass": "",
          "content": false,
          "list": [
            {
              "iconFile": "",
              "text": "Seguro Vehicular"
            },
            {
              "iconFile": "",
              "text": "SOAT"
            },
            {
              "iconFile": "",
              "text": "Accidentes"
            },
            {
              "text": "Robo"
            },
            {
              "text": "Talleres"
            },
            {
              "text": "Cotización"
            }
          ],
          "classContent": "g-hover-nav g-font--12"
        },
        {
          "dataOpen": "",
          "itemClass": "",
          "titleClass": "",
          "boxClass": "",
          "clickClass": "g-pl--20 g-pr--15 g-py--10",
          "icon": {
            "iconFile": "icon-mapfre_023_cross2",
            "iconClass": "g-px--15 g-font--20 "
          },
          "arrow": {
            "clickOn": {
              "iconFile": "icon-mapfre_101_ico-dow",
              "iconClass": "g-font--10 g-c-pointer g-c--white1"
            },
            "clickOff": {
              "iconFile": "icon-mapfre_102_ico-up",
              "iconClass": "g-c--pointer g-font--10"
            }
          },
          "textClass": "g-text--uppercase g-font--bold",
          "text": "SALUD",
          "contentClass": "",
          "content": false,
          "list": [
            {
              "iconFile": "",
              "text": "Seguro Vehicular"
            },
            {
              "iconFile": "",
              "text": "SOAT"
            },
            {
              "iconFile": "",
              "text": "Accidentes"
            },
            {
              "text": "Robo"
            },
            {
              "text": "Talleres"
            },
            {
              "text": "Cotización"
            }
          ],
          "classContent": "g-hover-nav"
        },
        {
          "dataOpen": "",
          "itemClass": "",
          "titleClass": "",
          "boxClass": "",
          "clickClass": "g-pl--20 g-pr--15 g-py--10",
          "icon": {
            "iconFile": "icon-mapfre_024_house2",
            "iconClass": "g-px--15 g-font--20 "
          },
          "arrow": {
            "clickOn": {
              "iconFile": "icon-mapfre_101_ico-dow",
              "iconClass": "g-font--10 g-c-pointer g-c--white1"
            },
            "clickOff": {
              "iconFile": "icon-mapfre_102_ico-up",
              "iconClass": "g-c--pointer"
            }
          },
          "textClass": "g-text--uppercase g-font--bold",
          "text": "HOGAR",
          "contentClass": "",
          "content": false,
          "list": [
            {
              "iconFile": "",
              "text": "Seguro Vehicular"
            },
            {
              "iconFile": "",
              "text": "SOAT"
            },
            {
              "iconFile": "",
              "text": "Accidentes"
            },
            {
              "text": "Robo"
            },
            {
              "text": "Talleres"
            },
            {
              "text": "Cotización"
            }
          ],
          "classContent": "g-hover-nav"
        },
        {
          "dataOpen": "",
          "itemClass": "",
          "titleClass": "",
          "boxClass": "",
          "clickClass": "g-pl--20 g-pr--15 g-py--10",
          "icon": {
            "iconFile": "icon-mapfre_025_heart2",
            "iconClass": "g-px--15 g-font--20 "
          },
          "arrow": {
            "clickOn": {
              "iconFile": "icon-mapfre_101_ico-dow",
              "iconClass": "g-font--10 g-c-pointer g-c--white1"
            },
            "clickOff": {
              "iconFile": "icon-mapfre_102_ico-up",
              "iconClass": "g-c--pointer"
            }
          },
          "textClass": "g-text--uppercase g-font--bold",
          "text": "VIDA Y AHORROS",
          "contentClass": "",
          "content": false,
          "list": [
            {
              "iconFile": "",
              "text": "Seguro Vehicular"
            },
            {
              "iconFile": "",
              "text": "SOAT"
            },
            {
              "iconFile": "",
              "text": "Accidentes"
            },
            {
              "text": "Robo"
            },
            {
              "text": "Talleres"
            },
            {
              "text": "Cotización"
            }
          ],
          "classContent": "g-hover-nav"
        },
        {
          "dataOpen": "",
          "itemClass": "",
          "titleClass": "",
          "boxClass": "",
          "clickClass": "g-pl--20 g-pr--15 g-py--10",
          "icon": {
            "iconFile": "icon-mapfre_026_decesos",
            "iconClass": "g-px--15 g-font--20 "
          },
          "arrow": false,
          "textClass": "g-text--uppercase g-font--bold",
          "text": "DECESOS",
          "contentClass": "",
          "content": false,
          "classContent": "g-hover-nav"
        },
        {
          "dataOpen": "",
          "itemClass": "",
          "titleClass": "",
          "boxClass": "",
          "clickClass": "g-pl--20 g-pr--15 g-py--10",
          "icon": {
            "iconFile": "icon-mapfre_027_box",
            "iconClass": "g-px--15 g-font--20 "
          },
          "arrow": false,
          "textClass": "g-text--uppercase g-font--bold",
          "text": "SERVICIOS MAPFRE",
          "contentClass": "",
          "content": false,
          "classContent": "g-hover-nav"
        },
        {
          "dataOpen": "",
          "itemClass": "",
          "titleClass": "",
          "boxClass": "",
          "clickClass": "g-pl--20 g-pr--15 g-py--10",
          "icon": {
            "iconFile": "icon-mapfre_028_pagos",
            "iconClass": "g-px--15 g-font--20 "
          },
          "arrow": false,
          "textClass": "g-text--uppercase g-font--bold",
          "text": "Mis Pagos",
          "contentClass": "",
          "content": false,
          "classContent": "g-hover-nav"
        },
        {
          "dataOpen": "",
          "itemClass": "",
          "titleClass": "",
          "boxClass": "",
          "clickClass": "g-pl--20 g-pr--15 g-py--10",
          "icon": {
            "iconFile": "icon-mapfre_029_location-pin2",
            "iconClass": "g-px--15 g-font--20 "
          },
          "arrow": false,
          "textClass": "g-text--uppercase g-font--bold",
          "text": "Red de Oficinas",
          "contentClass": "",
          "content": false,
          "classContent": "g-hover-nav"
        }
      ]
    }
  ],
  "list-btn": [
    {
      "iconFile": "icon-mapfre_030_call",
      "addClass": "g-font--30"
    },
    {
      "iconFile": "icon-mapfre_031_qanda",
      "addClass": "g-font--30"
    }
  ],
  "headerOIM": {
    "icoNav": {
      "iconFile": "icon-mapfre_047_bars",
      "addClass": "g-font--30",
      "iconFileOIM": "icon-mapfre_044_logo_landing ",
      "addClassOIM": "g-font--30"
    },
    "headOimMobile": {
      "llamada": "Seguro vehicular",
      "bajada": "Póliza Full Cobertura",
      "iconFile": "icon-mapfre_044_logo_landing ",
      "addClass": "g-font--30",
      "icoBack": {
        "icon": "icon-mapfre_010_arrow-left",
        "addClass": "g-items-icon g-c--gray3 g-font--25 g-font-md--21"
      }
    },
    "datos": {
      "icoCircle": "icon-mapfre_066_circle",
      "sizeCircle": "g-font--40 g-c--gray1",
      "icoUser": "icon-mapfre_037_user",
      "addClass": "g-c--white1 g-ico--center g-font--20",
      "tittle": "MIS NOTIFICACIONES",
      "icoAlert": "icon-mapfre_036_notification",
      "icoClose": "icon-mapfre_049_close2",
      "sizeClose": "g-font--40",
      "nameUser": "Hola <b>Gonzalo!</b>",
      "numb": 3,
      "alertBadge": {
        "icoCircle": "icon-mapfre_066_circle",
        "addClass": "g-font--30 g-c--green1",
        "addClassNum": "g-ico--center g-font--11 g-c--white1"
      },
      "list": [
        {
          "tipo": "Mi prefil"
        },
        {
          "tipo": "Cerrar sesión"
        }
      ]
    },
    "alert": {
      "ico": "icon-mapfre_014_perfil",
      "icoCircle": "icon-mapfre_066_circle",
      "sizeCircle": "g-font--40 g-c--gray1",
      "addClass": "g-c--white1 g-ico--center g-font--20",
      "tittle": "MIS NOTIFICACIONES",
      "icoAlert": "icon-mapfre_036_notification",
      "icoClose": "icon-mapfre_049_close2",
      "sizeClose": "g-font--40",
      "numb": 3,
      "alertBadge": {
        "icoCircle": "icon-mapfre_066_circle",
        "addClass": "g-font--30 g-c--green1",
        "addClassNum": "g-ico--center g-font--11 g-c--white1"
      },
      "list": [
        {
          "ico-drow": "icon-mapfre_057_circle-check",
          "fech": "HOY 10:23am",
          "tipo": "Solicitud de chofer de reemplazo confirmada",
          "desc": "Lunes 1 NOV - 9:30am"
        },
        {
          "ico-drow": "icon-mapfre_049_close2",
          "fech": "24/02  10:23am",
          "tipo": "Solicitud de chofer de reemplazo cancelada",
          "desc": "Servicio cancelado"
        },
        {
          "ico-drow": "icon-mapfre_057_circle-check",
          "fech": "24/02 10:23am",
          "tipo": "Pago automático emitido",
          "desc": "Fondo universitario"
        },
        {
          "ico-drow": "icon-mapfre_049_close2",
          "fech": "24/02 10:23am",
          "tipo": "Pago fallido",
          "desc": "Seguro SCTR"
        },
        {
          "ico-drow": "icon-mapfre_057_circle-check",
          "fech": "24/02 10:23am",
          "tipo": "Pago pendiente",
          "desc": "Seguro vehicular - Vence 17/05/18"
        },
        {
          "ico-drow": "icon-mapfre_049_close2",
          "fech": "24/02 10:23am",
          "tipo": "Póliza sin cobertura por inpago",
          "desc": "Salud - Venció 12/05/18"
        }
      ]
    }
  },
  "tabs": {
    "listTab": [
      {
        "addActive": "g-tablist__tab--active",
        "text": "Detalles"
      },
      {
        "addActive": false,
        "text": "Coberturas"
      }
    ]
  },
  "seguroVehicular": {
    "contentClass": "g-mt--20",
    "boxHead": {
      "addClass": "",
      "icon": false,
      "title": "DETALLES DE MI PÓLIZA",
      "titleClass": " g-pl--15  pl-lg-0",
      "payment": false,
      "dots": true,
      "filter": false,
      "mont": false,
      "dropdown": {
        "lists": [
          {
            "icon": {
              "iconFile": "icon-mapfre_092_transpasarpoliza",
              "iconClass": "g-font--30 g-c--green1"
            },
            "textClass": "g-font--medium g-c--green1",
            "text": "Trapasar póliza"
          },
          {
            "listClass": "g-bl--1 g-bc--gray11 g-pl--15",
            "icon": false,
            "refres": {
              "addClass": "g-spinner-refres--loader"
            },
            "textClass": "g-font--medium g-c--gray21",
            "text": "Ver póliza y condicionado"
          }
        ],
        "inputs": false
      },
      "accordion": false
    },
    "misDatos": [
      {
        "boxHead": {
          "classmh": "g-mh-md--10",
          "icon": {
            "iconFile": "icon-mapfre_058_file",
            "iconClass": "g-c--gray6 g-font--55  g-px--10 "
          },
          "dateList": {
            "text": "Full Cobertura Premium",
            "text2": "Nro. de póliza 756433944",
            "text3": ""
          },
          "btnAdd": false,
          "btnIconAdd": false
        },
        "boxContent": {
          "addClass": "",
          "list": [
            {
              "itemClass": " g-p--15  d-flex align-items-center g-bt--1 g-bc--gray11",
              "icon": true,
              "iconFile": "icon-mapfre_072_cotizar",
              "iconClass": " g-font--25 g-font-md--21  g-mr--15  g-c--gray3",
              "textClass": "g-c--gray3",
              "text": "Suma asegurada: S/. 5.000.000"
            },
            {
              "itemClass": " g-p--15  d-flex align-items-center g-bt--1 g-bc--gray11",
              "icon": true,
              "iconFile": "icon-mapfre_063_agendar",
              "iconClass": " g-font--25 g-font-md--21  g-mr--15  g-c--gray3",
              "textClass": "g-c--gray3",
              "text": "Inicio vigencia: 24/02/2017"
            },
            {
              "itemClass": " g-p--15  d-flex align-items-center g-bt--1 g-bc--gray11",
              "icon": true,
              "iconFile": "icon-mapfre_063_agendar",
              "iconClass": " g-font--25 g-font-md--21  g-mr--15  g-c--gray3",
              "textClass": "g-c--gray3",
              "text": "Fin vigencia: 24/02/2018"
            }
          ]
        }
      },
      {
        "boxHead": {
          "classmh": "g-mh-md--10",
          "icon": {
            "iconFile": "icon-mapfre_055_wallet",
            "iconClass": "g-c--gray6 g-font--55  g-px--10 "
          },
          "dateList": {
            "text": "Pagos",
            "text2": "Prima: S/. 360,45",
            "text3": "Cuota: S/. 35"
          },
          "btnAdd": false,
          "btnIconAdd": {
            "iconFile": "icon-mapfre_035_edit",
            "iconClass": "g-c--pointer g-c--green1 g-font--25 g-font-md--21"
          }
        },
        "boxContent": {
          "addClass": "",
          "list": [
            {
              "itemClass": " g-p--15  d-flex align-items-center g-bt--1 g-bc--gray11",
              "icon": true,
              "iconFile": "icon-mapfre_096_porcentage",
              "iconClass": " g-font--25 g-font-md--21  g-mr--15  g-c--gray3",
              "textClass": "g-c--gray3",
              "text": "4 cuotas | <span class='g-c--pointer g-c--green1'>Ver pagos</span>"
            },
            {
              "itemClass": " g-p--15  d-flex align-items-center g-bt--1 g-bc--gray11",
              "icon": true,
              "iconFile": "icon-mapfre_055_wallet",
              "iconClass": " g-font--25 g-font-md--21  g-mr--15  g-c--gray3",
              "textClass": "g-c--gray3",
              "text": "Tipo de pago: Débito bancario"
            },
            {
              "itemClass": " g-p--15  d-flex align-items-center g-bt--1 g-bc--gray11",
              "icon": true,
              "iconFile": "icon-mapfre_097_refresh",
              "iconClass": " g-font--25 g-font-md--21  g-mr--15  g-c--gray3",
              "textClass": "g-c--gray3",
              "text": "Renovación automática"
            }
          ]
        }
      },
      {
        "boxHead": {
          "classmh": "g-mh-md--10",
          "icon": {
            "iconFile": "icon-mapfre_037_user",
            "iconClass": "g-c--gray6 g-font--55  g-px--10 "
          },
          "dateList": {
            "text": "Mis datos",
            "text2": "Marco Cuadrado Aro",
            "text3": "DNI: 56478364"
          },
          "btnAdd": false,
          "btnIconAdd": {
            "iconFile": "icon-mapfre_035_edit",
            "iconClass": "g-c--pointer g-c--green1 g-font--25 g-font-md--21"
          }
        },
        "boxContent": {
          "addClass": "",
          "list": [
            {
              "itemClass": " g-p--15  d-flex align-items-center g-bt--1 g-bc--gray11",
              "icon": true,
              "iconFile": "icon-mapfre_128_telephone",
              "iconClass": " g-font--25 g-font-md--21  g-mr--15  g-c--gray3",
              "textClass": "g-c--gray3",
              "text": "987 67 56 45"
            },
            {
              "itemClass": " g-p--15  d-flex align-items-center g-bt--1 g-bc--gray11",
              "icon": true,
              "iconFile": "icon-mapfre_063_agendar",
              "iconClass": " g-font--25 g-font-md--21  g-mr--15  g-c--gray3",
              "textClass": "g-c--gray3",
              "text": "Fecha de nacimiento: 24/02/1991"
            },
            {
              "itemClass": " g-p--15  d-flex align-items-center g-bt--1 g-bc--gray11",
              "icon": true,
              "iconFile": "icon-mapfre_041_iso",
              "iconClass": " g-font--25 g-font-md--21  g-mr--15  g-c--gray3",
              "textClass": "g-c--gray3",
              "text": "Cliente desde: 15 Enero 2015"
            }
          ]
        }
      }
    ],
    "vehicular": {
      "boxHead": {
        "addClass": "",
        "icon": {
          "iconFile": "icon-mapfre_055_wallet",
          "iconClass": "g-font--25 g-font-md--21"
        },
        "titleClass": "",
        "title": "MIS VEHÍCULOS",
        "payment": false,
        "dots": false,
        "filter": false,
        "mont": false,
        "dropdown": false,
        "accordion": {
          "addClass": "d-block d-xl-none",
          "iconArrowDown": "icon-mapfre_008_angle-down",
          "iconArrowUp": "icon-mapfre_007_angle-up"
        }
      },
      "cardboxCheck": false,
      "cardboxDirection": false,
      "cardboxPayments": false,
      "cardboxPaymentsNot": false,
      "cardboxPoliza": [
        {
          "addClass": " g-mb--10 ",
          "icon": {
            "addClass": "g-items-icon g-c--gray3 g-font--45  g-pr--20 ",
            "iconFile": "icon-mapfre_019_car"
          },
          "text": "Placa en Trámite - Toyota Yaris",
          "secondText": "Seat Ibiza 2016 - CGG 5463",
          "second": {
            "text": "Submodelo: 1.3",
            "secondText": "Color: Verde"
          },
          "thrid": {
            "text": "Nro. chasis: VSHFI5678KSH",
            "secondText": "Nro. motor: VASDH76594JIHF"
          },
          "verDetalle": {
            "text": "Ver detalle"
          }
        },
        {
          "addClass": " g-mb--10 ",
          "icon": {
            "addClass": "g-items-icon g-c--gray3 g-font--45  g-pr--20 ",
            "iconFile": "icon-mapfre_020_cross"
          },
          "text": "Trebol salud",
          "secondText": "MGF453 -Seat Ibiza 2016",
          "second": {
            "text": "Submodelo: 1.3",
            "secondText": "Color: Rojo"
          },
          "thrid": {
            "text": "Nro. Chasis: VSHFI5678KSH",
            "secondText": "Nro. motor: VASDH76594JIHF"
          },
          "verDetalle": {
            "text": "Ver detalle"
          }
        }
      ],
      "btnVerTodos": false
    },
    "preferent": {
      "boxHead": {
        "addClassHeader": "g-bb--1",
        "addClass": "",
        "iconFile": "",
        "iconClass": "",
        "blockClass": "align-items-center",
        "dateList": {
          "addClass": "",
          "list": [
            {
              "icon": true,
              "itemClass": "align-items-center",
              "iconFile": "icon-mapfre_016_heart ",
              "iconClass": "g-font--30  g-c--gray2  g-pr--10 ",
              "textClass": "g-font--14 g-font-md--18 g-text--uppercase g-font--medium",
              "text": "Preferencias de Contacto"
            }
          ]
        },
        "btnAdd": false,
        "btnIconAdd": false
      },
      "cardboxCheck": [
        {
          "title": "Medio:",
          "list": [
            {
              "label": "Email",
              "id": "d1"
            },
            {
              "label": "Celular",
              "id": "d2"
            }
          ],
          "class-border": "g-bb--1  g-pt--10  g-mb--20"
        },
        {
          "title": "",
          "list": [
            {
              "label": "Quiero recibir comunicaciones sobre descuentos, regalos y ofertas",
              "id": "d3"
            },
            {
              "label": "Quiero recibir comunicaciones sobre descuentos, regalos y ofertas",
              "id": "d4"
            },
            {
              "label": "Quiero recibir comunicaciones sobre descuentos, regalos y ofertas",
              "id": "d5"
            }
          ]
        }
      ]
    }
  }
}