{
  "iconFile": "icon-mapfre_044_logo_landing ",
  "addClass": "g-font--40",
  "acordion": [
    {
      "classAccordion": "g-bg-c--gray8 g-c--gray10 g-pt--5",
      "dataGroup": "true",
      "item": [
        {
          "dataOpen": "true",
          "itemClass": "",
          "titleClass": "",
          "boxClass": "",
          "clickClass": " g-pl--20   g-pr--15   g-py--10 ",
          "icon": {
            "iconFile": "icon-mapfre_022_car2",
            "iconClass": " g-px--15  g-font--20 "
          },
          "arrow": {
            "clickOn": {
              "iconFile": "icon-mapfre_101_ico-dow",
              "iconClass": "g-font--10 g-c-pointer g-c--white1"
            },
            "clickOff": {
              "iconFile": "icon-mapfre_102_ico-up",
              "iconClass": "g-c--pointer"
            }
          },
          "textClass": "g-text--uppercase g-font--bold",
          "text": "VEHÍCULOS",
          "contentClass": "",
          "content": false,
          "list": [
            {
              "iconFile": "",
              "text": "Seguro Vehicular"
            },
            {
              "iconFile": "",
              "text": "SOAT"
            },
            {
              "iconFile": "",
              "text": "Accidentes"
            },
            {
              "text": "Robo"
            },
            {
              "text": "Talleres"
            },
            {
              "text": "Cotización"
            }
          ],
          "classContent": "g-hover-nav g-font--12"
        },
        {
          "dataOpen": "",
          "itemClass": "",
          "titleClass": "",
          "boxClass": "",
          "clickClass": " g-pl--20   g-pr--15   g-py--10 ",
          "icon": {
            "iconFile": "icon-mapfre_023_cross2",
            "iconClass": " g-px--15  g-font--20 "
          },
          "arrow": {
            "clickOn": {
              "iconFile": "icon-mapfre_101_ico-dow",
              "iconClass": "g-font--10 g-c-pointer g-c--white1"
            },
            "clickOff": {
              "iconFile": "icon-mapfre_102_ico-up",
              "iconClass": "g-c--pointer g-font--10"
            }
          },
          "textClass": "g-text--uppercase g-font--bold",
          "text": "SALUD",
          "contentClass": "",
          "content": false,
          "list": [
            {
              "iconFile": "",
              "text": "Seguro Vehicular"
            },
            {
              "iconFile": "",
              "text": "SOAT"
            },
            {
              "iconFile": "",
              "text": "Accidentes"
            },
            {
              "text": "Robo"
            },
            {
              "text": "Talleres"
            },
            {
              "text": "Cotización"
            }
          ],
          "classContent": "g-hover-nav"
        },
        {
          "dataOpen": "",
          "itemClass": "",
          "titleClass": "",
          "boxClass": "",
          "clickClass": " g-pl--20   g-pr--15   g-py--10 ",
          "icon": {
            "iconFile": "icon-mapfre_024_house2",
            "iconClass": " g-px--15  g-font--20 "
          },
          "arrow": {
            "clickOn": {
              "iconFile": "icon-mapfre_101_ico-dow",
              "iconClass": "g-font--10 g-c-pointer g-c--white1"
            },
            "clickOff": {
              "iconFile": "icon-mapfre_102_ico-up",
              "iconClass": "g-c--pointer"
            }
          },
          "textClass": "g-text--uppercase g-font--bold",
          "text": "HOGAR",
          "contentClass": "",
          "content": false,
          "list": [
            {
              "iconFile": "",
              "text": "Seguro Vehicular"
            },
            {
              "iconFile": "",
              "text": "SOAT"
            },
            {
              "iconFile": "",
              "text": "Accidentes"
            },
            {
              "text": "Robo"
            },
            {
              "text": "Talleres"
            },
            {
              "text": "Cotización"
            }
          ],
          "classContent": "g-hover-nav"
        },
        {
          "dataOpen": "",
          "itemClass": "",
          "titleClass": "",
          "boxClass": "",
          "clickClass": " g-pl--20   g-pr--15   g-py--10 ",
          "icon": {
            "iconFile": "icon-mapfre_025_heart2",
            "iconClass": " g-px--15  g-font--20 "
          },
          "arrow": {
            "clickOn": {
              "iconFile": "icon-mapfre_101_ico-dow",
              "iconClass": "g-font--10 g-c-pointer g-c--white1"
            },
            "clickOff": {
              "iconFile": "icon-mapfre_102_ico-up",
              "iconClass": "g-c--pointer"
            }
          },
          "textClass": "g-text--uppercase g-font--bold",
          "text": "VIDA Y AHORROS",
          "contentClass": "",
          "content": false,
          "list": [
            {
              "iconFile": "",
              "text": "Seguro Vehicular"
            },
            {
              "iconFile": "",
              "text": "SOAT"
            },
            {
              "iconFile": "",
              "text": "Accidentes"
            },
            {
              "text": "Robo"
            },
            {
              "text": "Talleres"
            },
            {
              "text": "Cotización"
            }
          ],
          "classContent": "g-hover-nav"
        },
        {
          "dataOpen": "",
          "itemClass": "",
          "titleClass": "",
          "boxClass": "",
          "clickClass": " g-pl--20   g-pr--15   g-py--10 ",
          "icon": {
            "iconFile": "icon-mapfre_026_decesos",
            "iconClass": " g-px--15  g-font--20 "
          },
          "arrow": false,
          "textClass": "g-text--uppercase g-font--bold",
          "text": "DECESOS",
          "contentClass": "",
          "content": false,
          "classContent": "g-hover-nav"
        },
        {
          "dataOpen": "",
          "itemClass": "",
          "titleClass": "",
          "boxClass": "",
          "clickClass": " g-pl--20   g-pr--15   g-py--10 ",
          "icon": {
            "iconFile": "icon-mapfre_027_box",
            "iconClass": " g-px--15  g-font--20 "
          },
          "arrow": false,
          "textClass": "g-text--uppercase g-font--bold",
          "text": "SERVICIOS MAPFRE",
          "contentClass": "",
          "content": false,
          "classContent": "g-hover-nav"
        },
        {
          "dataOpen": "",
          "itemClass": "",
          "titleClass": "",
          "boxClass": "",
          "clickClass": " g-pl--20   g-pr--15   g-py--10 ",
          "icon": {
            "iconFile": "icon-mapfre_028_pagos",
            "iconClass": " g-px--15  g-font--20 "
          },
          "arrow": false,
          "textClass": "g-text--uppercase g-font--bold",
          "text": "Mis Pagos",
          "contentClass": "",
          "content": false,
          "classContent": "g-hover-nav"
        },
        {
          "dataOpen": "",
          "itemClass": "",
          "titleClass": "",
          "boxClass": "",
          "clickClass": " g-pl--20   g-pr--15   g-py--10 ",
          "icon": {
            "iconFile": "icon-mapfre_029_location-pin2",
            "iconClass": " g-px--15  g-font--20 "
          },
          "arrow": false,
          "textClass": "g-text--uppercase g-font--bold",
          "text": "Red de Oficinas",
          "contentClass": "",
          "content": false,
          "classContent": "g-hover-nav"
        }
      ]
    }
  ],
  "list-btn": [
    {
      "iconFile": "icon-mapfre_030_call",
      "addClass": "g-font--30"
    },
    {
      "iconFile": "icon-mapfre_031_qanda",
      "addClass": "g-font--30"
    }
  ],
  "headerOIM": {
    "icoNav": {
      "iconFile": "icon-mapfre_047_bars",
      "addClass": "g-font--30",
      "iconFileOIM": "icon-mapfre_044_logo_landing ",
      "addClassOIM": "g-font--30"
    },
    "headOimMobile": {
      "llamada": "Seguro vehicular",
      "bajada": "Póliza Full Cobertura",
      "iconFile": "icon-mapfre_044_logo_landing ",
      "addClass": "g-font--30",
      "icoBack": {
        "icon": "icon-mapfre_010_arrow-left",
        "addClass": "g-items-icon g-c--gray3 g-font--25 g-font-md--21"
      }
    },
    "datos": {
      "icoCircle": "icon-mapfre_066_circle",
      "sizeCircle": "g-font--40 g-c--gray1",
      "icoUser": "icon-mapfre_037_user",
      "addClass": "g-c--white1 g-ico--center g-font--20",
      "tittle": "NOTIFICACIONES",
      "icoAlert": "icon-mapfre_036_notification",
      "icoClose": "icon-mapfre_049_close2",
      "sizeClose": "g-font--40",
      "nameUser": "Hola <b>Gonzalo!</b>",
      "numb": 3,
      "alertBadge": {
        "icoCircle": "icon-mapfre_066_circle",
        "addClass": "g-font--30 g-c--green1",
        "addClassNum": "g-ico--center g-font--11 g-c--white1"
      },
      "list": [
        {
          "tipo": "Mi prefil"
        },
        {
          "tipo": "Cerrar sesión"
        }
      ]
    },
    "alert": {
      "ico": "icon-mapfre_014_perfil",
      "icoCircle": "icon-mapfre_066_circle",
      "sizeCircle": "g-font--40 g-c--gray1",
      "addClass": "g-c--white1 g-ico--center g-font--20",
      "tittle": "NOTIFICACIONES",
      "icoAlert": "icon-mapfre_036_notification",
      "icoClose": "icon-mapfre_049_close2",
      "sizeClose": "g-font--40",
      "numb": 3,
      "alertBadge": {
        "icoCircle": "icon-mapfre_066_circle",
        "addClass": "g-font--30 g-c--green1",
        "addClassNum": "g-ico--center g-font--11 g-c--white1"
      },
      "list": [
        {
          "ico-drow": "icon-mapfre_057_circle-check",
          "fech": "HOY 10:23am",
          "tipo": "Solicitud de chofer de reemplazo confirmada",
          "desc": "Seguro vehicular"
        },
        {
          "ico-drow": "icon-mapfre_049_close2",
          "fech": "HOY 10:23am",
          "tipo": "Solicitud de auxilio mecánico cancelada",
          "desc": "Seguro vehicular"
        },
        {
          "ico-drow": "icon-mapfre_057_circle-check",
          "fech": "HOY 10:23am",
          "tipo": "Solicitud de auxilio mecánico cancelada",
          "desc": "Seguro vehicular"
        },
        {
          "ico-drow": "icon-mapfre_049_close2",
          "fech": "HOY 10:23am",
          "tipo": "Solicitud de auxilio mecánico cancelada",
          "desc": "Seguro vehicular"
        },
        {
          "ico-drow": "icon-mapfre_057_circle-check",
          "fech": "HOY 10:23am",
          "tipo": "Solicitud de auxilio mecánico cancelada",
          "desc": "Seguro vehicular"
        },
        {
          "ico-drow": "icon-mapfre_062_reloj",
          "fech": "HOY 10:23am",
          "tipo": "Solicitud de auxilio mecánico cancelada",
          "desc": "Seguro vehicular"
        },
        {
          "ico-drow": "icon-mapfre_049_close2",
          "fech": "HOY 10:23am",
          "tipo": "Solicitud de auxilio mecánico cancelada",
          "desc": "Seguro vehicular"
        }
      ]
    }
  },
  "boxcard": {
    "card": {
      "addClass": "",
      "icon": false,
      "title": "MIS COBERTURAS",
      "titleClass": " g-pl--15  pl-lg-0",
      "payment": false,
      "dots": true,
      "filter": false,
      "mont": false,
      "dropdown": {
        "lists": [
          {
            "icon": {
              "iconFile": "icon-mapfre_031_qanda",
              "iconClass": "g-font--21 g-c--green1"
            },
            "textClass": "g-font--medium g-c--green1",
            "text": "Preguntas frecuentes"
          }
        ],
        "inputs": false
      },
      "accordion": false
    },
    "tab": {
      "tabVertical": {
        "listTab": [
          {
            "addActive": "active",
            "text": "Coberturas"
          },
          {
            "text": "Exclusiones"
          },
          {
            "text": "Deducibles"
          }
        ]
      },
      "title": {
        "addClass": "text-center text-lg-left g-px--15 g-px-lg--0 g-pb--15",
        "title": {
          "textClass": "g-font--16 g-font--medium g-mb--10 g-mb-lg--0",
          "text": "COBERTURAS"
        },
        "description": {
          "textClass": "",
          "text": "Selecciona un vehículo de la póliza Full Cobertura para visualizar su cobertura:"
        }
      },
      "combo": {
        "addClass": "g-form-focus",
        "label": "Selecciona tu vehículo",
        "disabled": false,
        "listOption": [
          {
            "value": "MGF453 -Seat Ibiza 2016"
          }
        ],
        "error": ""
      },
      "content": [
        {
          "boxClass": "g-b-radius-lg--5 g-box-lg--shadow2 g-p-lg--20 g-mt--20",
          "head": {
            "addClass": "text-center text-lg-left g-px--15 g-px-lg--0 g-pb--15",
            "title": false,
            "description": {
              "textClass": "g-font--medium g-text--uppercase",
              "text": "Choque y robo parcial -  Pérdida total por choque y robo"
            }
          },
          "icons": {
            "list": [
              {
                "addClass": "w-50 w-md-2-5  g-mb--20 ",
                "icon": {
                  "iconClass": "g-font--45 g-c--gray10",
                  "iconFile": "icon-mapfre_134_car_hurt"
                },
                "tooltip": {
                  "iconTooltip": true,
                  "icon": "icon-mapfre_048_tooltip",
                  "iconClass": "g-font--25 g-font-md--21 g-c--green1",
                  "textArea": false,
                  "text": "",
                  "alignTooltip": "",
                  "addClass": "g-p--15",
                  "addClassTitle": "text-left",
                  "title": "Robo o hurto ",
                  "description": "Tanto el robo como el hurto implican el hecho de apoderarse de un bien ajeno, pero la diferencia estriba en que en el robo hay violencia, amenaza o fuerza para conseguir ese propósito.",
                  "link": {
                    "linkUrl": "",
                    "linkClass": "g-c--green1 g-pt--5 g-c--pointer",
                    "link": "¿Te han robado?"
                  }
                },
                "title1": {
                  "title1Class": "text-center",
                  "title1": "Choque y robo parcial"
                },
                "title2": false
              },
              {
                "addClass": "w-50 w-md-2-5  g-mb--20 ",
                "icon": {
                  "iconClass": "g-font--45 g-c--gray10",
                  "iconFile": "icon-mapfre_111_steal"
                },
                "tooltip": {
                  "iconTooltip": true,
                  "icon": "icon-mapfre_048_tooltip",
                  "iconClass": "g-font--25 g-font-md--21 g-c--green1",
                  "textArea": false,
                  "text": "",
                  "alignTooltip": "",
                  "addClass": "g-p--15",
                  "addClassTitle": "text-left",
                  "title": "Robo o hurto ",
                  "description": "Tanto el robo como el hurto implican el hecho de apoderarse de un bien ajeno, pero la diferencia estriba en que en el robo hay violencia, amenaza o fuerza para conseguir ese propósito.",
                  "link": {
                    "linkUrl": "",
                    "linkClass": "g-c--green1 g-pt--5 g-c--pointer",
                    "link": "¿Te han robado?"
                  }
                },
                "title1": {
                  "title1Class": "text-center",
                  "title1": "Pérdida total por choque y robo"
                },
                "title2": false
              },
              {
                "addClass": "w-50 w-md-2-5  g-mb--20 ",
                "icon": {
                  "iconClass": "g-font--45 g-c--gray10",
                  "iconFile": "icon-mapfre_133_car_accident"
                },
                "tooltip": {
                  "iconTooltip": true,
                  "icon": "icon-mapfre_048_tooltip",
                  "iconClass": "g-font--25 g-font-md--21 g-c--green1",
                  "textArea": false,
                  "text": "",
                  "alignTooltip": "",
                  "addClass": "g-p--15",
                  "addClassTitle": "text-left",
                  "title": "Robo o hurto ",
                  "description": "Tanto el robo como el hurto implican el hecho de apoderarse de un bien ajeno, pero la diferencia estriba en que en el robo hay violencia, amenaza o fuerza para conseguir ese propósito.",
                  "link": {
                    "linkUrl": "",
                    "linkClass": "g-c--green1 g-pt--5 g-c--pointer",
                    "link": "¿Te han robado?"
                  }
                },
                "title1": {
                  "title1Class": "text-center",
                  "title1": "Accidente"
                },
                "title2": false
              },
              {
                "addClass": "w-50 w-md-2-5  g-mb--20 ",
                "icon": {
                  "iconClass": "g-font--45 g-c--gray10",
                  "iconFile": "icon-mapfre_139_fire"
                },
                "tooltip": {
                  "iconTooltip": true,
                  "icon": "icon-mapfre_048_tooltip",
                  "iconClass": "g-font--25 g-font-md--21 g-c--green1",
                  "textArea": false,
                  "text": "",
                  "alignTooltip": "",
                  "addClass": "g-p--15",
                  "addClassTitle": "text-left",
                  "title": "Robo o hurto ",
                  "description": "Tanto el robo como el hurto implican el hecho de apoderarse de un bien ajeno, pero la diferencia estriba en que en el robo hay violencia, amenaza o fuerza para conseguir ese propósito.",
                  "link": {
                    "linkUrl": "",
                    "linkClass": "g-c--green1 g-pt--5 g-c--pointer",
                    "link": "¿Te han robado?"
                  }
                },
                "title1": {
                  "title1Class": "text-center",
                  "title1": "Incendio"
                },
                "title2": false
              },
              {
                "addClass": "w-50 w-md-2-5  g-mb--20 ",
                "icon": {
                  "iconClass": "g-font--45 g-c--gray10",
                  "iconFile": "icon-mapfre_145_stole"
                },
                "tooltip": {
                  "iconTooltip": true,
                  "icon": "icon-mapfre_048_tooltip",
                  "iconClass": "g-font--25 g-font-md--21 g-c--green1",
                  "textArea": false,
                  "text": "",
                  "alignTooltip": "",
                  "addClass": "g-p--15",
                  "addClassTitle": "text-left",
                  "title": "Robo o hurto ",
                  "description": "Tanto el robo como el hurto implican el hecho de apoderarse de un bien ajeno, pero la diferencia estriba en que en el robo hay violencia, amenaza o fuerza para conseguir ese propósito.",
                  "link": {
                    "linkUrl": "",
                    "linkClass": "g-c--green1 g-pt--5 g-c--pointer",
                    "link": "¿Te han robado?"
                  }
                },
                "title1": {
                  "title1Class": "text-center",
                  "title1": "Robo o Hurto"
                },
                "title2": false
              },
              {
                "addClass": "w-50 w-md-2-5  g-mb--20 ",
                "icon": {
                  "iconClass": "g-font--45 g-c--gray10",
                  "iconFile": "icon-mapfre_147_moons"
                },
                "tooltip": {
                  "iconTooltip": true,
                  "icon": "icon-mapfre_048_tooltip",
                  "iconClass": "g-font--25 g-font-md--21 g-c--green1",
                  "textArea": false,
                  "text": "",
                  "alignTooltip": "",
                  "addClass": "g-p--15",
                  "addClassTitle": "text-left",
                  "title": "Robo o hurto ",
                  "description": "Tanto el robo como el hurto implican el hecho de apoderarse de un bien ajeno, pero la diferencia estriba en que en el robo hay violencia, amenaza o fuerza para conseguir ese propósito.",
                  "link": {
                    "linkUrl": "",
                    "linkClass": "g-c--green1 g-pt--5 g-c--pointer",
                    "link": "¿Te han robado?"
                  }
                },
                "title1": {
                  "title1Class": "text-center",
                  "title1": "Rotura de Lunas"
                },
                "title2": false
              },
              {
                "addClass": "w-50 w-md-2-5  g-mb--20 ",
                "icon": {
                  "iconClass": "g-font--45 g-c--gray10",
                  "iconFile": "icon-mapfre_136_car_natural"
                },
                "tooltip": {
                  "iconTooltip": true,
                  "icon": "icon-mapfre_048_tooltip",
                  "iconClass": "g-font--25 g-font-md--21 g-c--green1",
                  "textArea": false,
                  "text": "",
                  "alignTooltip": "",
                  "addClass": "g-p--15",
                  "addClassTitle": "text-left",
                  "title": "Robo o hurto ",
                  "description": "Tanto el robo como el hurto implican el hecho de apoderarse de un bien ajeno, pero la diferencia estriba en que en el robo hay violencia, amenaza o fuerza para conseguir ese propósito.",
                  "link": {
                    "linkUrl": "",
                    "linkClass": "g-c--green1 g-pt--5 g-c--pointer",
                    "link": "¿Te han robado?"
                  }
                },
                "title1": {
                  "title1Class": "text-center",
                  "title1": "Fenómenos Naturales"
                },
                "title2": false
              },
              {
                "addClass": "w-50 w-md-2-5  g-mb--20 ",
                "icon": {
                  "iconClass": "g-font--45 g-c--gray10",
                  "iconFile": "icon-mapfre_138_strike"
                },
                "tooltip": {
                  "iconTooltip": true,
                  "icon": "icon-mapfre_048_tooltip",
                  "iconClass": "g-font--25 g-font-md--21 g-c--green1",
                  "textArea": false,
                  "text": "",
                  "alignTooltip": "",
                  "addClass": "g-p--15",
                  "addClassTitle": "text-left",
                  "title": "Robo o hurto ",
                  "description": "Tanto el robo como el hurto implican el hecho de apoderarse de un bien ajeno, pero la diferencia estriba en que en el robo hay violencia, amenaza o fuerza para conseguir ese propósito.",
                  "link": {
                    "linkUrl": "",
                    "linkClass": "g-c--green1 g-pt--5 g-c--pointer",
                    "link": "¿Te han robado?"
                  }
                },
                "title1": {
                  "title1Class": "text-center",
                  "title1": "Huelga, Conmoción Civil, Daño Malicioso, Vandalismo y terrorismo"
                },
                "title2": false
              },
              {
                "addClass": "w-50 w-md-2-5  g-mb--20 ",
                "icon": {
                  "iconClass": "g-font--45 g-c--gray10",
                  "iconFile": "icon-mapfre_146_imbalance"
                },
                "tooltip": {
                  "iconTooltip": true,
                  "icon": "icon-mapfre_048_tooltip",
                  "iconClass": "g-font--25 g-font-md--21 g-c--green1",
                  "textArea": false,
                  "text": "",
                  "alignTooltip": "",
                  "addClass": "g-p--15",
                  "addClassTitle": "text-left",
                  "title": "Robo o hurto ",
                  "description": "Tanto el robo como el hurto implican el hecho de apoderarse de un bien ajeno, pero la diferencia estriba en que en el robo hay violencia, amenaza o fuerza para conseguir ese propósito.",
                  "link": {
                    "linkUrl": "",
                    "linkClass": "g-c--green1 g-pt--5 g-c--pointer",
                    "link": "¿Te han robado?"
                  }
                },
                "title1": {
                  "title1Class": "text-center",
                  "title1": "Ausencia de Control"
                },
                "title2": false
              }
            ]
          }
        },
        {
          "boxClass": "g-b-radius-lg--5 g-box-lg--shadow2 g-p-lg--20 g-mt--20",
          "head": {
            "addClass": "text-center text-lg-left g-px--15 g-px-lg--0 g-pb--15",
            "title": false,
            "description": {
              "textClass": "g-font--medium g-text--uppercase",
              "text": "Robo de equipos audiovisuales"
            }
          },
          "icons": {
            "list": [
              {
                "addClass": "w-50 w-md-2-5  g-mb--20 ",
                "icon": {
                  "iconClass": "g-font--45 g-c--gray10",
                  "iconFile": "icon-mapfre_143_things"
                },
                "tooltip": {
                  "iconTooltip": true,
                  "icon": "icon-mapfre_048_tooltip",
                  "iconClass": "g-font--25 g-font-md--21 g-c--green1",
                  "textArea": false,
                  "text": "",
                  "alignTooltip": "",
                  "addClass": "g-p--15",
                  "addClassTitle": "text-left",
                  "title": "Robo o hurto ",
                  "description": "Tanto el robo como el hurto implican el hecho de apoderarse de un bien ajeno, pero la diferencia estriba en que en el robo hay violencia, amenaza o fuerza para conseguir ese propósito.",
                  "link": {
                    "linkUrl": "",
                    "linkClass": "g-c--green1 g-pt--5 g-c--pointer",
                    "link": "¿Te han robado?"
                  }
                },
                "title1": {
                  "title1Class": "text-center",
                  "title1": "Robo de equipos de música y video"
                },
                "title2": false
              }
            ]
          }
        },
        {
          "boxClass": "g-b-radius-lg--5 g-box-lg--shadow2 g-p-lg--20 g-mt--20",
          "head": {
            "addClass": "text-center text-lg-left g-px--15 g-px-lg--0 g-pb--15",
            "title": false,
            "description": {
              "textClass": "g-font--medium g-text--uppercase",
              "text": "Responsabilidad civil"
            }
          },
          "icons": {
            "list": [
              {
                "addClass": "w-50 w-md-2-5  g-mb--20 ",
                "icon": {
                  "iconClass": "g-font--45 g-c--gray10",
                  "iconFile": "icon-mapfre_108_person_car"
                },
                "tooltip": {
                  "iconTooltip": true,
                  "icon": "icon-mapfre_048_tooltip",
                  "iconClass": "g-font--25 g-font-md--21 g-c--green1",
                  "textArea": false,
                  "text": "",
                  "alignTooltip": "",
                  "addClass": "g-p--15",
                  "addClassTitle": "text-left",
                  "title": "Robo o hurto ",
                  "description": "Tanto el robo como el hurto implican el hecho de apoderarse de un bien ajeno, pero la diferencia estriba en que en el robo hay violencia, amenaza o fuerza para conseguir ese propósito.",
                  "link": {
                    "linkUrl": "",
                    "linkClass": "g-c--green1 g-pt--5 g-c--pointer",
                    "link": "¿Te han robado?"
                  }
                },
                "title1": {
                  "title1Class": "text-center",
                  "title1": "Daños a terceros"
                },
                "title2": false
              },
              {
                "addClass": "w-50 w-md-2-5  g-mb--20 ",
                "icon": {
                  "iconClass": "g-font--45 g-c--gray10",
                  "iconFile": "icon-mapfre_135_car_shock"
                },
                "tooltip": {
                  "iconTooltip": true,
                  "icon": "icon-mapfre_048_tooltip",
                  "iconClass": "g-font--25 g-font-md--21 g-c--green1",
                  "textArea": false,
                  "text": "",
                  "alignTooltip": "",
                  "addClass": "g-p--15",
                  "addClassTitle": "text-left",
                  "title": "Robo o hurto ",
                  "description": "Tanto el robo como el hurto implican el hecho de apoderarse de un bien ajeno, pero la diferencia estriba en que en el robo hay violencia, amenaza o fuerza para conseguir ese propósito.",
                  "link": {
                    "linkUrl": "",
                    "linkClass": "g-c--green1 g-pt--5 g-c--pointer",
                    "link": "¿Te han robado?"
                  }
                },
                "title1": {
                  "title1Class": "text-center",
                  "title1": "Daños a terceros por Ausencia de Control (solo endosadas a entidades financieras y/o personas jurídicas)"
                },
                "title2": false
              },
              {
                "addClass": "w-50 w-md-2-5  g-mb--20 ",
                "icon": {
                  "iconClass": "g-font--45 g-c--gray10",
                  "iconFile": "icon-mapfre_142_people"
                },
                "tooltip": {
                  "iconTooltip": true,
                  "icon": "icon-mapfre_048_tooltip",
                  "iconClass": "g-font--25 g-font-md--21 g-c--green1",
                  "textArea": false,
                  "text": "",
                  "alignTooltip": "",
                  "addClass": "g-p--15",
                  "addClassTitle": "text-left",
                  "title": "Robo o hurto ",
                  "description": "Tanto el robo como el hurto implican el hecho de apoderarse de un bien ajeno, pero la diferencia estriba en que en el robo hay violencia, amenaza o fuerza para conseguir ese propósito.",
                  "link": {
                    "linkUrl": "",
                    "linkClass": "g-c--green1 g-pt--5 g-c--pointer",
                    "link": "¿Te han robado?"
                  }
                },
                "title1": {
                  "title1Class": "text-center",
                  "title1": "Daños a ocupantes del vehículo"
                },
                "title2": false
              }
            ]
          }
        },
        {
          "boxClass": "g-b-radius-lg--5 g-box-lg--shadow2 g-p-lg--20 g-mt--20",
          "head": {
            "addClass": "text-center text-lg-left g-px--15 g-px-lg--0 g-pb--15",
            "title": false,
            "description": {
              "textClass": "g-font--medium g-text--uppercase",
              "text": "Accidentes personales"
            }
          },
          "icons": {
            "list": [
              {
                "addClass": "w-50 w-md-2-5  g-mb--20 ",
                "icon": {
                  "iconClass": "g-font--45 g-c--gray10",
                  "iconFile": "icon-mapfre_141_disability"
                },
                "tooltip": {
                  "iconTooltip": true,
                  "icon": "icon-mapfre_048_tooltip",
                  "iconClass": "g-font--25 g-font-md--21 g-c--green1",
                  "textArea": false,
                  "text": "",
                  "alignTooltip": "",
                  "addClass": "g-p--15",
                  "addClassTitle": "text-left",
                  "title": "Robo o hurto ",
                  "description": "Tanto el robo como el hurto implican el hecho de apoderarse de un bien ajeno, pero la diferencia estriba en que en el robo hay violencia, amenaza o fuerza para conseguir ese propósito.",
                  "link": {
                    "linkUrl": "",
                    "linkClass": "g-c--green1 g-pt--5 g-c--pointer",
                    "link": "¿Te han robado?"
                  }
                },
                "title1": {
                  "title1Class": "text-center",
                  "title1": "Indemnización por Muerte y/o Invalidez Permanente de Ocupantes"
                },
                "title2": false
              },
              {
                "addClass": "w-50 w-md-2-5  g-mb--20 ",
                "icon": {
                  "iconClass": "g-font--45 g-c--gray10",
                  "iconFile": "icon-mapfre_107_sinister"
                },
                "tooltip": {
                  "iconTooltip": true,
                  "icon": "icon-mapfre_048_tooltip",
                  "iconClass": "g-font--25 g-font-md--21 g-c--green1",
                  "textArea": false,
                  "text": "",
                  "alignTooltip": "",
                  "addClass": "g-p--15",
                  "addClassTitle": "text-left",
                  "title": "Robo o hurto ",
                  "description": "Tanto el robo como el hurto implican el hecho de apoderarse de un bien ajeno, pero la diferencia estriba en que en el robo hay violencia, amenaza o fuerza para conseguir ese propósito.",
                  "link": {
                    "linkUrl": "",
                    "linkClass": "g-c--green1 g-pt--5 g-c--pointer",
                    "link": "¿Te han robado?"
                  }
                },
                "title1": {
                  "title1Class": "text-center",
                  "title1": "Gastos de Curación a Ocupantes"
                },
                "title2": false
              },
              {
                "addClass": "w-50 w-md-2-5  g-mb--20 ",
                "icon": {
                  "iconClass": "g-font--45 g-c--gray10",
                  "iconFile": "icon-mapfre_144_burial"
                },
                "tooltip": {
                  "iconTooltip": true,
                  "icon": "icon-mapfre_048_tooltip",
                  "iconClass": "g-font--25 g-font-md--21 g-c--green1",
                  "textArea": false,
                  "text": "",
                  "alignTooltip": "",
                  "addClass": "g-p--15",
                  "addClassTitle": "text-left",
                  "title": "Robo o hurto ",
                  "description": "Tanto el robo como el hurto implican el hecho de apoderarse de un bien ajeno, pero la diferencia estriba en que en el robo hay violencia, amenaza o fuerza para conseguir ese propósito.",
                  "link": {
                    "linkUrl": "",
                    "linkClass": "g-c--green1 g-pt--5 g-c--pointer",
                    "link": "¿Te han robado?"
                  }
                },
                "title1": {
                  "title1Class": "text-center",
                  "title1": "Servicio de Sepelio con Funeraria Finisterre"
                },
                "title2": false
              }
            ]
          }
        },
        {
          "boxClass": "g-b-radius-lg--5 g-box-lg--shadow2 g-p-lg--20 g-mt--20",
          "head": {
            "addClass": "text-center text-lg-left g-px--15 g-px-lg--0 g-pb--15",
            "title": false,
            "description": {
              "textClass": "g-font--medium g-text--uppercase",
              "text": "Otras coberturas"
            }
          },
          "icons": {
            "list": [
              {
                "addClass": "w-50 w-md-2-5  g-mb--20 ",
                "icon": {
                  "iconClass": "g-font--45 g-c--gray10",
                  "iconFile": "icon-mapfre_110_car_coverage"
                },
                "tooltip": {
                  "iconTooltip": true,
                  "icon": "icon-mapfre_048_tooltip",
                  "iconClass": "g-font--25 g-font-md--21 g-c--green1",
                  "textArea": false,
                  "text": "",
                  "alignTooltip": "",
                  "addClass": "g-p--15",
                  "addClassTitle": "text-left",
                  "title": "Robo o hurto ",
                  "description": "Tanto el robo como el hurto implican el hecho de apoderarse de un bien ajeno, pero la diferencia estriba en que en el robo hay violencia, amenaza o fuerza para conseguir ese propósito.",
                  "link": {
                    "linkUrl": "",
                    "linkClass": "g-c--green1 g-pt--5 g-c--pointer",
                    "link": "¿Te han robado?"
                  }
                },
                "title1": {
                  "title1Class": "text-center",
                  "title1": "Vehículo de reemplazo"
                },
                "title2": false
              },
              {
                "addClass": "w-50 w-md-2-5  g-mb--20 ",
                "icon": {
                  "iconClass": "g-font--45 g-c--gray10",
                  "iconFile": "icon-mapfre_109_person_coverage"
                },
                "tooltip": {
                  "iconTooltip": true,
                  "icon": "icon-mapfre_048_tooltip",
                  "iconClass": "g-font--25 g-font-md--21 g-c--green1",
                  "textArea": false,
                  "text": "",
                  "alignTooltip": "",
                  "addClass": "g-p--15",
                  "addClassTitle": "text-left",
                  "title": "Robo o hurto ",
                  "description": "Tanto el robo como el hurto implican el hecho de apoderarse de un bien ajeno, pero la diferencia estriba en que en el robo hay violencia, amenaza o fuerza para conseguir ese propósito.",
                  "link": {
                    "linkUrl": "",
                    "linkClass": "g-c--green1 g-pt--5 g-c--pointer",
                    "link": "¿Te han robado?"
                  }
                },
                "title1": {
                  "title1Class": "text-center",
                  "title1": "Chofer de reemplazo"
                },
                "title2": false
              },
              {
                "addClass": "w-50 w-md-2-5  g-mb--20 ",
                "icon": {
                  "iconClass": "g-font--45 g-c--gray10",
                  "iconFile": "icon-mapfre_137_car_crane"
                },
                "tooltip": {
                  "iconTooltip": true,
                  "icon": "icon-mapfre_048_tooltip",
                  "iconClass": "g-font--25 g-font-md--21 g-c--green1",
                  "textArea": false,
                  "text": "",
                  "alignTooltip": "",
                  "addClass": "g-p--15",
                  "addClassTitle": "text-left",
                  "title": "Robo o hurto ",
                  "description": "Tanto el robo como el hurto implican el hecho de apoderarse de un bien ajeno, pero la diferencia estriba en que en el robo hay violencia, amenaza o fuerza para conseguir ese propósito.",
                  "link": {
                    "linkUrl": "",
                    "linkClass": "g-c--green1 g-pt--5 g-c--pointer",
                    "link": "¿Te han robado?"
                  }
                },
                "title1": {
                  "title1Class": "text-center",
                  "title1": "Grúa y Auxilio Mecánico"
                },
                "title2": false
              },
              {
                "addClass": "w-50 w-md-2-5  g-mb--20 ",
                "icon": {
                  "iconClass": "g-font--45 g-c--gray10",
                  "iconFile": "icon-mapfre_105_money"
                },
                "tooltip": {
                  "iconTooltip": true,
                  "icon": "icon-mapfre_048_tooltip",
                  "iconClass": "g-font--25 g-font-md--21 g-c--green1",
                  "textArea": false,
                  "text": "",
                  "alignTooltip": "",
                  "addClass": "g-p--15",
                  "addClassTitle": "text-left",
                  "title": "Robo o hurto ",
                  "description": "Tanto el robo como el hurto implican el hecho de apoderarse de un bien ajeno, pero la diferencia estriba en que en el robo hay violencia, amenaza o fuerza para conseguir ese propósito.",
                  "link": {
                    "linkUrl": "",
                    "linkClass": "g-c--green1 g-pt--5 g-c--pointer",
                    "link": "¿Te han robado?"
                  }
                },
                "title1": {
                  "title1Class": "text-center",
                  "title1": "Indemnización por Robo dentro del Auto"
                },
                "title2": false
              }
            ]
          }
        },
        {
          "boxClass": "g-b-radius-lg--5 g-box-lg--shadow2 g-p-lg--20 g-mt--20",
          "head": {
            "addClass": "text-center text-lg-left g-px--15 g-px-lg--0 g-pb--15",
            "title": false,
            "description": {
              "textClass": "g-font--medium g-text--uppercase",
              "text": "Adicionales"
            }
          },
          "icons": {
            "list": [
              {
                "addClass": "w-50 w-md-2-5  g-mb--20 ",
                "icon": {
                  "iconClass": "g-font--45 g-c--gray10",
                  "iconFile": "icon-mapfre_106_crate"
                },
                "tooltip": {
                  "iconTooltip": true,
                  "icon": "icon-mapfre_048_tooltip",
                  "iconClass": "g-font--25 g-font-md--21 g-c--green1",
                  "textArea": false,
                  "text": "",
                  "alignTooltip": "",
                  "addClass": "g-p--15",
                  "addClassTitle": "text-left",
                  "title": "Robo o hurto ",
                  "description": "Tanto el robo como el hurto implican el hecho de apoderarse de un bien ajeno, pero la diferencia estriba en que en el robo hay violencia, amenaza o fuerza para conseguir ese propósito.",
                  "link": {
                    "linkUrl": "",
                    "linkClass": "g-c--green1 g-pt--5 g-c--pointer",
                    "link": "¿Te han robado?"
                  }
                },
                "title1": {
                  "title1Class": "text-center",
                  "title1": "Amparo de canasta familiar"
                },
                "title2": false
              },
              {
                "addClass": "w-50 w-md-2-5  g-mb--20 ",
                "icon": {
                  "iconClass": "g-font--45 g-c--gray10",
                  "iconFile": "icon-mapfre_115_book"
                },
                "tooltip": {
                  "iconTooltip": true,
                  "icon": "icon-mapfre_048_tooltip",
                  "iconClass": "g-font--25 g-font-md--21 g-c--green1",
                  "textArea": false,
                  "text": "",
                  "alignTooltip": "",
                  "addClass": "g-p--15",
                  "addClassTitle": "text-left",
                  "title": "Robo o hurto ",
                  "description": "Tanto el robo como el hurto implican el hecho de apoderarse de un bien ajeno, pero la diferencia estriba en que en el robo hay violencia, amenaza o fuerza para conseguir ese propósito.",
                  "link": {
                    "linkUrl": "",
                    "linkClass": "g-c--green1 g-pt--5 g-c--pointer",
                    "link": "¿Te han robado?"
                  }
                },
                "title1": {
                  "title1Class": "text-center",
                  "title1": "Amparo de renta educativa"
                },
                "title2": false
              },
              {
                "addClass": "w-50 w-md-2-5  g-mb--20 ",
                "icon": {
                  "iconClass": "g-font--45 g-c--gray10",
                  "iconFile": "icon-mapfre_140_world"
                },
                "tooltip": {
                  "iconTooltip": true,
                  "icon": "icon-mapfre_048_tooltip",
                  "iconClass": "g-font--25 g-font-md--21 g-c--green1",
                  "textArea": false,
                  "text": "",
                  "alignTooltip": "",
                  "addClass": "g-p--15",
                  "addClassTitle": "text-left",
                  "title": "Robo o hurto ",
                  "description": "Tanto el robo como el hurto implican el hecho de apoderarse de un bien ajeno, pero la diferencia estriba en que en el robo hay violencia, amenaza o fuerza para conseguir ese propósito.",
                  "link": {
                    "linkUrl": "",
                    "linkClass": "g-c--green1 g-pt--5 g-c--pointer",
                    "link": "¿Te han robado?"
                  }
                },
                "title1": {
                  "title1Class": "text-center",
                  "title1": "Cobertura Internacional"
                },
                "title2": false
              }
            ]
          }
        }
      ]
    }
  },
  "footerNav": {
    "boxHead": {
      "text": "¿QUÉ QUIERES HACER?",
      "class": "g-items-text g-font--14 g-font-md--18 g-text--uppercase text-center g-font--medium  g-pt--30  g-pb--15 "
    },
    "listNavIco": {
      "listNavIco": [
        {
          "icon": {
            "backgroundColor": "g-bg-c--green3",
            "iconName": "icon-mapfre_071_servicios",
            "iconSize": "g-font--45",
            "iconColor": "g-c--white1"
          },
          "title": "Reportar daño hogar"
        }
      ]
    },
    "listNavText": {
      "listOne": [
        {
          "boxClass": "g-p--15 g-bg-c--gray5",
          "navText": [
            {
              "text": "Modificar mis datos",
              "textClass": "w-100 g-font--medium",
              "iconRight": false
            },
            {
              "text": "",
              "textClass": "ml-auto",
              "iconRight": {
                "iconFile": "icon-mapfre_033_angle2-right",
                "iconClass": "g-font--10 g-font--bold"
              }
            }
          ]
        },
        {
          "boxClass": "g-p--15 g-bg-c--gray5",
          "navText": [
            {
              "text": "Contratar SCTR",
              "textClass": "w-100 g-font--medium",
              "iconRight": false
            },
            {
              "text": "",
              "textClass": "ml-auto",
              "iconRight": {
                "iconFile": "icon-mapfre_033_angle2-right",
                "iconClass": "g-font--10 g-font--bold"
              }
            }
          ]
        },
        {
          "boxClass": "g-p--15 g-bg-c--gray5",
          "navText": [
            {
              "text": "Hacer una reclamación",
              "textClass": "w-100 g-font--medium",
              "iconRight": false
            },
            {
              "text": "",
              "textClass": "ml-auto",
              "iconRight": {
                "iconFile": "icon-mapfre_033_angle2-right",
                "iconClass": "g-font--10 g-font--bold"
              }
            }
          ]
        }
      ]
    }
  }
}