{
  "htmlClass": "sg-main-none",
  "iconFile": "icon-mapfre_044_logo_landing ",
  "addClass": "g-font--40",
  "acordion": [
    {
      "classAccordion": "g-bg-c--gray8 g-c--gray10 g-pt--5",
      "dataGroup": "true",
      "item": [
        {
          "dataOpen": "true",
          "itemClass": "",
          "titleClass": "",
          "boxClass": "",
          "clickClass": "g-pl--20 g-pr--15 g-py--10",
          "icon": {
            "iconFile": "icon-mapfre_022_car2",
            "iconClass": " g-px--15  g-font--20 "
          },
          "arrow": {
            "clickOn": {
              "iconFile": "icon-mapfre_101_ico-dow",
              "iconClass": "g-font--10 g-c-pointer g-c--white1"
            },
            "clickOff": {
              "iconFile": "icon-mapfre_102_ico-up",
              "iconClass": "g-c--pointer g-font--10"
            }
          },
          "textClass": "g-text--uppercase g-font--bold",
          "text": "VEHÍCULOS",
          "contentClass": "",
          "content": false,
          "list": [
            {
              "iconFile": "",
              "text": "Seguro Vehicular"
            },
            {
              "iconFile": "",
              "text": "SOAT"
            },
            {
              "iconFile": "",
              "text": "Accidentes"
            },
            {
              "text": "Robo"
            },
            {
              "text": "Talleres"
            },
            {
              "text": "Cotización"
            }
          ],
          "classContent": "g-hover-nav g-font--12"
        },
        {
          "dataOpen": "",
          "itemClass": "",
          "titleClass": "",
          "boxClass": "",
          "clickClass": "g-pl--20 g-pr--15 g-py--10",
          "icon": {
            "iconFile": "icon-mapfre_023_cross2",
            "iconClass": " g-px--15  g-font--20 "
          },
          "arrow": {
            "clickOn": {
              "iconFile": "icon-mapfre_101_ico-dow",
              "iconClass": "g-font--10 g-c-pointer g-c--white1"
            },
            "clickOff": {
              "iconFile": "icon-mapfre_102_ico-up",
              "iconClass": "g-c--pointer g-font--10"
            }
          },
          "textClass": "g-text--uppercase g-font--bold",
          "text": "SALUD",
          "contentClass": "",
          "content": false,
          "list": [
            {
              "iconFile": "",
              "text": "Seguro Vehicular"
            },
            {
              "iconFile": "",
              "text": "SOAT"
            },
            {
              "iconFile": "",
              "text": "Accidentes"
            },
            {
              "text": "Robo"
            },
            {
              "text": "Talleres"
            },
            {
              "text": "Cotización"
            }
          ],
          "classContent": "g-hover-nav"
        },
        {
          "dataOpen": "",
          "itemClass": "",
          "titleClass": "",
          "boxClass": "",
          "clickClass": "g-pl--20 g-pr--15 g-py--10",
          "icon": {
            "iconFile": "icon-mapfre_024_house2",
            "iconClass": " g-px--15  g-font--20 "
          },
          "arrow": {
            "clickOn": {
              "iconFile": "icon-mapfre_101_ico-dow",
              "iconClass": "g-font--10 g-c-pointer g-c--white1"
            },
            "clickOff": {
              "iconFile": "icon-mapfre_102_ico-up",
              "iconClass": "g-c--pointer"
            }
          },
          "textClass": "g-text--uppercase g-font--bold",
          "text": "HOGAR",
          "contentClass": "",
          "content": false,
          "list": [
            {
              "iconFile": "",
              "text": "Seguro Vehicular"
            },
            {
              "iconFile": "",
              "text": "SOAT"
            },
            {
              "iconFile": "",
              "text": "Accidentes"
            },
            {
              "text": "Robo"
            },
            {
              "text": "Talleres"
            },
            {
              "text": "Cotización"
            }
          ],
          "classContent": "g-hover-nav"
        },
        {
          "dataOpen": "",
          "itemClass": "",
          "titleClass": "",
          "boxClass": "",
          "clickClass": "g-pl--20 g-pr--15 g-py--10",
          "icon": {
            "iconFile": "icon-mapfre_025_heart2",
            "iconClass": " g-px--15  g-font--20 "
          },
          "arrow": {
            "clickOn": {
              "iconFile": "icon-mapfre_101_ico-dow",
              "iconClass": "g-font--10 g-c-pointer g-c--white1"
            },
            "clickOff": {
              "iconFile": "icon-mapfre_102_ico-up",
              "iconClass": "g-c--pointer"
            }
          },
          "textClass": "g-text--uppercase g-font--bold",
          "text": "VIDA Y AHORROS",
          "contentClass": "",
          "content": false,
          "list": [
            {
              "iconFile": "",
              "text": "Seguro Vehicular"
            },
            {
              "iconFile": "",
              "text": "SOAT"
            },
            {
              "iconFile": "",
              "text": "Accidentes"
            },
            {
              "text": "Robo"
            },
            {
              "text": "Talleres"
            },
            {
              "text": "Cotización"
            }
          ],
          "classContent": "g-hover-nav"
        },
        {
          "dataOpen": "",
          "itemClass": "",
          "titleClass": "",
          "boxClass": "",
          "clickClass": "g-pl--20 g-pr--15 g-py--10",
          "icon": {
            "iconFile": "icon-mapfre_026_decesos",
            "iconClass": " g-px--15  g-font--20 "
          },
          "arrow": false,
          "textClass": "g-text--uppercase g-font--bold",
          "text": "DECESOS",
          "contentClass": "",
          "content": false,
          "classContent": "g-hover-nav"
        },
        {
          "dataOpen": "",
          "itemClass": "",
          "titleClass": "",
          "boxClass": "",
          "clickClass": "g-pl--20 g-pr--15 g-py--10",
          "icon": {
            "iconFile": "icon-mapfre_027_box",
            "iconClass": " g-px--15  g-font--20 "
          },
          "arrow": false,
          "textClass": "g-text--uppercase g-font--bold",
          "text": "SERVICIOS MAPFRE",
          "contentClass": "",
          "content": false,
          "classContent": "g-hover-nav"
        },
        {
          "dataOpen": "",
          "itemClass": "",
          "titleClass": "",
          "boxClass": "",
          "clickClass": "g-pl--20 g-pr--15 g-py--10",
          "icon": {
            "iconFile": "icon-mapfre_028_pagos",
            "iconClass": " g-px--15  g-font--20 "
          },
          "arrow": false,
          "textClass": "g-text--uppercase g-font--bold",
          "text": "Mis Pagos",
          "contentClass": "",
          "content": false,
          "classContent": "g-hover-nav"
        },
        {
          "dataOpen": "",
          "itemClass": "",
          "titleClass": "",
          "boxClass": "",
          "clickClass": "g-pl--20 g-pr--15 g-py--10",
          "icon": {
            "iconFile": "icon-mapfre_029_location-pin2",
            "iconClass": " g-px--15  g-font--20 "
          },
          "arrow": false,
          "textClass": "g-text--uppercase g-font--bold",
          "text": "Red de Oficinas",
          "contentClass": "",
          "content": false,
          "classContent": "g-hover-nav"
        }
      ]
    }
  ],
  "list-btn": [
    {
      "iconFile": "icon-mapfre_030_call",
      "addClass": "g-font--30"
    },
    {
      "iconFile": "icon-mapfre_031_qanda",
      "addClass": "g-font--30"
    }
  ],
  "headerOIM": {
    "icoNav": {
      "iconFile": "icon-mapfre_047_bars",
      "addClass": "g-font--30",
      "iconFileOIM": "icon-mapfre_044_logo_landing ",
      "addClassOIM": "g-font--30"
    },
    "headOimMobile": {
      "llamada": "SEGURO VEHICULAR",
      "bajada": "COMPARADOR",
      "iconFile": "icon-mapfre_044_logo_landing ",
      "addClass": "g-font--30",
      "icoBack": {
        "icon": "icon-mapfre_010_arrow-left",
        "addClass": "g-items-icon g-c--gray3 g-font--25 g-font-md--21"
      }
    },
    "datos": {
      "icoCircle": "icon-mapfre_066_circle",
      "sizeCircle": "g-font--40 g-c--gray1",
      "icoUser": "icon-mapfre_037_user",
      "addClass": "g-c--white1 g-ico--center g-font--20",
      "tittle": "MIS NOTIFICACIONES",
      "icoAlert": "icon-mapfre_036_notification",
      "icoClose": "icon-mapfre_049_close2",
      "sizeClose": "g-font--40",
      "nameUser": "Hola <b>Gonzalo!</b>",
      "numb": 3,
      "alertBadge": {
        "icoCircle": "icon-mapfre_066_circle",
        "addClass": "g-font--30 g-c--green1",
        "addClassNum": "g-ico--center g-font--11 g-c--white1"
      },
      "list": [
        {
          "tipo": "Mi prefil"
        },
        {
          "tipo": "Cerrar sesión"
        }
      ]
    },
    "alert": {
      "ico": "icon-mapfre_014_perfil",
      "icoCircle": "icon-mapfre_066_circle",
      "sizeCircle": "g-font--40 g-c--gray1",
      "addClass": "g-c--white1 g-ico--center g-font--20",
      "tittle": "MIS NOTIFICACIONES",
      "icoAlert": "icon-mapfre_036_notification",
      "icoClose": "icon-mapfre_049_close2",
      "sizeClose": "g-font--40",
      "numb": 3,
      "alertBadge": {
        "icoCircle": "icon-mapfre_066_circle",
        "addClass": "g-font--30 g-c--green1",
        "addClassNum": "g-ico--center g-font--11 g-c--white1"
      },
      "list": [
        {
          "ico-drow": "icon-mapfre_057_circle-check",
          "fech": "HOY 10:23am",
          "tipo": "Solicitud de chofer de reemplazo confirmada",
          "desc": "Seguro vehicular"
        },
        {
          "ico-drow": "icon-mapfre_049_close2",
          "fech": "HOY 10:23am",
          "tipo": "Solicitud de auxilio mecánico cancelada",
          "desc": "Seguro vehicular"
        },
        {
          "ico-drow": "icon-mapfre_057_circle-check",
          "fech": "HOY 10:23am",
          "tipo": "Solicitud de auxilio mecánico cancelada",
          "desc": "Seguro vehicular"
        },
        {
          "ico-drow": "icon-mapfre_049_close2",
          "fech": "HOY 10:23am",
          "tipo": "Solicitud de auxilio mecánico cancelada",
          "desc": "Seguro vehicular"
        },
        {
          "ico-drow": "icon-mapfre_057_circle-check",
          "fech": "HOY 10:23am",
          "tipo": "Solicitud de auxilio mecánico cancelada",
          "desc": "Seguro vehicular"
        },
        {
          "ico-drow": "icon-mapfre_062_reloj",
          "fech": "HOY 10:23am",
          "tipo": "Solicitud de auxilio mecánico cancelada",
          "desc": "Seguro vehicular"
        },
        {
          "ico-drow": "icon-mapfre_049_close2",
          "fech": "HOY 10:23am",
          "tipo": "Solicitud de auxilio mecánico cancelada",
          "desc": "Seguro vehicular"
        }
      ]
    }
  },
  "steps": {
    "stepsClass": "g-pt-lg--40 g-pt--20 g-pb--20 g-px--20 g-px-lg--0",
    "stepsItems": [
      {
        "active": "active active--last",
        "numberClass": "g-font--normal g-font-lg--medium g-font--12 g-font-lg--14 g-c--white1",
        "number": "1",
        "textClass": "g-font--13 g-font-lg--14 g-pt--10 g-font--light",
        "text": "VEHÍCULO",
        "subtitleClass": "g-font--13 g-font--light",
        "subtitle": false
      },
      {
        "active": "",
        "numberClass": "g-font--normal g-font-lg--medium g-font--12 g-font-lg--14 g-c--white1",
        "number": "2",
        "textClass": "g-font--13 g-font-lg--14 g-pt--10 g-font--light",
        "text": "COTIZACIÓN",
        "subtitleClass": "g-font--13 g-font--light",
        "subtitle": false
      }
    ]
  },
  "titleHeader": {
    "classTitle": "mx-auto g-font--14 g-font-lg--30 g-font--bold",
    "title": "Escoge tu seguro",
    "classDes": "",
    "description": ""
  },
  "headTables": {
    "classCoberturas": " d-none d-lg-block ",
    "coberturas": "coberturas",
    "tdHead": [
      {
        "tdHeadClass": "",
        "destacado": false,
        "contentRadio": false,
        "title": "Daño total",
        "cuotas": [
          {
            "addClass": "g-form-focus",
            "listOption": [
              {
                "value": "12 CUOTAS MENSUALES"
              },
              {
                "value": "24 CUOTAS MENSUALES"
              },
              {
                "value": "36 CUOTAS MENSUALES"
              }
            ],
            "label": "CUOTAS"
          }
        ],
        "price": {
          "typeMoney": "S/",
          "price": "85"
        },
        "text1": {
          "textClass": "mx-auto g-font--medium g-font--13",
          "text": "Valor mensual"
        },
        "text2": {
          "textClass": "mx-auto g-c--green1 g-font--medium g-font--13 g-c--pointer g-pb--10",
          "text": "&nbsp;"
        },
        "btn": {
          "addClass" : "g-btn-outline w-10 g-text--uppercase",
          "data" : "",
          "text" : "Comprar",
          "onclick" : ""
        }
      },
      {
        "tdHeadClass": "d-none d-lg-block",
        "destacado": {
          "colorpoliza": "g-bg-c--green1 ",
          "poliza": "¡Te recomendamos!",
          "classDestacado": "g-float--arrow-bottom--green1"
        },
        "contentRadio": {
          "radio": [
            {
              "classRadio": "d-flex align-items-center g-pr--10",
              "idradio": "radioCard",
              "label": {
                "label": "1 año"
              }
            },
            {
              "classRadio": "d-flex align-items-center g-pr--10",
              "idradio": "radioCard",
              "label": {
                "label": "2 año"
              }
            }
          ],
          "tooltip": {
            "iconTooltip": true,
            "icon": "icon-mapfre_048_tooltip",
            "iconClass": "g-font--25 g-font-md--21 g-c--green1 g-c--pointer g-mb--10",
            "textArea": false,
            "text": "",
            "alignTooltip": "g-tooltip--alternative-message--left",
            "addClass": "g-p--15",
            "addClassTitle": "text-left",
            "title": "Contrata por 2 años y recibe:",
            "description": "<span class='icon-mapfre_003_checkg-c--green1'></span> Soat gratis por los dos años <br> <span class='icon-mapfre_003_checkg-c--green1'></span> Bono de $1,000 en caso de pérdida total <br> <span class='icon-mapfre_003_checkg-c--green1'></span> Financiamiento a 12 cuotas sin intereses",
            "link": {
              "linkUrl": "",
              "linkClass": "g-c--green1 g-pt--5 g-c--pointer d-none",
              "link": ""
            }
          }
        },
        "title": "Full Cobertura Premium",
        "cuotas": [
          {
            "addClass": "g-form-focus",
            "listOption": [
              {
                "value": "12 CUOTAS MENSUALES"
              },
              {
                "value": "24 CUOTAS MENSUALES"
              },
              {
                "value": "36 CUOTAS MENSUALES"
              }
            ],
            "label": "CUOTAS"
          }
        ],
        "price": {
          "typeMoney": "S/",
          "price": "120"
        },
        "text1": {
          "textClass": "mx-auto g-font--medium g-font--13",
          "text": "Valor mensual"
        },
        "text2": {
          "textClass": "mx-auto g-c--green1 g-font--medium g-font--13 g-c--pointer g-pb--10",
          "text": "Cambiarme a esta modalidad"
        },
        "btn": {
          "addClass" : "w-10 g-text--uppercase",
          "data" : "",
          "text" : "Comprar",
          "onclick" : ""
        }
      },
      {
        "tdHeadClass": "d-none d-lg-block",
        "destacado": false,
        "contentRadio": false,
        "title": "Full cobertura",
        "cuotas": [
          {
            "addClass": "g-form-focus",
            "listOption": [
              {
                "value": "12 CUOTAS MENSUALES"
              },
              {
                "value": "24 CUOTAS MENSUALES"
              },
              {
                "value": "36 CUOTAS MENSUALES"
              }
            ],
            "label": "CUOTAS"
          }
        ],
        "price": {
          "typeMoney": "S/",
          "price": "105"
        },
        "text1": {
          "textClass": "mx-auto g-font--medium g-font--13",
          "text": "Valor mensual"
        },
        "text2": {
          "textClass": "mx-auto g-c--green1 g-font--medium g-font--13 g-c--pointer g-pb--10",
          "text": "Cambiarme a esta modalidad"
        },
        "btn": {
          "addClass" : "g-btn-outline w-10 g-text--uppercase",
          "data" : "",
          "text" : "Comprar",
          "onclick" : ""
        }
      }
    ]
  },
  "contentDropdown": {
    "addClass": "dropdown-resp d-flex align-items-center justify-content-between g-bg-c--gray7 g-p--15 d-lg-none d-block",
    "titleClass": "g-font--medium ",
    "title": "COBERTURAS",
    "dropdown": {
      "iconClass": "g-c--pointer",
      "icon": "icon-mapfre_101_ico-dow"
    }
  },
  "contentTabs": [
    {
      "addClass": "d-flex w-100",
      "tdContent": [
        {
          "tdClass": "g-px--10 g-py--20 w-50 g-w-lg-25 d-flex",
          "contentClass1": "g-px-lg--10",
          "tooltip": {
            "iconTooltip": true,
            "icon": "icon-mapfre_048_tooltip",
            "iconClass": "g-font--25 g-font-md--21 g-c--green1 g-c--pointer",
            "textArea": false,
            "text": "",
            "alignTooltip": "g-tooltip--alternative-message--left",
            "addClass": "g-p--15",
            "addClassTitle": "text-left",
            "title": "Titulo ",
            "description": "Lorem ipsum dolor, sit amet consectetur adipisicing elit. Et perferendis harum veritatis aperiam non voluptas provident ducimus cumque vel, cum enim, error voluptate. Suscipit non dolore maxime iusto magni quod.",
            "link": {
              "linkUrl": "",
              "linkClass": "g-c--green1 g-pt--5 g-c--pointer d-none",
              "link": ""
            }
          },
          "titleClass": "g-font--medium g-font--16",
          "title": "Choque y robo parcial",
          "subtitle": false,
          "desplegable": {
            "contentClass": "",
            "textClass": "g-c--green1 align-items-center",
            "text": "Ver deducibles",
            "icono": {
              "iconClass": "g-pl--5 ",
              "icon": "icon-mapfre_004_triangle-down"
            }
          }
        },
        {
          "tdClass": "d-flex g-p--20 w-50 g-w-lg-25 g-bl--1 g-bc--gray12",
          "contentClass1": "g-pr-lg--5",
          "icon": {
            "icon": "icon-mapfre_003_check",
            "iconClass": ""
          },
          "title": "Solos rotura accidental de lunas",
          "subtitle": false,
          "desplegable": false
        },
        {
          "tdClass": "g-p--20 w-50 g-w-lg-25 g-bl--1 g-bc--gray12 d-none d-lg-flex",
          "contentClass1": "g-pr-lg--5",
          "icon": {
            "icon": "icon-mapfre_003_check",
            "iconClass": ""
          },
          "title": "$ 21,000",
          "subtitle": false,
          "desplegable": false
        },
        {
          "tdClass": "g-p--20 w-50 g-w-lg-25 g-bl--1 g-bc--gray12 d-none d-lg-flex",
          "contentClass1": "g-pr-lg--5",
          "icon": {
            "icon": "icon-mapfre_003_check",
            "iconClass": ""
          },
          "title": "$ 15,000",
          "subtitle": false,
          "desplegable": false
        }
      ]
    },
    {
      "addClass": "d-flex w-100",
      "tdContent": [
        {
          "tdClass": "g-px--10 g-py--20 w-50 g-w-lg-25 d-flex",
          "contentClass1": "g-px-lg--10",
          "tooltip": {
            "iconTooltip": true,
            "icon": "icon-mapfre_048_tooltip",
            "iconClass": "g-font--25 g-font-md--21 g-c--green1 g-c--pointer",
            "textArea": false,
            "text": "",
            "alignTooltip": "g-tooltip--alternative-message--left",
            "addClass": "g-p--15",
            "addClassTitle": "text-left",
            "title": "Titulo ",
            "description": "Lorem ipsum dolor, sit amet consectetur adipisicing elit. Et perferendis harum veritatis aperiam non voluptas provident ducimus cumque vel, cum enim, error voluptate. Suscipit non dolore maxime iusto magni quod.",
            "link": {
              "linkUrl": "",
              "linkClass": "g-c--green1 g-pt--5 g-c--pointer d-none",
              "link": ""
            }
          },
          "titleClass": "g-font--medium g-font--16",
          "title": "Perdida total por choque y robo",
          "subtitle": false,
          "desplegable": {
            "contentClass": "",
            "textClass": "g-c--green1 align-items-center",
            "text": "Ver deducibles",
            "icono": {
              "iconClass": "g-pl--5 ",
              "icon": "icon-mapfre_004_triangle-down"
            }
          }
        },
        {
          "tdClass": "d-flex g-p--20 w-50 g-w-lg-25 g-bl--1 g-bc--gray12",
          "contentClass1": "g-pr-lg--5",
          "icon": {
            "icon": "icon-mapfre_003_check",
            "iconClass": ""
          },
          "title": "$ 10,000",
          "subtitle": {
            "textClass": "g-f--h g-font--light",
            "text": "Aplica depreciación"
          },
          "desplegable": false
        },
        {
          "tdClass": "g-p--20 w-50 g-w-lg-25 g-bl--1 g-bc--gray12 d-none d-lg-flex",
          "contentClass1": "g-pr-lg--5",
          "icon": {
            "icon": "icon-mapfre_003_check",
            "iconClass": ""
          },
          "title": "$ 21,000",
          "subtitle": false,
          "desplegable": false
        },
        {
          "tdClass": "g-p--20 w-50 g-w-lg-25 g-bl--1 g-bc--gray12 d-none d-lg-flex",
          "contentClass1": "g-pr-lg--5",
          "icon": {
            "icon": "icon-mapfre_003_check",
            "iconClass": ""
          },
          "title": "$ 17,585",
          "subtitle": {
            "textClass": "g-f--h g-font--light",
            "text": "Aplica depreciación"
          },
          "desplegable": false
        }
      ]
    },
    {
      "addClass": "d-flex w-100",
      "tdContent": [
        {
          "tdClass": "g-px--10 g-py--20 w-50 g-w-lg-25 d-flex",
          "contentClass1": "g-px-lg--10",
          "tooltip": {
            "iconTooltip": true,
            "icon": "icon-mapfre_048_tooltip",
            "iconClass": "g-font--25 g-font-md--21 g-c--green1 g-c--pointer",
            "textArea": false,
            "text": "",
            "alignTooltip": "g-tooltip--alternative-message--left",
            "addClass": "g-p--15",
            "addClassTitle": "text-left",
            "title": "Titulo ",
            "description": "Lorem ipsum dolor, sit amet consectetur adipisicing elit. Et perferendis harum veritatis aperiam non voluptas provident ducimus cumque vel, cum enim, error voluptate. Suscipit non dolore maxime iusto magni quod.",
            "link": {
              "linkUrl": "",
              "linkClass": "g-c--green1 g-pt--5 g-c--pointer d-none",
              "link": ""
            }
          },
          "titleClass": "g-font--medium g-font--16",
          "title": "Chofer de reemplazo (sólo Lima)",
          "subtitle": false,
          "desplegable": {
            "contentClass": "",
            "textClass": "g-c--green1 align-items-center",
            "text": "Ver deducibles",
            "icono": {
              "iconClass": "g-pl--5 ",
              "icon": "icon-mapfre_004_triangle-down"
            }
          }
        },
        {
          "tdClass": "d-flex g-p--20 w-50 g-w-lg-25 g-bl--1 g-bc--gray12",
          "contentClass1": "g-pr-lg--5",
          "icon": {
            "icon": "icon-mapfre_003_check",
            "iconClass": ""
          },
          "title": "3 veces al año",
          "subtitle": false,
          "desplegable": false
        },
        {
          "tdClass": "g-p--20 w-50 g-w-lg-25 g-bl--1 g-bc--gray12 d-none d-lg-flex",
          "contentClass1": "g-pr-lg--5",
          "icon": {
            "icon": "icon-mapfre_003_check",
            "iconClass": ""
          },
          "title": "Ilimitado",
          "subtitle": false,
          "desplegable": false
        },
        {
          "tdClass": "g-p--20 w-50 g-w-lg-25 g-bl--1 g-bc--gray12 d-none d-lg-flex",
          "contentClass1": "g-pr-lg--5",
          "icon": {
            "icon": "icon-mapfre_003_check",
            "iconClass": ""
          },
          "title": "Ilimitado",
          "subtitle": false,
          "desplegable": false
        }
      ]
    },
    {
      "addClass": "d-flex w-100",
      "tdContent": [
        {
          "tdClass": "g-px--10 g-py--20 w-50 g-w-lg-25 d-flex",
          "contentClass1": "g-px-lg--10",
          "tooltip": {
            "iconTooltip": true,
            "icon": "icon-mapfre_048_tooltip",
            "iconClass": "g-font--25 g-font-md--21 g-c--green1 g-c--pointer",
            "textArea": false,
            "text": "",
            "alignTooltip": "g-tooltip--alternative-message--left",
            "addClass": "g-p--15",
            "addClassTitle": "text-left",
            "title": "Titulo ",
            "description": "Lorem ipsum dolor, sit amet consectetur adipisicing elit. Et perferendis harum veritatis aperiam non voluptas provident ducimus cumque vel, cum enim, error voluptate. Suscipit non dolore maxime iusto magni quod.",
            "link": {
              "linkUrl": "",
              "linkClass": "g-c--green1 g-pt--5 g-c--pointer d-none",
              "link": ""
            }
          },
          "titleClass": "g-font--medium g-font--16",
          "title": "Vehículo de reemplazo (sólo Lima)",
          "subtitle": false,
          "desplegable": {
            "contentClass": "",
            "textClass": "g-c--green1 align-items-center",
            "text": "Ver deducibles",
            "icono": {
              "iconClass": "g-pl--5 ",
              "icon": "icon-mapfre_004_triangle-down"
            }
          }
        },
        {
          "tdClass": "d-flex g-p--20 w-50 g-w-lg-25 g-bl--1 g-bc--gray12",
          "contentClass1": "g-pr-lg--5",
          "icon": {
            "icon": "",
            "iconClass": ""
          },
          "title": "",
          "subtitle": false,
          "desplegable": false
        },
        {
          "tdClass": "g-p--20 w-50 g-w-lg-25 g-bl--1 g-bc--gray12 d-none d-lg-flex",
          "contentClass1": "g-pr-lg--5",
          "icon": {
            "icon": "icon-mapfre_003_check",
            "iconClass": ""
          },
          "title": "15 días por choque y 30 por robo",
          "subtitle": false,
          "desplegable": false
        },
        {
          "tdClass": "g-p--20 w-50 g-w-lg-25 g-bl--1 g-bc--gray12 d-none d-lg-flex",
          "contentClass1": "g-pr-lg--5",
          "icon": {
            "icon": "icon-mapfre_003_check",
            "iconClass": ""
          },
          "title": "15 días por choque y 30 por robo",
          "subtitle": false,
          "desplegable": false
        }
      ]
    },
    {
      "addClass": "d-flex w-100",
      "tdContent": [
        {
          "tdClass": "g-px--10 g-py--20 w-50 g-w-lg-25 d-flex",
          "contentClass1": "g-px-lg--10",
          "tooltip": {
            "iconTooltip": true,
            "icon": "icon-mapfre_048_tooltip",
            "iconClass": "g-font--25 g-font-md--21 g-c--green1 g-c--pointer",
            "textArea": false,
            "text": "",
            "alignTooltip": "g-tooltip--alternative-message--left",
            "addClass": "g-p--15",
            "addClassTitle": "text-left",
            "title": "Titulo ",
            "description": "Lorem ipsum dolor, sit amet consectetur adipisicing elit. Et perferendis harum veritatis aperiam non voluptas provident ducimus cumque vel, cum enim, error voluptate. Suscipit non dolore maxime iusto magni quod.",
            "link": {
              "linkUrl": "",
              "linkClass": "g-c--green1 g-pt--5 g-c--pointer d-none",
              "link": ""
            }
          },
          "titleClass": "g-font--medium g-font--16",
          "title": "Grúa y Auxilio Mecánico",
          "subtitle": false,
          "desplegable": false
        },
        {
          "tdClass": "d-flex g-p--20 w-50 g-w-lg-25 g-bl--1 g-bc--gray12",
          "contentClass1": "g-pr-lg--5",
          "icon": {
            "icon": "icon-mapfre_003_check",
            "iconClass": ""
          },
          "title": "2 servicios mensuales",
          "subtitle": false,
          "desplegable": false
        },
        {
          "tdClass": "g-p--20 w-50 g-w-lg-25 g-bl--1 g-bc--gray12 d-none d-lg-flex",
          "contentClass1": "g-pr-lg--5",
          "icon": {
            "icon": "icon-mapfre_003_check",
            "iconClass": ""
          },
          "title": "2 servicios mensuales",
          "subtitle": false,
          "desplegable": false
        },
        {
          "tdClass": "g-p--20 w-50 g-w-lg-25 g-bl--1 g-bc--gray12 d-none d-lg-flex",
          "contentClass1": "g-pr-lg--5",
          "icon": {
            "icon": "icon-mapfre_003_check",
            "iconClass": ""
          },
          "title": "2 servicios mensuales",
          "subtitle": false,
          "desplegable": false
        }
      ]
    },
    {
      "addClass": "d-flex w-100",
      "tdContent": [
        {
          "tdClass": "g-px--10 g-py--20 w-50 g-w-lg-25 d-flex",
          "contentClass1": "g-px-lg--10",
          "tooltip": {
            "iconTooltip": true,
            "icon": "icon-mapfre_048_tooltip",
            "iconClass": "g-font--25 g-font-md--21 g-c--green1 g-c--pointer",
            "textArea": false,
            "text": "",
            "alignTooltip": "g-tooltip--alternative-message--left",
            "addClass": "g-p--15",
            "addClassTitle": "text-left",
            "title": "Titulo ",
            "description": "Lorem ipsum dolor, sit amet consectetur adipisicing elit. Et perferendis harum veritatis aperiam non voluptas provident ducimus cumque vel, cum enim, error voluptate. Suscipit non dolore maxime iusto magni quod.",
            "link": {
              "linkUrl": "",
              "linkClass": "g-c--green1 g-pt--5 g-c--pointer d-none",
              "link": ""
            }
          },
          "titleClass": "g-font--medium g-font--16",
          "title": "Daños a ocupantes del vehículo",
          "subtitle": false,
          "desplegable": {
            "contentClass": "",
            "textClass": "g-c--green1 align-items-center",
            "text": "Ver deducibles",
            "icono": {
              "iconClass": "g-pl--5 ",
              "icon": "icon-mapfre_004_triangle-down"
            }
          }
        },
        {
          "tdClass": "d-flex g-p--20 w-50 g-w-lg-25 g-bl--1 g-bc--gray12",
          "contentClass1": "g-pr-lg--5",
          "icon": {
            "icon": "icon-mapfre_003_check",
            "iconClass": ""
          },
          "title": "Hasta $50,000",
          "subtitle": false,
          "desplegable": false
        },
        {
          "tdClass": "g-p--20 w-50 g-w-lg-25 g-bl--1 g-bc--gray12 d-none d-lg-flex",
          "contentClass1": "g-pr-lg--5",
          "icon": {
            "icon": "icon-mapfre_003_check",
            "iconClass": ""
          },
          "title": "Hasta $50,000",
          "subtitle": false,
          "desplegable": false
        },
        {
          "tdClass": "g-p--20 w-50 g-w-lg-25 g-bl--1 g-bc--gray12 d-none d-lg-flex",
          "contentClass1": "g-pr-lg--5",
          "icon": {
            "icon": "icon-mapfre_003_check",
            "iconClass": ""
          },
          "title": "Hasta $30,000",
          "subtitle": false,
          "desplegable": false
        }
      ]
    },
    {
      "addClass": "d-flex w-100",
      "tdContent": [
        {
          "tdClass": "g-px--10 g-py--20 w-50 g-w-lg-25 d-flex",
          "contentClass1": "g-px-lg--10",
          "tooltip": {
            "iconTooltip": true,
            "icon": "icon-mapfre_048_tooltip",
            "iconClass": "g-font--25 g-font-md--21 g-c--green1 g-c--pointer",
            "textArea": false,
            "text": "",
            "alignTooltip": "g-tooltip--alternative-message--left",
            "addClass": "g-p--15",
            "addClassTitle": "text-left",
            "title": "Titulo ",
            "description": "Lorem ipsum dolor, sit amet consectetur adipisicing elit. Et perferendis harum veritatis aperiam non voluptas provident ducimus cumque vel, cum enim, error voluptate. Suscipit non dolore maxime iusto magni quod.",
            "link": {
              "linkUrl": "",
              "linkClass": "g-c--green1 g-pt--5 g-c--pointer d-none",
              "link": ""
            }
          },
          "titleClass": "g-font--medium g-font--16",
          "title": "Daños a Terceros (Personales y/o Materiales)",
          "subtitle": false,
          "desplegable": {
            "contentClass": "",
            "textClass": "g-c--green1 align-items-center",
            "text": "Ver deducibles",
            "icono": {
              "iconClass": "g-pl--5 ",
              "icon": "icon-mapfre_004_triangle-down"
            }
          }
        },
        {
          "tdClass": "d-flex g-p--20 w-50 g-w-lg-25 g-bl--1 g-bc--gray12",
          "contentClass1": "g-pr-lg--5",
          "icon": {
            "icon": "icon-mapfre_003_check",
            "iconClass": ""
          },
          "title": "Hasta $ 150,000",
          "subtitle": false,
          "desplegable": false
        },
        {
          "tdClass": "g-p--20 w-50 g-w-lg-25 g-bl--1 g-bc--gray12 d-none d-lg-flex",
          "contentClass1": "g-pr-lg--5",
          "icon": {
            "icon": "icon-mapfre_003_check",
            "iconClass": ""
          },
          "title": "Hasta $ 150,000",
          "subtitle": false,
          "desplegable": false
        },
        {
          "tdClass": "g-p--20 w-50 g-w-lg-25 g-bl--1 g-bc--gray12 d-none d-lg-flex",
          "contentClass1": "g-pr-lg--5",
          "icon": {
            "icon": "icon-mapfre_003_check",
            "iconClass": ""
          },
          "title": "Hasta $ 100,000",
          "subtitle": false,
          "desplegable": false
        }
      ]
    },
    {
      "addClass": "d-flex w-100",
      "tdContent": [
        {
          "tdClass": "g-px--10 g-py--20 w-50 g-w-lg-25 d-flex",
          "contentClass1": "g-px-lg--10",
          "tooltip": {
            "iconTooltip": true,
            "icon": "icon-mapfre_048_tooltip",
            "iconClass": "g-font--25 g-font-md--21 g-c--green1 g-c--pointer",
            "textArea": false,
            "text": "",
            "alignTooltip": "g-tooltip--alternative-message--left",
            "addClass": "g-p--15",
            "addClassTitle": "text-left",
            "title": "Titulo ",
            "description": "Lorem ipsum dolor, sit amet consectetur adipisicing elit. Et perferendis harum veritatis aperiam non voluptas provident ducimus cumque vel, cum enim, error voluptate. Suscipit non dolore maxime iusto magni quod.",
            "link": {
              "linkUrl": "",
              "linkClass": "g-c--green1 g-pt--5 g-c--pointer d-none",
              "link": ""
            }
          },
          "titleClass": "g-font--medium g-font--16",
          "title": "Daños a Terceros (Personales y/o Materiales)",
          "subtitle": false,
          "desplegable": {
            "contentClass": "",
            "textClass": "g-c--green1 align-items-center",
            "text": "Ver deducibles",
            "icono": {
              "iconClass": "g-pl--5 ",
              "icon": "icon-mapfre_004_triangle-down"
            }
          }
        },
        {
          "tdClass": "d-flex g-p--20 w-50 g-w-lg-25 g-bl--1 g-bc--gray12",
          "contentClass1": "g-pr-lg--5",
          "icon": {
            "icon": "icon-mapfre_003_check",
            "iconClass": ""
          },
          "title": "Hasta $ 150,000",
          "subtitle": false,
          "desplegable": false
        },
        {
          "tdClass": "g-p--20 w-50 g-w-lg-25 g-bl--1 g-bc--gray12 d-none d-lg-flex",
          "contentClass1": "g-pr-lg--5",
          "icon": {
            "icon": "icon-mapfre_003_check",
            "iconClass": ""
          },
          "title": "Hasta $ 150,000",
          "subtitle": false,
          "desplegable": false
        },
        {
          "tdClass": "g-p--20 w-50 g-w-lg-25 g-bl--1 g-bc--gray12 d-none d-lg-flex",
          "contentClass1": "g-pr-lg--5",
          "icon": {
            "icon": "icon-mapfre_003_check",
            "iconClass": ""
          },
          "title": "Hasta $ 100,000",
          "subtitle": false,
          "desplegable": false
        }
      ]
    },
    {
      "addClass": "d-flex w-100",
      "tdContent": [
        {
          "tdClass": "g-px--10 g-py--20 w-50 g-w-lg-25 d-flex",
          "contentClass1": "g-px-lg--10",
          "tooltip": {
            "iconTooltip": true,
            "icon": "icon-mapfre_048_tooltip",
            "iconClass": "g-font--25 g-font-md--21 g-c--green1 g-c--pointer",
            "textArea": false,
            "text": "",
            "alignTooltip": "g-tooltip--alternative-message--left",
            "addClass": "g-p--15",
            "addClassTitle": "text-left",
            "title": "Titulo ",
            "description": "Lorem ipsum dolor, sit amet consectetur adipisicing elit. Et perferendis harum veritatis aperiam non voluptas provident ducimus cumque vel, cum enim, error voluptate. Suscipit non dolore maxime iusto magni quod.",
            "link": {
              "linkUrl": "",
              "linkClass": "g-c--green1 g-pt--5 g-c--pointer d-none",
              "link": ""
            }
          },
          "titleClass": "g-font--medium g-font--16",
          "title": "Robo de equipos de música y video",
          "subtitle": false,
          "desplegable": {
            "contentClass": "",
            "textClass": "g-c--green1 align-items-center",
            "text": "Ver deducibles",
            "icono": {
              "iconClass": "g-pl--5 ",
              "icon": "icon-mapfre_004_triangle-down"
            }
          }
        },
        {
          "tdClass": "d-flex g-p--20 w-50 g-w-lg-25 g-bl--1 g-bc--gray12",
          "contentClass1": "g-pr-lg--5",
          "icon": {
            "icon": "",
            "iconClass": ""
          },
          "title": "",
          "subtitle": false,
          "desplegable": false
        },
        {
          "tdClass": "g-p--20 w-50 g-w-lg-25 g-bl--1 g-bc--gray12 d-none d-lg-flex",
          "contentClass1": "g-pr-lg--5",
          "icon": {
            "icon": "icon-mapfre_003_check",
            "iconClass": ""
          },
          "title": "Originales sin límite",
          "subtitle": false,
          "desplegable": false
        },
        {
          "tdClass": "g-p--20 w-50 g-w-lg-25 g-bl--1 g-bc--gray12 d-none d-lg-flex",
          "contentClass1": "g-pr-lg--5",
          "icon": {
            "icon": "icon-mapfre_003_check",
            "iconClass": ""
          },
          "title": " Hasta $500",
          "subtitle": false,
          "desplegable": false
        }
      ]
    },
    {
      "addClass": "d-flex w-100",
      "tdContent": [
        {
          "tdClass": "g-px--10 g-py--20 w-50 g-w-lg-25 d-flex",
          "contentClass1": "g-px-lg--10",
          "tooltip": {
            "iconTooltip": true,
            "icon": "icon-mapfre_048_tooltip",
            "iconClass": "g-font--25 g-font-md--21 g-c--green1 g-c--pointer",
            "textArea": false,
            "text": "",
            "alignTooltip": "g-tooltip--alternative-message--left",
            "addClass": "g-p--15",
            "addClassTitle": "text-left",
            "title": "Titulo ",
            "description": "Lorem ipsum dolor, sit amet consectetur adipisicing elit. Et perferendis harum veritatis aperiam non voluptas provident ducimus cumque vel, cum enim, error voluptate. Suscipit non dolore maxime iusto magni quod.",
            "link": {
              "linkUrl": "",
              "linkClass": "g-c--green1 g-pt--5 g-c--pointer d-none",
              "link": ""
            }
          },
          "titleClass": "g-font--medium g-font--16",
          "title": "RC Ausencia de Control",
          "subtitle": false,
          "desplegable": {
            "contentClass": "",
            "textClass": "g-c--green1 align-items-center",
            "text": "Ver deducibles",
            "icono": {
              "iconClass": "g-pl--5 ",
              "icon": "icon-mapfre_004_triangle-down"
            }
          }
        },
        {
          "tdClass": "d-flex g-p--20 w-50 g-w-lg-25 g-bl--1 g-bc--gray12",
          "contentClass1": "g-pr-lg--5",
          "icon": {
            "icon": "",
            "iconClass": ""
          },
          "title": "",
          "subtitle": false,
          "desplegable": false
        },
        {
          "tdClass": "g-p--20 w-50 g-w-lg-25 g-bl--1 g-bc--gray12 d-none d-lg-flex",
          "contentClass1": "g-pr-lg--5",
          "icon": {
            "icon": "icon-mapfre_003_check",
            "iconClass": ""
          },
          "title": "Hasta $50,000",
          "subtitle": false,
          "desplegable": false
        },
        {
          "tdClass": "g-p--20 w-50 g-w-lg-25 g-bl--1 g-bc--gray12 d-none d-lg-flex",
          "contentClass1": "g-pr-lg--5",
          "icon": {
            "icon": "icon-mapfre_003_check",
            "iconClass": ""
          },
          "title": "Hasta $30,000",
          "subtitle": false,
          "desplegable": false
        }
      ]
    },
    {
      "addClass": "d-flex w-100",
      "tdContent": [
        {
          "tdClass": "g-px--10 g-py--20 w-50 g-w-lg-25 d-flex",
          "contentClass1": "g-px-lg--10",
          "tooltip": {
            "iconTooltip": true,
            "icon": "icon-mapfre_048_tooltip",
            "iconClass": "g-font--25 g-font-md--21 g-c--green1 g-c--pointer",
            "textArea": false,
            "text": "",
            "alignTooltip": "g-tooltip--alternative-message--left",
            "addClass": "g-p--15",
            "addClassTitle": "text-left",
            "title": "Titulo ",
            "description": "Lorem ipsum dolor, sit amet consectetur adipisicing elit. Et perferendis harum veritatis aperiam non voluptas provident ducimus cumque vel, cum enim, error voluptate. Suscipit non dolore maxime iusto magni quod.",
            "link": {
              "linkUrl": "",
              "linkClass": "g-c--green1 g-pt--5 g-c--pointer d-none",
              "link": ""
            }
          },
          "titleClass": "g-font--medium g-font--16",
          "title": "Indemnización por Muerte y/o Invalidez Permanente de Ocupantes",
          "subtitle": false,
          "desplegable": false
        },
        {
          "tdClass": "d-flex g-p--20 w-50 g-w-lg-25 g-bl--1 g-bc--gray12",
          "contentClass1": "g-pr-lg--5",
          "icon": {
            "icon": "icon-mapfre_003_check",
            "iconClass": ""
          },
          "title": "Hasta $ 20,000",
          "subtitle": false,
          "desplegable": false
        },
        {
          "tdClass": "g-p--20 w-50 g-w-lg-25 g-bl--1 g-bc--gray12 d-none d-lg-flex",
          "contentClass1": "g-pr-lg--5",
          "icon": {
            "icon": "icon-mapfre_003_check",
            "iconClass": ""
          },
          "title": "Hasta $ 20,000",
          "subtitle": false,
          "desplegable": false
        },
        {
          "tdClass": "g-p--20 w-50 g-w-lg-25 g-bl--1 g-bc--gray12 d-none d-lg-flex",
          "contentClass1": "g-pr-lg--5",
          "icon": {
            "icon": "icon-mapfre_003_check",
            "iconClass": ""
          },
          "title": "Hasta $ 20,000",
          "subtitle": false,
          "desplegable": false
        }
      ]
    },
    {
      "addClass": "d-flex w-100",
      "tdContent": [
        {
          "tdClass": "g-px--10 g-py--20 w-50 g-w-lg-25 d-flex",
          "contentClass1": "g-px-lg--10",
          "tooltip": {
            "iconTooltip": true,
            "icon": "icon-mapfre_048_tooltip",
            "iconClass": "g-font--25 g-font-md--21 g-c--green1 g-c--pointer",
            "textArea": false,
            "text": "",
            "alignTooltip": "g-tooltip--alternative-message--left",
            "addClass": "g-p--15",
            "addClassTitle": "text-left",
            "title": "Titulo ",
            "description": "Lorem ipsum dolor, sit amet consectetur adipisicing elit. Et perferendis harum veritatis aperiam non voluptas provident ducimus cumque vel, cum enim, error voluptate. Suscipit non dolore maxime iusto magni quod.",
            "link": {
              "linkUrl": "",
              "linkClass": "g-c--green1 g-pt--5 g-c--pointer d-none",
              "link": ""
            }
          },
          "titleClass": "g-font--medium g-font--16",
          "title": "Gastos de Curación a Ocupantes",
          "subtitle": false,
          "desplegable": false
        },
        {
          "tdClass": "d-flex g-p--20 w-50 g-w-lg-25 g-bl--1 g-bc--gray12",
          "contentClass1": "g-pr-lg--5",
          "icon": {
            "icon": "icon-mapfre_003_check",
            "iconClass": ""
          },
          "title": "Hasta $ 4,000",
          "subtitle": false,
          "desplegable": false
        },
        {
          "tdClass": "g-p--20 w-50 g-w-lg-25 g-bl--1 g-bc--gray12 d-none d-lg-flex",
          "contentClass1": "g-pr-lg--5",
          "icon": {
            "icon": "icon-mapfre_003_check",
            "iconClass": ""
          },
          "title": "Hasta $ 4,000",
          "subtitle": false,
          "desplegable": false
        },
        {
          "tdClass": "g-p--20 w-50 g-w-lg-25 g-bl--1 g-bc--gray12 d-none d-lg-flex",
          "contentClass1": "g-pr-lg--5",
          "icon": {
            "icon": "icon-mapfre_003_check",
            "iconClass": ""
          },
          "title": "Hasta $ 4,000",
          "subtitle": false,
          "desplegable": false
        }
      ]
    },
    {
      "addClass": "d-flex w-100",
      "tdContent": [
        {
          "tdClass": "g-px--10 g-py--20 w-50 g-w-lg-25 d-flex",
          "contentClass1": "g-px-lg--10",
          "tooltip": {
            "iconTooltip": true,
            "icon": "icon-mapfre_048_tooltip",
            "iconClass": "g-font--25 g-font-md--21 g-c--green1 g-c--pointer",
            "textArea": false,
            "text": "",
            "alignTooltip": "g-tooltip--alternative-message--left",
            "addClass": "g-p--15",
            "addClassTitle": "text-left",
            "title": "Titulo ",
            "description": "Lorem ipsum dolor, sit amet consectetur adipisicing elit. Et perferendis harum veritatis aperiam non voluptas provident ducimus cumque vel, cum enim, error voluptate. Suscipit non dolore maxime iusto magni quod.",
            "link": {
              "linkUrl": "",
              "linkClass": "g-c--green1 g-pt--5 g-c--pointer d-none",
              "link": ""
            }
          },
          "titleClass": "g-font--medium g-font--16",
          "title": "Servicio de Sepelio con Funeraria Finisterre",
          "subtitle": false,
          "desplegable": false
        },
        {
          "tdClass": "d-flex g-p--20 w-50 g-w-lg-25 g-bl--1 g-bc--gray12",
          "contentClass1": "g-pr-lg--5",
          "icon": {
            "icon": "icon-mapfre_003_check",
            "iconClass": ""
          },
          "title": "Hasta $ 2,000",
          "subtitle": false,
          "desplegable": false
        },
        {
          "tdClass": "g-p--20 w-50 g-w-lg-25 g-bl--1 g-bc--gray12 d-none d-lg-flex",
          "contentClass1": "g-pr-lg--5",
          "icon": {
            "icon": "icon-mapfre_003_check",
            "iconClass": ""
          },
          "title": "Hasta $ 2,000",
          "subtitle": false,
          "desplegable": false
        },
        {
          "tdClass": "g-p--20 w-50 g-w-lg-25 g-bl--1 g-bc--gray12 d-none d-lg-flex",
          "contentClass1": "g-pr-lg--5",
          "icon": {
            "icon": "icon-mapfre_003_check",
            "iconClass": ""
          },
          "title": "Hasta $ 2,000",
          "subtitle": false,
          "desplegable": false
        }
      ]
    },
    {
      "addClass": "d-flex w-100",
      "tdContent": [
        {
          "tdClass": "g-px--10 g-py--20 w-50 g-w-lg-25 d-flex",
          "contentClass1": "g-px-lg--10",
          "tooltip": {
            "iconTooltip": true,
            "icon": "icon-mapfre_048_tooltip",
            "iconClass": "g-font--25 g-font-md--21 g-c--green1 g-c--pointer",
            "textArea": false,
            "text": "",
            "alignTooltip": "g-tooltip--alternative-message--left",
            "addClass": "g-p--15",
            "addClassTitle": "text-left",
            "title": "Titulo ",
            "description": "Lorem ipsum dolor, sit amet consectetur adipisicing elit. Et perferendis harum veritatis aperiam non voluptas provident ducimus cumque vel, cum enim, error voluptate. Suscipit non dolore maxime iusto magni quod.",
            "link": {
              "linkUrl": "",
              "linkClass": "g-c--green1 g-pt--5 g-c--pointer d-none",
              "link": ""
            }
          },
          "titleClass": "g-font--medium g-font--16",
          "title": "Indemnización por Robo dentro del Auto",
          "subtitle": false,
          "desplegable": false
        },
        {
          "tdClass": "d-flex g-p--20 w-50 g-w-lg-25 g-bl--1 g-bc--gray12",
          "contentClass1": "g-pr-lg--5",
          "icon": {
            "icon": "",
            "iconClass": ""
          },
          "title": "",
          "subtitle": false,
          "desplegable": false
        },
        {
          "tdClass": "g-p--20 w-50 g-w-lg-25 g-bl--1 g-bc--gray12 d-none d-lg-flex",
          "contentClass1": "g-pr-lg--5",
          "icon": {
            "icon": "icon-mapfre_003_check",
            "iconClass": ""
          },
          "title": "Hasta $ 100",
          "subtitle": false,
          "desplegable": false
        },
        {
          "tdClass": "g-p--20 w-50 g-w-lg-25 g-bl--1 g-bc--gray12 d-none d-lg-flex",
          "contentClass1": "g-pr-lg--5",
          "icon": {
            "icon": "",
            "iconClass": ""
          },
          "title": "",
          "subtitle": false,
          "desplegable": false
        }
      ]
    }
  ],
  "otros": {
    "headDropdown": {
      "headDropClass": "w-auto flex-fill g-bg-c--gray7 g-p--15 g-bg-c--gray7 d-flex justify-content-between align-items-center",
      "titleClass": "g-font--medium g-font--16 ",
      "title": "OTROS DEDUCIBLES",
      "iconDropdown": {
        "iconClass": "",
        "icon": "icon-mapfre_101_ico-dow"
      }
    },
    "otroscontentTabs": [
      {
        "tdContent": [
          {
            "tdClass": "g-px--10 g-py--20 w-50 g-w-lg-25 d-flex",
            "contentClass1": "g-px-lg--10",
            "tooltip": {
              "iconTooltip": true,
              "icon": "icon-mapfre_048_tooltip",
              "iconClass": "g-font--25 g-font-md--21 g-c--green1 g-c--pointer",
              "textArea": false,
              "text": "",
              "alignTooltip": "g-tooltip--alternative-message--left",
              "addClass": "g-p--15",
              "addClassTitle": "text-left",
              "title": "Titulo ",
              "description": "Lorem ipsum dolor, sit amet consectetur adipisicing elit. Et perferendis harum veritatis aperiam non voluptas provident ducimus cumque vel, cum enim, error voluptate. Suscipit non dolore maxime iusto magni quod.",
              "link": {
                "linkUrl": "",
                "linkClass": "g-c--green1 g-pt--5 g-c--pointer d-none",
                "link": ""
              }
            },
            "titleClass": "g-font--medium g-font--16",
            "title": "Conductor menor a 25 años",
            "subtitle": false,
            "desplegable": false
          },
          {
            "tdClass": "d-flex g-p--20 w-50 g-w-lg-25 g-bl--1 g-bc--gray12",
            "contentClass1": "g-pr-lg--5",
            "icon": {
              "icon": "icon-mapfre_003_check",
              "iconClass": ""
            },
            "title": "20% minimo $300",
            "subtitle": false,
            "desplegable": false
          },
          {
            "tdClass": "g-p--20 w-50 g-w-lg-25 g-bl--1 g-bc--gray12 d-none d-lg-flex",
            "contentClass1": "g-pr-lg--5",
            "icon": {
              "icon": "icon-mapfre_003_check",
              "iconClass": ""
            },
            "title": "20% minimo $300",
            "subtitle": false,
            "desplegable": false
          },
          {
            "tdClass": "g-p--20 w-50 g-w-lg-25 g-bl--1 g-bc--gray12 d-none d-lg-flex",
            "contentClass1": "g-pr-lg--5",
            "icon": {
              "icon": "icon-mapfre_003_check",
              "iconClass": ""
            },
            "title": "20% minimo $300",
            "subtitle": false,
            "desplegable": false
          }
        ]
      },
      {
        "tdContent": [
          {
            "tdClass": "g-px--10 g-py--20 w-50 g-w-lg-25 d-flex",
            "contentClass1": "g-px-lg--10",
            "tooltip": {
              "iconTooltip": true,
              "icon": "icon-mapfre_048_tooltip",
              "iconClass": "g-font--25 g-font-md--21 g-c--green1 g-c--pointer",
              "textArea": false,
              "text": "",
              "alignTooltip": "g-tooltip--alternative-message--left",
              "addClass": "g-p--15",
              "addClassTitle": "text-left",
              "title": "Titulo ",
              "description": "Lorem ipsum dolor, sit amet consectetur adipisicing elit. Et perferendis harum veritatis aperiam non voluptas provident ducimus cumque vel, cum enim, error voluptate. Suscipit non dolore maxime iusto magni quod.",
              "link": {
                "linkUrl": "",
                "linkClass": "g-c--green1 g-pt--5 g-c--pointer d-none",
                "link": ""
              }
            },
            "titleClass": "g-font--medium g-font--16",
            "title": "Reposición de Lunas",
            "subtitle": false,
            "desplegable": false
          },
          {
            "tdClass": "d-flex g-p--20 w-50 g-w-lg-25 g-bl--1 g-bc--gray12",
            "contentClass1": "g-pr-lg--5",
            "icon": {
              "icon": "",
              "iconClass": ""
            },
            "titleClass": "g-font--medium",
            "title": "Nacionales:",
            "subtitle": {
              "textClass": "g-font--light",
              "text": "Sin deducible"
            },
            "desplegable": false
          },
          {
            "tdClass": "g-p--20 w-50 g-w-lg-25 g-bl--1 g-bc--gray12 d-none d-lg-flex",
            "contentClass1": "g-pr-lg--5",
            "icon": {
              "icon": " ",
              "iconClass": ""
            },
            "titleClass": "g-font--medium",
            "title": "Nacionales:",
            "subtitle": [
              {
                "textClass": "g-font--light",
                "text": "Sin deducible"
              },
              {
                "textClass": "g-font--medium g-pt--10",
                "text": "Importadas: "
              },
              {
                "textClass": "g-font--light g-font--13",
                "text": "Aplica el deducible de choque y robo parcial."
              }
            ],
            "desplegable": false
          },
          {
            "tdClass": "g-p--20 w-50 g-w-lg-25 g-bl--1 g-bc--gray12 d-none d-lg-flex",
            "contentClass1": "g-pr-lg--5",
            "icon": {
              "icon": "",
              "iconClass": ""
            },
            "titleClass": "g-font--medium",
            "title": "Nacionales:",
            "subtitle": [
              {
                "textClass": "g-font--light",
                "text": "Sin deducible"
              },
              {
                "textClass": "g-font--medium g-pt--10",
                "text": "Importadas: "
              },
              {
                "textClass": "g-font--light g-font--13",
                "text": "Aplica el deducible de choque y robo parcial."
              }
            ],
            "desplegable": false
          }
        ]
      },
      {
        "tdContent": [
          {
            "tdClass": "g-px--10 g-py--20 w-50 g-w-lg-25 d-flex",
            "contentClass1": "g-px-lg--10",
            "tooltip": {
              "iconTooltip": true,
              "icon": "icon-mapfre_048_tooltip",
              "iconClass": "g-font--25 g-font-md--21 g-c--green1 g-c--pointer",
              "textArea": false,
              "text": "",
              "alignTooltip": "g-tooltip--alternative-message--left",
              "addClass": "g-p--15",
              "addClassTitle": "text-left",
              "title": "Titulo ",
              "description": "Lorem ipsum dolor, sit amet consectetur adipisicing elit. Et perferendis harum veritatis aperiam non voluptas provident ducimus cumque vel, cum enim, error voluptate. Suscipit non dolore maxime iusto magni quod.",
              "link": {
                "linkUrl": "",
                "linkClass": "g-c--green1 g-pt--5 g-c--pointer d-none",
                "link": ""
              }
            },
            "titleClass": "g-font--medium g-font--16",
            "title": "Huelga, Conmoción Civil, Daño Malicioso, Vandalismo y Terrorismo",
            "subtitle": false,
            "desplegable": false
          },
          {
            "tdClass": "d-flex g-p--20 w-50 g-w-lg-25 g-bl--1 g-bc--gray12",
            "contentClass1": "g-pr-lg--5",
            "icon": {
              "icon": "icon-mapfre_003_check",
              "iconClass": ""
            },
            "title": "10% adicional al deducible aplicable:",
            "subtitle": false,
            "desplegable": false
          },
          {
            "tdClass": "g-p--20 w-50 g-w-lg-25 g-bl--1 g-bc--gray12 d-none d-lg-flex",
            "contentClass1": "g-pr-lg--5",
            "icon": {
              "icon": "icon-mapfre_003_check",
              "iconClass": ""
            },
            "title": "10% adicional al deducible aplicable:",
            "subtitle": false,
            "desplegable": false
          },
          {
            "tdClass": "g-p--20 w-50 g-w-lg-25 g-bl--1 g-bc--gray12 d-none d-lg-flex",
            "contentClass1": "g-pr-lg--5",
            "icon": {
              "icon": "icon-mapfre_003_check",
              "iconClass": ""
            },
            "title": "10% adicional al deducible aplicable:",
            "subtitle": false,
            "desplegable": false
          }
        ]
      }
    ]
  }
}