{
  "iconFile": "icon-mapfre_044_logo_landing ",
  "addClass": "g-font--45",
  "acordion": [
    {
      "classAccordion": "g-bg-c--gray8 g-c--gray10 g-pt--5",
      "dataGroup": "true",
      "item": [
        {
          "dataOpen": "true",
          "itemClass": "",
          "titleClass": "",
          "boxClass": "",
          "clickClass": " g-pl--20   g-pr--15   g-py--10 ",
          "icon": {
            "iconFile": "icon-mapfre_022_car2",
            "iconClass": " g-px--15  g-font--20 "
          },
          "arrow": {
            "clickOn": {
              "iconFile": "icon-mapfre_101_ico-dow",
              "iconClass": "g-font--10 g-c-pointer g-c--white1"
            },
            "clickOff": {
              "iconFile": "icon-mapfre_102_ico-up",
              "iconClass": "g-c--pointer g-font--10"
            }
          },
          "textClass": "g-text--uppercase g-font--bold",
          "text": "VEHÍCULOS",
          "contentClass": "",
          "content": false,
          "list": [
            {
              "iconFile": "",
              "text": "Seguro Vehicular"
            },
            {
              "iconFile": "",
              "text": "SOAT"
            },
            {
              "iconFile": "",
              "text": "Accidentes"
            },
            {
              "text": "Robo"
            },
            {
              "text": "Talleres"
            },
            {
              "text": "Cotización"
            }
          ],
          "classContent": "g-hover-nav g-font--12"
        },
        {
          "dataOpen": "",
          "itemClass": "",
          "titleClass": "",
          "boxClass": "",
          "clickClass": " g-pl--20   g-pr--15   g-py--10 ",
          "icon": {
            "iconFile": "icon-mapfre_023_cross2",
            "iconClass": " g-px--15  g-font--20 "
          },
          "arrow": {
            "clickOn": {
              "iconFile": "icon-mapfre_101_ico-dow",
              "iconClass": "g-font--10 g-c-pointer g-c--white1"
            },
            "clickOff": {
              "iconFile": "icon-mapfre_102_ico-up",
              "iconClass": "g-c--pointer g-font--10"
            }
          },
          "textClass": "g-text--uppercase g-font--bold",
          "text": "SALUD",
          "contentClass": "",
          "content": false,
          "list": [
            {
              "iconFile": "",
              "text": "Seguro Vehicular"
            },
            {
              "iconFile": "",
              "text": "SOAT"
            },
            {
              "iconFile": "",
              "text": "Accidentes"
            },
            {
              "text": "Robo"
            },
            {
              "text": "Talleres"
            },
            {
              "text": "Cotización"
            }
          ],
          "classContent": "g-hover-nav"
        },
        {
          "dataOpen": "",
          "itemClass": "",
          "titleClass": "",
          "boxClass": "",
          "clickClass": " g-pl--20   g-pr--15   g-py--10 ",
          "icon": {
            "iconFile": "icon-mapfre_024_house2",
            "iconClass": " g-px--15  g-font--20 "
          },
          "arrow": {
            "clickOn": {
              "iconFile": "icon-mapfre_101_ico-dow",
              "iconClass": "g-font--10 g-c-pointer g-c--white1"
            },
            "clickOff": {
              "iconFile": "icon-mapfre_102_ico-up",
              "iconClass": "g-c--pointer"
            }
          },
          "textClass": "g-text--uppercase g-font--bold",
          "text": "HOGAR",
          "contentClass": "",
          "content": false,
          "list": [
            {
              "iconFile": "",
              "text": "Seguro Vehicular"
            },
            {
              "iconFile": "",
              "text": "SOAT"
            },
            {
              "iconFile": "",
              "text": "Accidentes"
            },
            {
              "text": "Robo"
            },
            {
              "text": "Talleres"
            },
            {
              "text": "Cotización"
            }
          ],
          "classContent": "g-hover-nav"
        },
        {
          "dataOpen": "",
          "itemClass": "",
          "titleClass": "",
          "boxClass": "",
          "clickClass": " g-pl--20   g-pr--15   g-py--10 ",
          "icon": {
            "iconFile": "icon-mapfre_025_heart2",
            "iconClass": " g-px--15  g-font--20 "
          },
          "arrow": {
            "clickOn": {
              "iconFile": "icon-mapfre_101_ico-dow",
              "iconClass": "g-font--10 g-c-pointer g-c--white1"
            },
            "clickOff": {
              "iconFile": "icon-mapfre_102_ico-up",
              "iconClass": "g-c--pointer"
            }
          },
          "textClass": "g-text--uppercase g-font--bold",
          "text": "VIDA Y AHORROS",
          "contentClass": "",
          "content": false,
          "list": [
            {
              "iconFile": "",
              "text": "Seguro Vehicular"
            },
            {
              "iconFile": "",
              "text": "SOAT"
            },
            {
              "iconFile": "",
              "text": "Accidentes"
            },
            {
              "text": "Robo"
            },
            {
              "text": "Talleres"
            },
            {
              "text": "Cotización"
            }
          ],
          "classContent": "g-hover-nav"
        },
        {
          "dataOpen": "",
          "itemClass": "",
          "titleClass": "",
          "boxClass": "",
          "clickClass": " g-pl--20   g-pr--15   g-py--10 ",
          "icon": {
            "iconFile": "icon-mapfre_026_decesos",
            "iconClass": " g-px--15  g-font--20 "
          },
          "arrow": false,
          "textClass": "g-text--uppercase g-font--bold",
          "text": "DECESOS",
          "contentClass": "",
          "content": false,
          "classContent": "g-hover-nav"
        },
        {
          "dataOpen": "",
          "itemClass": "",
          "titleClass": "",
          "boxClass": "",
          "clickClass": " g-pl--20   g-pr--15   g-py--10 ",
          "icon": {
            "iconFile": "icon-mapfre_027_box",
            "iconClass": " g-px--15  g-font--20 "
          },
          "arrow": false,
          "textClass": "g-text--uppercase g-font--bold",
          "text": "SERVICIOS MAPFRE",
          "contentClass": "",
          "content": false,
          "classContent": "g-hover-nav"
        },
        {
          "dataOpen": "",
          "itemClass": "",
          "titleClass": "",
          "boxClass": "",
          "clickClass": " g-pl--20   g-pr--15   g-py--10 ",
          "icon": {
            "iconFile": "icon-mapfre_028_pagos",
            "iconClass": " g-px--15  g-font--20 "
          },
          "arrow": false,
          "textClass": "g-text--uppercase g-font--bold",
          "text": "Mis Pagos",
          "contentClass": "",
          "content": false,
          "classContent": "g-hover-nav"
        },
        {
          "dataOpen": "",
          "itemClass": "",
          "titleClass": "",
          "boxClass": "",
          "clickClass": " g-pl--20   g-pr--15   g-py--10 ",
          "icon": {
            "iconFile": "icon-mapfre_029_location-pin2",
            "iconClass": " g-px--15  g-font--20 "
          },
          "arrow": false,
          "textClass": "g-text--uppercase g-font--bold",
          "text": "Red de Oficinas",
          "contentClass": "",
          "content": false,
          "classContent": "g-hover-nav"
        }
      ]
    }
  ],
  "list-btn": [
    {
      "iconFile": "icon-mapfre_030_call",
      "addClass": "g-font--30"
    },
    {
      "iconFile": "icon-mapfre_031_qanda",
      "addClass": "g-font--30"
    }
  ],
  "headerOIM": {
    "icoNav": {
      "iconFile": "icon-mapfre_047_bars",
      "addClass": "g-font--30",
      "iconFileOIM": "icon-mapfre_044_logo_landing ",
      "addClassOIM": "g-font--30"
    },
    "headOimMobile": {
      "llamada": "SEGURO VEHICULAR",
      "bajada": "COTIZA TU SEGURO",
      "iconFile": "icon-mapfre_044_logo_landing ",
      "addClass": "g-font--30",
      "icoBack": {
        "icon": "icon-mapfre_010_arrow-left",
        "addClass": "g-items-icon g-c--gray3 g-font--25 g-font-md--21"
      }
    },
    "datos": {
      "icoCircle": "icon-mapfre_066_circle",
      "sizeCircle": "g-font--40 g-c--gray1",
      "icoUser": "icon-mapfre_037_user",
      "addClass": "g-c--white1 g-ico--center g-font--20",
      "tittle": "NOTIFICACIONES",
      "icoAlert": "icon-mapfre_036_notification",
      "icoClose": "icon-mapfre_049_close2",
      "sizeClose": "g-font--40",
      "nameUser": "Hola <b>Gonzalo!</b>",
      "numb": 3,
      "alertBadge": {
        "icoCircle": "icon-mapfre_066_circle",
        "addClass": "g-font--30 g-c--green1",
        "addClassNum": "g-ico--center g-font--11 g-c--white1"
      },
      "list": [
        {
          "tipo": "Mi prefil"
        },
        {
          "tipo": "Cerrar sesión"
        }
      ]
    },
    "alert": {
      "ico": "icon-mapfre_014_perfil",
      "icoCircle": "icon-mapfre_066_circle",
      "sizeCircle": "g-font--40 g-c--gray1",
      "addClass": "g-c--white1 g-ico--center g-font--20",
      "tittle": "NOTIFICACIONES",
      "icoAlert": "icon-mapfre_036_notification",
      "icoClose": "icon-mapfre_049_close2",
      "sizeClose": "g-font--40",
      "numb": 3,
      "alertBadge": {
        "icoCircle": "icon-mapfre_066_circle",
        "addClass": "g-font--30 g-c--green1",
        "addClassNum": "g-ico--center g-font--11 g-c--white1"
      },
      "list": [
        {
          "ico-drow": "icon-mapfre_057_circle-check",
          "fech": "HOY 10:23am",
          "tipo": "Solicitud de chofer de reemplazo confirmada",
          "desc": "Seguro vehicular"
        },
        {
          "ico-drow": "icon-mapfre_049_close2",
          "fech": "HOY 10:23am",
          "tipo": "Solicitud de auxilio mecánico cancelada",
          "desc": "Seguro vehicular"
        },
        {
          "ico-drow": "icon-mapfre_057_circle-check",
          "fech": "HOY 10:23am",
          "tipo": "Solicitud de auxilio mecánico cancelada",
          "desc": "Seguro vehicular"
        },
        {
          "ico-drow": "icon-mapfre_049_close2",
          "fech": "HOY 10:23am",
          "tipo": "Solicitud de auxilio mecánico cancelada",
          "desc": "Seguro vehicular"
        },
        {
          "ico-drow": "icon-mapfre_057_circle-check",
          "fech": "HOY 10:23am",
          "tipo": "Solicitud de auxilio mecánico cancelada",
          "desc": "Seguro vehicular"
        },
        {
          "ico-drow": "icon-mapfre_062_reloj",
          "fech": "HOY 10:23am",
          "tipo": "Solicitud de auxilio mecánico cancelada",
          "desc": "Seguro vehicular"
        },
        {
          "ico-drow": "icon-mapfre_049_close2",
          "fech": "HOY 10:23am",
          "tipo": "Solicitud de auxilio mecánico cancelada",
          "desc": "Seguro vehicular"
        }
      ]
    }
  },
  "steps": {
    "stepsClass": "g-pt-lg--40 g-pt--20 g-pb-lg--40 g-pb--20 g-px--20 g-px-lg--0",
    "stepsItems": [
      {
        "active": "active active--last",
        "numberClass": "g-font--normal g-font-lg--medium g-font--12 g-font-lg--14 g-c--white1",
        "number": "1",
        "textClass": "g-font--13 g-font-lg--14 g-pt--10 g-font--light",
        "text": "VEHÍCULO",
        "subtitleClass": "g-font--13 g-font--light",
        "subtitle": false
      },
      {
        "active": "",
        "numberClass": "g-font--normal g-font-lg--medium g-font--12 g-font-lg--14 g-c--white1",
        "number": "2",
        "textClass": "g-font--13 g-font-lg--14 g-pt--10 g-font--light",
        "text": "CONTRATANTE",
        "subtitleClass": "g-font--13 g-font--light",
        "subtitle": false
      },
      {
        "active": "",
        "numberClass": "g-font--normal g-font-lg--medium g-font--12 g-font-lg--14 g-c--white1",
        "number": "3",
        "textClass": "g-font--13 g-font-lg--14 g-pt--10 g-font--light",
        "text": "PAGO",
        "subtitleClass": "g-font--13 g-font--light",
        "subtitle": false
      }
    ]
  },
  "quotation": {
    "orderContent1": "order-2 order-lg-1",
    "orderContent2": "order-1 order-lg-2",
    "icon": {
      "iconClass": "g-font--42",
      "iconFile": "icon-mapfre_019_car"
    },
    "addContentClass": "g-mb--40 g-mb-lg--0",
    "contentClass": "g-p--20 g-p-lg--10 g-py--20 g-p-lg--40 ",
    "title": {
      "textClass": "",
      "text": "DATOS DEL VEHÍCULO"
    },
    "step1": {
      "addClass": " g-pt-lg--20",
      "title": {
        "textClass": "g-pt--30 g-pt-lg--0",
        "text": "AAF352"
      },
      "formCase": [
        {
          "addContentClass": "g-w-100 g-pr-lg--15 g-pb--10",
          "inputTooltip": {
            "mfInput": {
              "inputClass": "",
              "label": "Número de chasis",
              "type": "text",
              "value": "1230129301",
              "error": "",
              "addClass": "g-form-focus",
              "requerid": false,
              "title": "",
              "tooltip": {
                "iconClassTooltip": "d-flex",
                "tooltipClass": "g-mt--35 g-ml--10",
                "iconTooltip": true,
                "icon": "icon-mapfre_048_tooltip",
                "iconClass": "g-font--25 g-font-md--21 g-c--green1 g-c--pointer",
                "textArea": false,
                "text": "",
                "alignTooltip": "",
                "addClass": "g-p--15 g-w-px--30",
                "addClassTitle": "g-pb--10 text-center",
                "title": "Puedes encontrar el número en el sticker de tu parabrisa en una de estas ubicaciones:",
                "description": {
                  "descriptionClass": "d-flex justify-content-center text-center",
                  "description": "<img src='../../images/pngs/captura1.jpg'><img src='../../images/pngs/captura2.jpg'>"
                },
                "link": false
              }
            }
          }
        },
        {
          "addContentClass": "g-w-100 g-pr-lg--15 g-pb--10",
          "inputTooltip": {
            "mfInput": {
              "inputClass": "",
              "label": "Número de motor",
              "type": "text",
              "value": "093809309480",
              "error": "",
              "addClass": "g-form-focus",
              "requerid": false,
              "title": "",
              "tooltip": {
                "iconClassTooltip": "d-flex",
                "tooltipClass": "g-mt--35 g-ml--10",
                "iconTooltip": true,
                "icon": "icon-mapfre_048_tooltip",
                "iconClass": "g-font--25 g-font-md--21 g-c--green1 g-c--pointer",
                "textArea": false,
                "text": "",
                "alignTooltip": "",
                "addClass": "g-p--15 g-w-px--30",
                "addClassTitle": "g-pb--10 text-center",
                "title": "Puedes encontrar el número en el sticker de tu parabrisa en una de estas ubicaciones:",
                "description": {
                  "descriptionClass": "d-flex justify-content-center text-center",
                  "description": "<img src='../../images/pngs/captura1.jpg'><img src='../../images/pngs/captura2.jpg'>"
                },
                "link": false
              }
            }
          }
        },
        {
          "addContentClass": "g-w-100 g-pr-lg--15 g-pb--10",
          "inputTooltip": {
            "mfInput": {
              "inputClass": "",
              "label": "Número de accesorios",
              "type": "text",
              "value": "3",
              "error": "",
              "addClass": "g-form-focus",
              "requerid": false,
              "title": "",
              "tooltip": {
                "iconClassTooltip": "d-flex",
                "tooltipClass": "g-mt--35 g-ml--10",
                "iconTooltip": true,
                "icon": "icon-mapfre_048_tooltip",
                "iconClass": "g-font--25 g-font-md--21 g-c--green1 g-c--pointer",
                "textArea": false,
                "text": "",
                "alignTooltip": "",
                "addClass": "g-p--15 g-w-px--30",
                "addClassTitle": "g-pb--10 text-left g-font--medium",
                "title": "Número de accesorios:",
                "description": {
                  "descriptionClass": "d-flex justify-content-center line-11 g-font--13",
                  "description": "Son accesorios adicionales a los de fábrica. Si tienes más de tres accesorios en tu auto deberás solicitar una inspección presencial."
                },
                "link": false
              }
            }
          }
        },
        {
          "addContentClass": "g-w-100 g-pr-lg--15 g-pb--25",
          "select": {
            "addClass": "g-form-focus",
            "label": "Color",
            "disabled": false,
            "listOption": [
              {
                "value": "verde"
              }
            ],
            "error": ""
          }
        }
      ]
    },
    "footer": {
      "footerClass": "",
      "btn": [
        {
          "boxClass": "w-50 text-center g-pr--10",
          "textClass": "g-btn-outline",
          "text": "Cancelar"
        },
        {
          "boxClass": "w-50 text-center g-pl--10",
          "textClass": "g-btn-outline disabled",
          "text": "Continuar"
        }
      ]
    },
    "cardRight": {
      "resumen": {
        "openCard": "true",
        "titleAccordion": {
          "titleCard": [
            {
              "titleCardClass": "w-100",
              "titleCard": "Resumen de tu seguro"
            },
            {
              "titleCardClass": "g-c--green1 g-c--pointer text-nowrap g-pr--5",
              "titleCard": "Ver resumen"
            }
          ],
          "colorArrow": "g-c--green1"
        },
        "contenido": [
          {
            "contentClass": "d-flex justify-content-between align-items-center g-px--20 g-py--15",
            "contentItem": [
              {
                "itemClass": "g-font--medium g-c--gray2 w-10 d-flex align-items-center g-ie-flex--0-1-auto g-font--13 g-font-lg--16",
                "item": "<span class='icon-mapfre_019_car g-c--gray18 g-pr--15 g-font--23'></span> Datos de tu vehículo"
              },
              {
                "itemClass": "g-font--light g-bc--gray11 text-nowrap",
                "item": "<span class='icon-mapfre_102_ico-up g-c--gray18'></span>"
              }
            ]
          },
          {
            "contentClass": "d-flex g-px--20 g-pb--10",
            "contentItem": [
              {
                "itemClass": "g-font--light g-c--gray2 w-px--14 g-pr--10",
                "item": "Placa:"
              },
              {
                "itemClass": " g-c--gray2 w-pt--15 g-pc--14",
                "item": "AAF352"
              }
            ]
          },
          {
            "contentClass": "d-flex g-px--20 g-pb--10",
            "contentItem": [
              {
                "itemClass": "g-font--light g-c--gray2 w-px--14 g-pr--10",
                "item": "Marca/modelo/año:"
              },
              {
                "itemClass": " g-c--gray2 w-pt--15 g-pc--14",
                "item": "Toyota Yaris 1.6 2009"
              }
            ]
          },
          {
            "contentClass": "d-flex g-px--20 g-pb--10",
            "contentItem": [
              {
                "itemClass": "g-font--light g-c--gray2 w-px--14 g-pr--10",
                "item": "Valor sugerido:"
              },
              {
                "itemClass": " g-c--gray2 w-pt--15 g-pc--14",
                "item": "$ 30,000"
              }
            ]
          },
          {
            "contentClass": "d-flex g-px--20 g-pb--10",
            "contentItem": [
              {
                "itemClass": "g-font--light g-c--gray2 w-px--14 g-pr--10",
                "item": "Uso:"
              },
              {
                "itemClass": " g-c--gray2 w-pt--15 g-pc--14",
                "item": "Particular"
              }
            ]
          },
          {
            "contentClass": "d-flex g-px--20 g-pb--10",
            "contentItem": [
              {
                "itemClass": "g-font--light g-c--gray2 w-px--14 g-pr--10",
                "item": "Ciudad:"
              },
              {
                "itemClass": " g-c--gray2 w-pt--15 g-pc--14",
                "item": "Lima"
              }
            ]
          },
          {
            "contentClass": "d-flex g-px--20 g-pb--10",
            "contentItem": [
              {
                "itemClass": "g-font--light g-c--gray2 w-px--14 g-pr--10",
                "item": "Nro. de chasis:"
              },
              {
                "itemClass": " g-c--gray2 w-pt--15 g-pc--14",
                "item": "1212GUUG1213BJBJ"
              }
            ]
          },
          {
            "contentClass": "d-flex g-px--20 g-pb--10",
            "contentItem": [
              {
                "itemClass": "g-font--light g-c--gray2 w-px--14 g-pr--10",
                "item": "Nro. de motor:"
              },
              {
                "itemClass": " g-c--gray2 w-pt--15 g-pc--14",
                "item": "000002302032023303"
              }
            ]
          },
          {
            "contentClass": "d-flex g-px--20 g-pb--10",
            "contentItem": [
              {
                "itemClass": "g-font--light g-c--gray2 w-px--14 g-pr--10",
                "item": "Color:"
              },
              {
                "itemClass": " g-c--gray2 w-pt--15 g-pc--14",
                "item": "Cobalto"
              }
            ]
          },
          {
            "contentClass": "d-flex justify-content-between align-items-center g-bt--1 g-bc--gray11 g-px--20 g-py--15",
            "contentItem": [
              {
                "itemClass": "g-font--medium g-c--gray2 w-10 d-flex align-items-center g-ie-flex--0-1-auto g-font--13 g-font-lg--16",
                "item": "<span class='icon-mapfre_058_file g-c--gray18 g-pr--15 g-font--23'></span> Datos de tu compra"
              },
              {
                "itemClass": "g-font--light g-bc--gray11 text-nowrap",
                "item": "<span class='icon-mapfre_102_ico-up g-c--gray18'></span>"
              }
            ]
          },
          {
            "contentClass": "d-flex  g-px--20 g-pb--10",
            "contentItem": [
              {
                "itemClass": "g-font--light g-c--gray2 w-px--14 g-pr--10",
                "item": "Producto:"
              },
              {
                "itemClass": " g-c--gray2 w-pt--15",
                "item": "Full Cobertura Premiun"
              }
            ]
          },
          {
            "contentClass": "d-flex  g-px--20 g-pb--10",
            "contentItem": [
              {
                "itemClass": "g-font--light g-c--gray2 w-px--14 g-pr--10",
                "item": "Frecuencia de pago:"
              },
              {
                "itemClass": " g-c--gray2 w-pt--15 g-pc--15",
                "item": "12 cuotas mensuales"
              }
            ]
          },
          {
            "contentClass": "d-flex justify-content-between align-items-center g-bt--1 g-bc--gray11 g-px--20 g-py--15",
            "contentItem": [
              {
                "itemClass": "g-font--light w-10 g-font--16",
                "item": "Precio de la póliza"
              },
              {
                "itemClass": "g-font--light text-nowrap g-font--16",
                "item": "$ 2,432.16"
              }
            ]
          }
        ],
        "footer": {
          "footerClass": "g-bg-c--gray11 d-flex justify-content-between w-10 g-p--20",
          "text": [
            {
              "textClass": "g-font--medium g-font--18  g-c--gray2",
              "text": "Valor cuota"
            },
            {
              "textClass": "g-font--medium g-font--18  g-c--gray2",
              "text": "$ 202.04"
            }
          ]
        }
      }
    }
  },
  "openClick": {
    "click": "vehicular-confirmation",
    "openModal": "delete"
  },
  "formModal": {
    "value": "#open-modal",
    "addClass": "block g-text--uppercase g-modal--link",
    "data": "modal01",
    "text": "modal01",
    "title-modal": {
      "title": "AGREGAR DIRECCIÓN"
    },
    "cont-add-adress": true,
    "btns": {
      "btnsClass": "d-flex flex-column-reverse flex-md-row justify-content-center",
      "btn": [
        {
          "addClass": "g-p--10 text-center w-10",
          "textClass": "g-btn g-text--uppercase g-px--60 w-px-lg--24 g-c--pointer",
          "text": "ACEPTAR"
        }
      ]
    }
  },
  "alert": {
    "dataModal": "delete",
    "modalSize": "g-modal--confirm-big",
    "value": "#open-modal",
    "addClass": "block g-modal--link",
    "contentClass": "g-pb--50 g-px-lg--50",
    "formContent": {
      "message": {
        "icon": {
          "iconFile": "icon--fail g-mr--10",
          "iconClass": ""
        },
        "title": {
          "titleClass": "g-font--18 g-font--medium g-mt--20 g-mb--15",
          "titleText": "Estimado usuario"
        },
        "description": [
          {
            "descriptionClass": "g-font--light g-px-lg--50",
            "descriptionText": "Ya existe una póliza de seguro registrada para los siguientes campos:"
          },
          {
            "descriptionClass": "g-font--light g-px-lg--50 g-pt--20 ",
            "descriptionText": "Número de chasis:"
          },
          {
            "descriptionClass": "g-font--medium g-font--16 g-px-lg--50  ",
            "descriptionText": "1212121122112"
          },
          {
            "descriptionClass": "g-font--light g-px-lg--50 g-pt--20 ",
            "descriptionText": "Número de motor:"
          },
          {
            "descriptionClass": "g-font--medium g-font--16 g-px-lg--50  ",
            "descriptionText": "2343224324244"
          },
          {
            "descriptionClass": "g-font--light g-px-lg--50 g-pt--20 ",
            "descriptionText": "Por favor, ingrese otros datos o si crees que es un error puedes contactar con un asesor."
          },
          {
            "descriptionClass": "g-font--medium g-px-lg--50 g-pt--20 g-c--green1 g-c--pointer  d-flex align-items-center text-center justify-content-center",
            "descriptionText": "<span class='icon-mapfre_060_mail g-font--16 g-pr--5'></span> Contactar con un asesor"
          }
        ]
      }
    },
    "btns": {
      "btnsClass": "d-flex flex-column-reverse flex-md-row justify-content-center",
      "btn": [
        {
          "addClass": "g-p--10 text-center w-10",
          "textClass": "g-btn g-btn-outline g-text--uppercase g-px--60 w-px-lg--24 g-c--pointer",
          "text": "Regresar"
        }
      ]
    }
  }
}