<?xml version="1.0" encoding="UTF-8"?>
<svg width="40px" height="24px" viewBox="0 0 40 24" version="1.1" xmlns="http://www.w3.org/2000/svg" xmlns:xlink="http://www.w3.org/1999/xlink">
    <!-- Generator: Sketch 52.2 (67145) - http://www.bohemiancoding.com/sketch -->
    <title>logo select tarjeta pasarela / dinners club</title>
    <desc>Created with Sketch.</desc>
    <defs>
        <rect id="path-1" x="0" y="0" width="40" height="24" rx="2"></rect>
        <filter x="-23.8%" y="-35.4%" width="147.5%" height="179.2%" filterUnits="objectBoundingBox" id="filter-2">
            <feOffset dx="0" dy="1" in="SourceAlpha" result="shadowOffsetOuter1"></feOffset>
            <feGaussianBlur stdDeviation="3" in="shadowOffsetOuter1" result="shadowBlurOuter1"></feGaussianBlur>
            <feColorMatrix values="0 0 0 0 0   0 0 0 0 0   0 0 0 0 0  0 0 0 0.114470109 0" type="matrix" in="shadowBlurOuter1"></feColorMatrix>
        </filter>
    </defs>
    <g id="logo-select-tarjeta-pasarela-/-dinners-club" stroke="none" stroke-width="1" fill="none" fill-rule="evenodd">
        <g id="Rectangle">
            <use fill="black" fill-opacity="1" filter="url(#filter-2)" xlink:href="#path-1"></use>
            <use fill="#FFFFFF" fill-rule="evenodd" xlink:href="#path-1"></use>
        </g>
        <path d="M19.7118075,11.9915902 C19.7118075,10.7931725 19.71178,9.59475479 19.7118351,8.3963371 C19.7118351,8.22042134 19.7139552,8.21641895 19.8810846,8.29462777 C21.2224704,8.92211024 22.0457274,9.94542346 22.2790202,11.3925842 C22.5701614,13.1984183 21.562649,14.9716654 19.8586997,15.6971523 C19.7125509,15.7593786 19.7118901,15.7592704 19.7118626,15.6003648 C19.7117525,14.397458 19.7118075,13.194497 19.7118075,11.9915902 Z M24.7526873,11.9966878 C24.7830569,8.54973943 21.940948,5.59576084 18.2789686,5.56141603 C14.6138505,5.52707121 11.6653789,8.40681632 11.6639747,11.9844913 C11.6625705,15.5808532 14.6014603,18.3926929 18.156664,18.4206285 C21.8655057,18.449754 24.7785414,15.4776024 24.7526873,11.9966878 Z M21.8482696,5 C22.0242098,5.06452498 22.2110258,5.03850946 22.3921699,5.05857549 C23.9028878,5.22605378 25.2533872,5.76989176 26.4281943,6.71699735 C27.6519562,7.70353187 28.4629332,8.95319635 28.8123356,10.4735088 C29.283602,12.5239483 28.8671276,14.3947131 27.5646193,16.0633032 C26.6182042,17.2757563 25.391386,18.1153383 23.9226845,18.6116614 C23.3275716,18.8128084 22.7148371,18.940993 22.0841506,18.9720386 C20.9656225,19.0270714 19.8462407,18.9810439 18.7273821,18.9969183 C18.0297888,19.0068431 17.3353894,18.9849111 16.6504066,18.8365523 C15.4970208,18.5867546 14.4637093,18.0944339 13.5602192,17.3481779 C12.4994016,16.4718983 11.7464105,15.3882518 11.3287246,14.0864751 C11.1644311,13.574467 11.0593075,13.0504787 11.0342519,12.5126984 C11.0317463,12.4584498 11.0261295,12.4049855 11,12.3557399 L11,11.706704 C11.0334534,11.6595137 11.0342519,11.6046972 11.0351054,11.5508813 C11.0395384,11.2757983 11.0780304,11.0035277 11.1279765,10.7344753 C11.4386666,9.06080109 12.2335364,7.65853205 13.5841735,6.57940175 C14.6792705,5.70442026 15.9401753,5.21639938 17.3401252,5.05925157 C17.521049,5.03894215 17.7078375,5.06568784 17.8834198,5 L21.8482696,5 Z M16.7150859,11.9922257 C16.7150859,13.1858567 16.7150859,14.3794878 16.7150859,15.5731459 C16.7150859,15.7619342 16.713489,15.7650442 16.5444597,15.6863215 C15.2123253,15.0658162 14.3940794,14.0514272 14.1469922,12.6184642 C13.8372383,10.8217165 14.8596188,8.99900747 16.5599612,8.2847435 C16.7147005,8.21975878 16.7150309,8.21975878 16.7150309,8.38428937 C16.7151135,9.5869258 16.7150859,10.7895622 16.7150859,11.9922257 Z" id="Fill-58" fill="#007BC1"></path>
    </g>
</svg>