<?xml version="1.0" encoding="UTF-8"?>
<svg width="40px" height="24px" viewBox="0 0 40 24" version="1.1" xmlns="http://www.w3.org/2000/svg" xmlns:xlink="http://www.w3.org/1999/xlink">
    <!-- Generator: Sketch 52.2 (67145) - http://www.bohemiancoding.com/sketch -->
    <title>logo select tarjeta pasarela / mastecard</title>
    <desc>Created with Sketch.</desc>
    <defs>
        <rect id="path-1" x="0" y="0" width="40" height="24" rx="2"></rect>
        <filter x="-23.8%" y="-35.4%" width="147.5%" height="179.2%" filterUnits="objectBoundingBox" id="filter-2">
            <feOffset dx="0" dy="1" in="SourceAlpha" result="shadowOffsetOuter1"></feOffset>
            <feGaussianBlur stdDeviation="3" in="shadowOffsetOuter1" result="shadowBlurOuter1"></feGaussianBlur>
            <feColorMatrix values="0 0 0 0 0   0 0 0 0 0   0 0 0 0 0  0 0 0 0.114470109 0" type="matrix" in="shadowBlurOuter1"></feColorMatrix>
        </filter>
        <polygon id="path-3" points="0 0.0635187177 9.93528459 0.0635187177 9.93528459 11.9132808 0 11.9132808"></polygon>
    </defs>
    <g id="logo-select-tarjeta-pasarela-/-mastecard" stroke="none" stroke-width="1" fill="none" fill-rule="evenodd">
        <g id="Rectangle">
            <use fill="black" fill-opacity="1" filter="url(#filter-2)" xlink:href="#path-1"></use>
            <use fill="#FFFFFF" fill-rule="evenodd" xlink:href="#path-1"></use>
        </g>
        <g id="isologo" transform="translate(10.000000, 6.000000)">
            <g id="Group-3" transform="translate(0.000000, -0.000000)">
                <mask id="mask-4" fill="white">
                    <use xlink:href="#path-3"></use>
                </mask>
                <g id="Clip-2"></g>
                <path d="M9.86675238,10.6432941 C7.95367675,11.9988706 5.88685882,12.2915294 3.68996807,11.4136941 C1.37152549,10.4873647 -0.0888442577,8.2284 0.00415854342,5.80397647 C0.11682521,2.86955294 2.28793445,0.509011765 5.29934622,0.119364706 C6.7590605,-0.0695294118 8.14412493,0.219105882 9.39496527,1.01054118 C9.56691485,1.11938824 9.74177759,1.22378824 9.91540224,1.33009412 C9.92217535,1.36581176 9.92872997,1.40152941 9.93528459,1.43731765 C9.83609132,1.43308235 9.74250588,1.44310588 9.66712773,1.51743529 C9.37857871,1.80197647 9.03934062,2.05228235 8.8085451,2.37550588 C7.92083081,3.61870588 7.42420896,4.97308235 7.59149748,6.5232 C7.77196807,8.19571765 8.52888123,9.54734118 9.85976078,10.6097647 C9.85458992,10.6224 9.85692045,10.6335529 9.86675238,10.6432941" id="Fill-1" fill="#EC1F25" mask="url(#mask-4)"></path>
            </g>
            <path d="M9.93531373,1.43731765 C9.92868627,1.40152941 9.92213165,1.36581176 9.9155042,1.33009412 C10.6127703,0.710541176 11.4639972,0.378847059 12.3644566,0.191294118 C16.2085966,-0.609529412 19.8525294,2.30054118 19.7309776,6.11964706 C19.6550896,8.50475294 18.4660812,10.3011529 16.2349608,11.3210824 C14.0068992,12.3395294 11.8550896,12.0561882 9.86663585,10.6434353 C9.85694958,10.6335529 9.85461905,10.6224 9.85978992,10.6097647 C10.2118459,10.3766118 10.5040364,10.0852941 10.7761261,9.76729412 C11.6052129,8.79847059 12.0785294,7.68670588 12.1794706,6.43821176 C12.2890056,5.08404706 11.9572689,3.82771765 11.1608824,2.70225882 C10.8209888,2.22183529 10.4777451,1.73682353 9.93531373,1.43731765" id="Fill-4" fill="#F79A1D"></path>
            <path d="M9.93531373,1.43731765 C10.4777451,1.73682353 10.8209888,2.22183529 11.1608824,2.70225882 C11.9572689,3.82771765 12.2890056,5.08404706 12.1794706,6.43821176 C12.0785294,7.68670588 11.6052129,8.79847059 10.7761261,9.76729412 C10.5040364,10.0852941 10.2118459,10.3766118 9.85978992,10.6097647 C8.52883754,9.54734118 7.7719972,8.19571765 7.59145378,6.5232 C7.4242381,4.97308235 7.92085994,3.61870588 8.8085014,2.37550588 C9.03929692,2.05228235 9.37853501,1.80197647 9.66708403,1.51743529 C9.74253501,1.44310588 9.83612045,1.43308235 9.93531373,1.43731765" id="Fill-27" fill="#F05523"></path>
        </g>
    </g>
</svg>