<?xml version="1.0" encoding="UTF-8"?>
<svg width="40px" height="24px" viewBox="0 0 40 24" version="1.1" xmlns="http://www.w3.org/2000/svg" xmlns:xlink="http://www.w3.org/1999/xlink">
    <!-- Generator: Sketch 52.2 (67145) - http://www.bohemiancoding.com/sketch -->
    <title>logo select tarjeta pasarela /  unknown</title>
    <desc>Created with Sketch.</desc>
    <defs>
        <rect id="path-1" x="0" y="0" width="40" height="24" rx="2"></rect>
        <filter x="-23.8%" y="-35.4%" width="147.5%" height="179.2%" filterUnits="objectBoundingBox" id="filter-2">
            <feOffset dx="0" dy="1" in="SourceAlpha" result="shadowOffsetOuter1"></feOffset>
            <feGaussianBlur stdDeviation="3" in="shadowOffsetOuter1" result="shadowBlurOuter1"></feGaussianBlur>
            <feColorMatrix values="0 0 0 0 0   0 0 0 0 0   0 0 0 0 0  0 0 0 0.114470109 0" type="matrix" in="shadowBlurOuter1"></feColorMatrix>
        </filter>
    </defs>
    <g id="logo-select-tarjeta-pasarela-/--unknown" stroke="none" stroke-width="1" fill="none" fill-rule="evenodd">
        <g id="Rectangle">
            <use fill="black" fill-opacity="1" filter="url(#filter-2)" xlink:href="#path-1"></use>
            <use fill="#FFFFFF" fill-rule="evenodd" xlink:href="#path-1"></use>
        </g>
        <rect id="Rectangle" stroke="#F7F8F9" fill-rule="nonzero" x="15.5" y="4.5" width="8" height="17" rx="4"></rect>
        <rect id="Rectangle" stroke="#E8E8E8" fill-rule="nonzero" x="15.5" y="3.5" width="8" height="17" rx="4"></rect>
        <rect id="Rectangle" fill="#E8E8E8" fill-rule="nonzero" x="0" y="7" width="16" height="1"></rect>
        <rect id="Rectangle-Copy-4" fill="#F7F8F9" fill-rule="nonzero" x="0" y="8" width="15" height="1"></rect>
        <rect id="Rectangle-Copy-2" fill="#E8E8E8" fill-rule="nonzero" x="24" y="7" width="16" height="1"></rect>
        <rect id="Rectangle-Copy-5" fill="#F7F8F9" fill-rule="nonzero" x="24" y="8" width="16" height="1"></rect>
        <rect id="Rectangle-Copy" fill="#E8E8E8" fill-rule="nonzero" x="0" y="16" width="16" height="1"></rect>
        <rect id="Rectangle-Copy-3" fill="#E8E8E8" fill-rule="nonzero" x="24" y="16" width="16" height="1"></rect>
    </g>
</svg>