<?xml version="1.0" encoding="UTF-8"?>
<svg width="47px" height="35px" viewBox="0 0 47 35" version="1.1" xmlns="http://www.w3.org/2000/svg" xmlns:xlink="http://www.w3.org/1999/xlink">
    <!-- Generator: Sketch 49.2 (51160) - http://www.bohemiancoding.com/sketch -->
    <title>img_reverso@1x</title>
    <desc>Created with Sketch.</desc>
    <defs>
        <path d="M3.816,0.0001 C2.756,0.0001 1.855,0.4071 1.114,1.2241 C0.371,2.0391 0,3.0301 0,4.1951 L0,25.1731 C0,26.3371 0.371,27.3281 1.114,28.1451 C1.855,28.9601 2.756,29.3681 3.816,29.3681 L36.893,29.3681 C37.953,29.3681 38.854,28.9601 39.597,28.1451 C40.339,27.3281 40.71,26.3371 40.71,25.1731 L40.71,4.1951 C40.71,3.0301 40.339,2.0391 39.597,1.2241 C38.854,0.4071 37.953,0.0001 36.893,0.0001 L3.816,0.0001 Z M2.892,26.3471 C2.447,25.8641 2.24,25.3181 2.24,24.6211 L2.24,4.7471 C2.24,4.0511 2.447,3.5041 2.892,3.0211 C3.338,2.5381 3.841,2.3131 4.483,2.3131 L36.227,2.3131 C36.869,2.3131 37.373,2.5381 37.818,3.0211 C38.263,3.5041 38.47,4.0511 38.47,4.7471 L38.47,24.6211 C38.47,25.3181 38.263,25.8641 37.818,26.3471 C37.373,26.8301 36.869,27.0551 36.227,27.0551 L4.483,27.0551 C3.841,27.0551 3.338,26.8301 2.892,26.3471 Z M20.079,21.4941 L20.05,21.4951 C20.067,21.4941 20.082,21.4941 20.096,21.4931 C20.091,21.4931 20.085,21.4931 20.079,21.4941 Z" id="path-1"></path>
    </defs>
    <g id="Symbols" stroke="none" stroke-width="1" fill="none" fill-rule="evenodd">
        <g id="Imagemaking-/-reverso" transform="translate(-7.000000, -14.000000)">
            <g id="img_reverso" transform="translate(7.000000, 14.000000)">
                <g id="Page-1">
                    <mask id="mask-2" fill="white">
                        <use xlink:href="#path-1"></use>
                    </mask>
                    <g id="Clip-2"></g>
                    <polygon id="Fill-1" fill="#797B7F" mask="url(#mask-2)" points="-5 34.3681 45.71 34.3681 45.71 -4.9999 -5 -4.9999"></polygon>
                </g>
                <path d="M37.5,17 C42.2218814,17 46,20.7780955 46,25.5 C46,30.2219045 42.2218814,34 37.5,34 C32.7781186,34 29,30.2219045 29,25.5 C29,20.7780955 32.7781186,17 37.5,17 Z" id="Path" stroke="#8DB602" stroke-width="2" fill="#F2F2F2"></path>
                <path d="M37.4524793,20.5 C36.631903,20.5 35.9667355,21.1651675 35.9667355,21.9857438 L35.9667355,23.9667355 L33.9857438,23.9667355 C33.1651923,23.9667355 32.5,24.6319526 32.5,25.4524793 C32.5,26.2730556 33.1651923,26.9382231 33.9857438,26.9382231 L35.9667355,26.9382231 L35.9667355,28.9192149 C35.9667355,29.7397417 36.631903,30.4049587 37.4524793,30.4049587 C38.2730061,30.4049587 38.9382231,29.7397417 38.9382231,28.9192149 L38.9382231,26.9382231 L40.9192149,26.9382231 C41.7397664,26.9382231 42.4049587,26.2730556 42.4049587,25.4524793 C42.4049587,24.6319526 41.7397664,23.9667355 40.9192149,23.9667355 L38.9382231,23.9667355 L38.9382231,21.9857438 C38.9382231,21.1651675 38.2730061,20.5 37.4524793,20.5 Z" id="Path" fill="#8DB602"></path>
                <rect id="Rectangle-10" fill="#797B7F" x="7" y="7" width="28" height="2" rx="0.5"></rect>
                <rect id="Rectangle-10-Copy" fill="#797B7F" x="7" y="12" width="28" height="2" rx="0.5"></rect>
                <rect id="Rectangle-10-Copy-2" fill="#797B7F" x="7" y="21" width="14" height="2" rx="0.5"></rect>
            </g>
        </g>
    </g>
</svg>