<?xml version="1.0" encoding="UTF-8"?>
<svg width="60px" height="60px" viewBox="0 0 60 60" version="1.1" xmlns="http://www.w3.org/2000/svg" xmlns:xlink="http://www.w3.org/1999/xlink">
    <!-- Generator: Sketch 52.2 (67145) - http://www.bohemiancoding.com/sketch -->
    <title>Imagemaking / reverso</title>
    <desc>Created with Sketch.</desc>
    <g id="Imagemaking-/-reverso" stroke="none" stroke-width="1" fill="none" fill-rule="evenodd">
        <g id="ic_upload-dni-back" transform="translate(4.000000, 11.000000)">
            <path d="M37.79,15.38 L7.15,15.38 C6.73578644,15.38 6.4,15.0442136 6.4,14.63 C6.4,14.2157864 6.73578644,13.88 7.15,13.88 L37.79,13.88 C38.2042136,13.88 38.54,14.2157864 38.54,14.63 C38.54,15.0442136 38.2042136,15.38 37.79,15.38 Z" id="Path" fill="#221F1F"></path>
            <path d="M19.75,20.61 L7.15,20.61 C6.73578644,20.61 6.4,20.2742136 6.4,19.86 C6.4,19.4457864 6.73578644,19.11 7.15,19.11 L19.75,19.11 C20.1642136,19.11 20.5,19.4457864 20.5,19.86 C20.5,20.2742136 20.1642136,20.61 19.75,20.61 Z" id="Path" fill="#221F1F"></path>
            <path d="M37.79,10.38 L7.15,10.38 C6.73578644,10.38 6.4,10.0442136 6.4,9.63 C6.4,9.21578644 6.73578644,8.88 7.15,8.88 L37.79,8.88 C38.2042136,8.88 38.54,9.21578644 38.54,9.63 C38.54,10.0442136 38.2042136,10.38 37.79,10.38 Z" id="Path" fill="#221F1F"></path>
            <path d="M40.75,29.57 L3.75,29.57 C1.68121249,29.5645052 0.00549481659,27.8887875 0,25.82 L0,3.75 C-2.53632657e-16,1.67893219 1.67893219,3.80448985e-16 3.75,0 L40.75,0 C42.8210678,1.26816328e-16 44.5,1.67893219 44.5,3.75 L44.5,25.82 C44.4945052,27.8887875 42.8187875,29.5645052 40.75,29.57 Z M3.75,1.5 C2.50735931,1.5 1.5,2.50735931 1.5,3.75 L1.5,25.82 C1.5,27.0626407 2.50735931,28.07 3.75,28.07 L40.75,28.07 C41.9926407,28.07 43,27.0626407 43,25.82 L43,3.75 C43,2.50735931 41.9926407,1.5 40.75,1.5 L3.75,1.5 Z" id="Shape" fill="#221F1F" fill-rule="nonzero"></path>
            <circle id="Oval" fill="#8DB602" cx="43.75" cy="28.82" r="9"></circle>
            <circle id="Oval" fill="#FFFFFF" cx="43.85" cy="32.18" r="1.08"></circle>
            <circle id="Oval" fill="#FFFFFF" cx="43.85" cy="25.46" r="1.08"></circle>
            <rect id="Rectangle" fill="#FFFFFF" x="42.77" y="25.36" width="2.15" height="6.82"></rect>
            <circle id="Oval" fill="#FFFFFF" cx="40.53" cy="28.77" r="1.08"></circle>
            <circle id="Oval" fill="#FFFFFF" cx="47.25" cy="28.77" r="1.08"></circle>
            <rect id="Rectangle" fill="#FFFFFF" transform="translate(43.930000, 28.765000) rotate(90.000000) translate(-43.930000, -28.765000) " x="42.855" y="25.355" width="2.15" height="6.82"></rect>
        </g>
    </g>
</svg>