<svg width="16" height="14" viewBox="0 0 16 14" fill="none" xmlns="http://www.w3.org/2000/svg">
<path fill-rule="evenodd" clip-rule="evenodd" d="M13.8463 2.21071H2.05692C1.64998 2.21071 1.32009 2.5406 1.32009 2.94755V4.42121H14.5831V2.94755C14.5831 2.5406 14.2532 2.21071 13.8463 2.21071ZM2.05692 1.47388C1.24304 1.47388 0.583252 2.13366 0.583252 2.94755V5.15805H15.3199V2.94755C15.3199 2.13366 14.6602 1.47388 13.8463 1.47388H2.05692Z" fill="#8E8E8E"/>
<path fill-rule="evenodd" clip-rule="evenodd" d="M13.8463 2.21071H2.05692C1.64998 2.21071 1.32009 2.5406 1.32009 2.94755V12.5264C1.32009 12.9333 1.64998 13.2632 2.05692 13.2632H13.8463C14.2532 13.2632 14.5831 12.9333 14.5831 12.5264V2.94755C14.5831 2.5406 14.2532 2.21071 13.8463 2.21071ZM2.05692 1.47388C1.24304 1.47388 0.583252 2.13366 0.583252 2.94755V12.5264C0.583252 13.3403 1.24304 14.0001 2.05692 14.0001H13.8463C14.6602 14.0001 15.3199 13.3403 15.3199 12.5264V2.94755C15.3199 2.13366 14.6602 1.47388 13.8463 1.47388H2.05692Z" fill="#8E8E8E"/>
<path d="M4.26746 0.368417C4.26746 0.164946 4.4324 0 4.63587 0C4.83934 0 5.00429 0.164946 5.00429 0.368417V2.57892C5.00429 2.78239 4.83934 2.94734 4.63587 2.94734C4.4324 2.94734 4.26746 2.78239 4.26746 2.57892V0.368417Z" fill="#8E8E8E"/>
<path d="M10.8989 0.368417C10.8989 0.164946 11.0639 0 11.2673 0C11.4708 0 11.6358 0.164946 11.6358 0.368417V2.57892C11.6358 2.78239 11.4708 2.94734 11.2673 2.94734C11.0639 2.94734 10.8989 2.78239 10.8989 2.57892V0.368417Z" fill="#8E8E8E"/>
</svg>
