<?xml version="1.0" encoding="UTF-8"?>
<svg width="200px" height="100px" viewBox="0 0 200 100" version="1.1" xmlns="http://www.w3.org/2000/svg" xmlns:xlink="http://www.w3.org/1999/xlink">
    <!-- Generator: Sketch 52 (66869) - http://www.bohemiancoding.com/sketch -->
    <title>imagemaking / tarjeta@1x</title>
    <desc>Created with Sketch.</desc>
    <g id="imagemaking-/-tarjeta" stroke="none" stroke-width="1" fill="none" fill-rule="evenodd">
        <g id="image-making_pago-electronico" transform="translate(55.000000, 1.000000)">
            <polygon id="Path" fill="#8DB602" points="78.05625 74.9598113 78.05625 32.8754717 70.275 32.8754717 70.275 74.9598113"></polygon>
            <path d="M22.875,91.8832075 C20.6886842,91.8832132 18.5921871,91.0167036 17.0479881,89.4748275 C15.5037892,87.9329515 14.6387698,85.8423995 14.64375,83.6643396 L14.64375,18.9220755 C14.6575393,18.0324799 14.8093329,17.1503585 15.09375,16.3069811 L9.24375,16.3069811 C4.69472486,16.3172808 1.01248825,19.9939783 1.0125,24.5258491 L1.0125,89.2681132 C1.01248825,93.7999839 4.69472486,97.4766814 9.24375,97.4869811 L53.4375,97.4869811 C56.971324,97.4814161 60.1053564,95.2243998 61.21875,91.8832075 L22.875,91.8832075 Z" id="Path" fill="#E0E1E0"></path>
            <path d="M53.3625,98.4209434 L9.16875,98.4209434 C4.10195773,98.410642 -1.05514537e-05,94.315796 0,89.2681132 L0,24.5258491 C-1.05514537e-05,19.4781662 4.10195773,15.3833203 9.16875,15.3730189 L13.125,15.3730189 L13.125,17.2409434 L9.16875,17.2409434 C5.13749203,17.251241 1.87498675,20.5097902 1.875,24.5258491 L1.875,89.2681132 C1.87498675,93.2841721 5.13749203,96.5427213 9.16875,96.5530189 L53.3625,96.5530189 C57.393758,96.5427213 60.6562633,93.2841721 60.65625,89.2681132 L60.65625,24.5258491 C60.6562633,20.5097902 57.393758,17.251241 53.3625,17.2409434 L48.5625,17.2409434 L48.5625,15.3730189 L53.3625,15.3730189 C58.4292923,15.3833203 62.5312606,19.4781662 62.53125,24.5258491 L62.53125,89.2681132 C62.5312606,94.315796 58.4292923,98.410642 53.3625,98.4209434 Z" id="Path" fill="#231F20"></path>
            <path d="M45.61875,45.0730189 L16.6125,45.0730189 C12.7603139,45.0730189 9.6375,41.9619892 9.6375,38.1243396 C9.6375,34.28669 12.7603139,31.1756604 16.6125,31.1756604 L45.61875,31.1756604 C49.4709361,31.1756604 52.59375,34.28669 52.59375,38.1243396 C52.59375,41.9619892 49.4709361,45.0730189 45.61875,45.0730189 Z M16.6125,33.0435849 C13.7958478,33.0435849 11.5125,35.3183163 11.5125,38.1243396 C11.5125,40.930363 13.7958478,43.2050943 16.6125,43.2050943 L45.61875,43.2050943 C48.4354022,43.2050943 50.71875,40.930363 50.71875,38.1243396 C50.71875,35.3183163 48.4354022,33.0435849 45.61875,33.0435849 L16.6125,33.0435849 Z" id="Shape" fill="#231F20" fill-rule="nonzero"></path>
            <ellipse id="Oval" fill="#231F20" cx="17.38125" cy="69.2813208" rx="3.05625" ry="3.04471698"></ellipse>
            <ellipse id="Oval" fill="#231F20" cx="32.38125" cy="69.2813208" rx="3.05625" ry="3.04471698"></ellipse>
            <ellipse id="Oval" fill="#231F20" cx="47.38125" cy="69.2813208" rx="3.05625" ry="3.04471698"></ellipse>
            <ellipse id="Oval" fill="#231F20" cx="17.38125" cy="54.3379245" rx="3.05625" ry="3.04471698"></ellipse>
            <ellipse id="Oval" fill="#231F20" cx="32.38125" cy="54.3379245" rx="3.05625" ry="3.04471698"></ellipse>
            <ellipse id="Oval" fill="#231F20" cx="47.38125" cy="54.3379245" rx="3.05625" ry="3.04471698"></ellipse>
            <ellipse id="Oval" fill="#231F20" cx="17.38125" cy="84.224717" rx="3.05625" ry="3.04471698"></ellipse>
            <ellipse id="Oval" fill="#231F20" cx="32.38125" cy="84.224717" rx="3.05625" ry="3.04471698"></ellipse>
            <ellipse id="Oval" fill="#231F20" cx="47.38125" cy="84.224717" rx="3.05625" ry="3.04471698"></ellipse>
            <path d="M84.15,75.8937736 L60.65625,75.8937736 L60.65625,31.2877358 L61.63125,31.2877358 C66.0375,31.2877358 72,31.2877358 77.775,31.2877358 L84.0375,31.2877358 C85.1430642,31.2923514 86.2000516,31.7409003 86.9693616,32.5319166 C87.7386715,33.3229329 88.1552994,34.3895778 88.125,35.490566 L88.125,71.9150943 C88.1148424,74.1009829 86.3440963,75.8733679 84.15,75.8937736 Z M62.53125,74.0258491 L84.15,74.0258491 C85.3085807,74.0056396 86.240013,73.0694371 86.25,71.9150943 L86.25,35.490566 C86.2485517,34.9015876 86.0125239,34.3372584 85.59375,33.9215094 C85.1813113,33.4971189 84.6116493,33.2606554 84.01875,33.2677358 L77.775,33.2677358 C72.39375,33.2677358 66.84375,33.2677358 62.5125,33.2675813 L62.53125,74.0258491 Z" id="Shape" fill="#231F20" fill-rule="nonzero"></path>
            <path d="M22.3875,20.939434 L22.3875,0.933962264 L16.48125,0.933962264 C14.6155758,0.974597797 13.1245542,2.49318616 13.125,4.35226415 L13.1249999,24.675283 L49.1625,24.675283 L49.1625,20.939434 L22.3875,20.939434 Z" id="Path" fill="#E0E1E0"></path>
            <path d="M50.1000405,25.6092453 L12.1125,25.6092453 L12.1125,4.35226415 C12.1125,1.94857503 14.068456,4.41550528e-16 16.48125,0 L45.75,0 C46.9069477,-1.07070013e-05 48.0162383,0.45912534 48.8325626,1.27587461 C49.648887,2.09262388 50.1049868,3.19969296 50.1,4.35226415 L50.1000405,25.6092453 Z M13.9875,23.7413208 L48.2250711,23.7413208 L48.225,4.35226415 C48.2299975,3.69509993 47.9714472,3.06314016 47.5067519,2.59669129 C47.0420566,2.13024242 46.4096724,1.86790567 45.75,1.86792453 L16.48125,1.86792453 C15.1039899,1.86792453 13.9875,2.98020126 13.9875,4.35226415 L13.9875,23.7413208 Z" id="Shape" fill="#231F20" fill-rule="nonzero"></path>
        </g>
    </g>
</svg>