<svg width="35" height="32" viewBox="0 0 35 32" fill="none" xmlns="http://www.w3.org/2000/svg">
<path d="M25.1501 25V29.2744C25.1588 30.2321 24.3736 31 23.4072 31H2.75151C1.78516 31 1 30.2235 1 29.2744V2.72563C1 1.77653 1.78516 1 2.75151 1H23.3986C24.365 1 25.1501 1.77653 25.1501 2.72563V7.36281" stroke="#797B7F" stroke-miterlimit="10" stroke-linecap="round"/>
<path d="M13.7354 12.0958L15.8838 15.8145C16.0391 16.082 16.436 16.0733 16.574 15.7886L17.1866 14.5116L18.6016 14.6152C18.9122 14.6411 19.1279 14.3046 18.9726 14.0285L16.643 9.99051" stroke="#797B7F" stroke-miterlimit="10" stroke-linecap="round"/>
<path d="M9.40392 10.094L7.18649 13.9335C7.03119 14.201 7.23826 14.5375 7.5575 14.5202L8.97252 14.4167L9.58511 15.6936C9.72316 15.9784 10.1201 15.987 10.2754 15.7195L12.4065 12.0353" stroke="#797B7F" stroke-miterlimit="10" stroke-linecap="round"/>
<path d="M12.9932 11.9147C15.2757 11.9147 17.1261 10.0644 17.1261 7.78186C17.1261 5.49934 15.2757 3.64899 12.9932 3.64899C10.7107 3.64899 8.86035 5.49934 8.86035 7.78186C8.86035 10.0644 10.7107 11.9147 12.9932 11.9147Z" stroke="#797B7F" stroke-miterlimit="10" stroke-linecap="round"/>
<path d="M12.2264 9.21409L12.226 9.21452L12.2256 9.21409L12.226 9.21365L12.2264 9.21409Z" fill="#797B7F" stroke="#797B7F"/>
<mask id="path-6-inside-1" fill="white">
<path d="M11.8531 8.88003L12.5547 9.58163L13.4088 8.7275L12.7072 8.02589L11.8531 8.88003Z"/>
</mask>
<path d="M11.8531 8.88003L12.5547 9.58163L13.4088 8.7275L12.7072 8.02589L11.8531 8.88003Z" fill="#797B7F"/>
<path d="M12.5547 9.58163L11.8476 10.2887L12.5547 10.9958L13.2618 10.2887L12.5547 9.58163ZM11.8531 8.88003L11.146 8.17293L10.4389 8.88003L11.146 9.58713L11.8531 8.88003ZM12.7072 8.02589L13.4143 7.31879L12.7072 6.61169L12.0001 7.31879L12.7072 8.02589ZM13.4088 8.7275L14.1159 9.4346L14.823 8.7275L14.1159 8.0204L13.4088 8.7275ZM13.2618 8.87453L12.5602 8.17293L11.146 9.58713L11.8476 10.2887L13.2618 8.87453ZM12.5602 9.58713L13.4143 8.73299L12.0001 7.31879L11.146 8.17293L12.5602 9.58713ZM12.0001 8.73299L12.7017 9.4346L14.1159 8.0204L13.4143 7.31879L12.0001 8.73299ZM12.7017 8.0204L11.8476 8.87453L13.2618 10.2887L14.1159 9.4346L12.7017 8.0204Z" fill="#797B7F" mask="url(#path-6-inside-1)"/>
<path d="M14.6073 6.82389L14.6069 6.82432L14.6064 6.82389L14.6069 6.82346L14.6073 6.82389Z" fill="#797B7F" stroke="#797B7F"/>
<mask id="path-9-inside-2" fill="white">
<path d="M14.9506 7.18327L14.249 6.48166L12.675 8.0557L13.3766 8.75731L14.9506 7.18327Z"/>
</mask>
<path d="M14.9506 7.18327L14.249 6.48166L12.675 8.0557L13.3766 8.75731L14.9506 7.18327Z" fill="#797B7F"/>
<path d="M14.249 6.48166L14.9561 5.77456L14.249 5.06746L13.5419 5.77456L14.249 6.48166ZM14.9506 7.18327L15.6577 7.89037L16.3648 7.18327L15.6577 6.47617L14.9506 7.18327ZM13.3766 8.75731L12.6695 9.46441L13.3766 10.1715L14.0837 9.46441L13.3766 8.75731ZM12.675 8.0557L11.9679 7.3486L11.2608 8.0557L11.9679 8.7628L12.675 8.0557ZM13.5419 7.18876L14.2435 7.89037L15.6577 6.47617L14.9561 5.77456L13.5419 7.18876ZM14.2435 6.47617L12.6695 8.05021L14.0837 9.46441L15.6577 7.89037L14.2435 6.47617ZM14.0837 8.05021L13.3821 7.3486L11.9679 8.7628L12.6695 9.46441L14.0837 8.05021ZM13.3821 8.7628L14.9561 7.18876L13.5419 5.77456L11.9679 7.3486L13.3821 8.7628Z" fill="#797B7F" mask="url(#path-9-inside-2)"/>
<path d="M12.2264 9.21409L12.226 9.21452L12.2256 9.21409L12.226 9.21365L12.2264 9.21409Z" fill="#797B7F" stroke="#797B7F"/>
<path d="M11.372 8.35978L11.3715 8.36021L11.3711 8.35978L11.3715 8.35934L11.372 8.35978Z" fill="#797B7F" stroke="#797B7F"/>
<mask id="path-13-inside-3" fill="white">
<path d="M11.7319 8.02669L11.0303 8.7283L11.8844 9.58243L12.586 8.88083L11.7319 8.02669Z"/>
</mask>
<path d="M11.7319 8.02669L11.0303 8.7283L11.8844 9.58243L12.586 8.88083L11.7319 8.02669Z" fill="#797B7F"/>
<path d="M11.0303 8.7283L10.3232 8.0212L9.61607 8.7283L10.3232 9.4354L11.0303 8.7283ZM11.7319 8.02669L12.439 7.31959L11.7319 6.61249L11.0248 7.31959L11.7319 8.02669ZM12.586 8.88083L13.2931 9.58793L14.0002 8.88083L13.2931 8.17372L12.586 8.88083ZM11.8844 9.58243L11.1773 10.2895L11.8844 10.9966L12.5915 10.2895L11.8844 9.58243ZM11.7374 9.4354L12.439 8.73379L11.0248 7.31959L10.3232 8.0212L11.7374 9.4354ZM11.0248 8.73379L11.8789 9.58793L13.2931 8.17372L12.439 7.31959L11.0248 8.73379ZM11.8789 8.17373L11.1773 8.87533L12.5915 10.2895L13.2931 9.58793L11.8789 8.17373ZM12.5915 8.87533L11.7374 8.0212L10.3232 9.4354L11.1773 10.2895L12.5915 8.87533Z" fill="#797B7F" mask="url(#path-13-inside-3)"/>
<path d="M7.4541 19.05H18.7052" stroke="#797B7F" stroke-miterlimit="10" stroke-linecap="round" stroke-linejoin="round"/>
<path d="M7.4541 22.4668H18.7052" stroke="#797B7F" stroke-miterlimit="10" stroke-linecap="round" stroke-linejoin="round"/>
<path d="M7.4541 25.8749H18.7052" stroke="#797B7F" stroke-miterlimit="10" stroke-linecap="round" stroke-linejoin="round"/>
<path d="M28 23C26.1435 23 24.363 22.2625 23.0503 20.9497C21.7375 19.637 21 17.8565 21 16C21 14.1435 21.7375 12.363 23.0503 11.0503C24.363 9.7375 26.1435 9 28 9C29.8565 9 31.637 9.7375 32.9497 11.0503C34.2625 12.363 35 14.1435 35 16C35 17.8565 34.2625 19.637 32.9497 20.9497C31.637 22.2625 29.8565 23 28 23ZM30.492 15.3809L28.7778 17.0951V12.8889C28.7778 12.6826 28.6958 12.4848 28.55 12.3389C28.4041 12.1931 28.2063 12.1111 28 12.1111C27.7937 12.1111 27.5959 12.1931 27.45 12.3389C27.3042 12.4848 27.2222 12.6826 27.2222 12.8889V17.0951L25.508 15.3809C25.3438 15.2167 25.1211 15.1244 24.8889 15.1244C24.6567 15.1244 24.434 15.2167 24.2698 15.3809C24.1056 15.5451 24.0133 15.7678 24.0133 16C24.0133 16.2322 24.1056 16.4549 24.2698 16.6191L27.3809 19.7302C27.7231 20.0724 28.2769 20.0724 28.6191 19.7302L31.7302 16.6191C31.8944 16.4549 31.9867 16.2322 31.9867 16C31.9867 15.7678 31.8944 15.5451 31.7302 15.3809C31.566 15.2167 31.3433 15.1244 31.1111 15.1244C30.8789 15.1244 30.6562 15.2167 30.492 15.3809Z" fill="#8DB602"/>
</svg>
