<svg width="40" height="40" viewBox="0 0 40 40" fill="none" xmlns="http://www.w3.org/2000/svg">
<rect width="40" height="40" rx="20" fill="#F2C94C"/>
<path fill-rule="evenodd" clip-rule="evenodd" d="M20.0487 22.9438C20.8267 22.9438 21.4574 23.5723 21.4574 24.3476C21.4574 25.1229 20.8267 25.7513 20.0487 25.7513C19.2707 25.7513 18.64 25.1229 18.64 24.3476C18.64 23.5723 19.2707 22.9438 20.0487 22.9438ZM20.086 21.4779C19.3842 21.4779 18.8046 20.9299 18.7652 20.2293L18.5043 15.5873C18.4523 14.6616 19.1889 13.8824 20.116 13.8824C21.0431 13.8824 21.7797 14.6616 21.7277 15.5873L21.4702 20.1693C21.4289 20.9036 20.8214 21.4779 20.086 21.4779ZM20 8C13.3726 8 8 13.3726 8 20C8 26.6274 13.3726 32 20 32C26.6274 32 32 26.6274 32 20C32 13.3726 26.6274 8 20 8ZM20 9.60001C25.7438 9.60001 30.4 14.2562 30.4 20C30.4 25.7438 25.7438 30.4 20 30.4C14.2562 30.4 9.6 25.7438 9.6 20C9.6 14.2562 14.2562 9.60001 20 9.60001Z" fill="#303030"/>
</svg>
