<?xml version="1.0" encoding="UTF-8"?>
<svg width="200px" height="100px" viewBox="0 0 200 100" version="1.1" xmlns="http://www.w3.org/2000/svg" xmlns:xlink="http://www.w3.org/1999/xlink">
    <!-- Generator: Sketch 53.2 (72643) - https://sketchapp.com -->
    <title>imagemaking / SESION EXPIRADA@1x</title>
    <desc>Created with Sketch.</desc>
    <defs>
        <polygon id="path-1" points="0.421806667 1.84614375 73.8732067 1.84614375 73.8732067 10.3125 0.421806667 10.3125"></polygon>
        <polygon id="path-3" points="0.000413333333 0.375375 77.9013467 0.375375 77.9013467 78.1169812 0.000413333333 78.1169812"></polygon>
        <polygon id="path-5" points="0.450420048 0.1438625 35.4353333 0.1438625 35.4353333 30.6276125 0.450420048 30.6276125"></polygon>
    </defs>
    <g id="imagemaking-/-SESION-EXPIRADA" stroke="none" stroke-width="1" fill="none" fill-rule="evenodd">
        <g id="Group-18" transform="translate(54.000000, 1.000000)">
            <path d="M54.0896267,74.039525 C33.1480933,74.039525 16.1724933,57.0960875 16.1724933,36.196775 C16.1724933,21.59015 24.4784267,8.9429 36.6200933,2.6337125 C17.0880267,4.1640875 1.70582667,20.43515 1.70582667,40.321775 C1.70582667,61.2210875 18.6814267,78.164525 39.62296,78.164525 C45.92836,78.164525 51.8596933,76.605275 57.0904267,73.8889625 C56.0984267,73.965275 55.1022933,74.039525 54.0896267,74.039525" id="Fill-1" fill="#DFE0DF"></path>
            <path d="M42.05088,40.9650688 L22.1385467,40.9650688 C21.5681467,40.9650688 21.1052133,40.5030688 21.1052133,39.9338188 C21.1052133,39.3645688 21.5681467,38.9025688 22.1385467,38.9025688 L39.9842133,38.9025688 L39.9842133,14.8414438 C39.9842133,14.2721938 40.4471467,13.8101938 41.0175467,13.8101938 C41.5879467,13.8101938 42.05088,14.2721938 42.05088,14.8414438 L42.05088,40.9650688 Z" id="Fill-3" fill="#231F20"></path>
            <g id="Group-7" transform="translate(4.133333, 87.313156)">
                <mask id="mask-2" fill="white">
                    <use xlink:href="#path-1"></use>
                </mask>
                <g id="Clip-6"></g>
                <path d="M73.8732067,6.08045625 C73.8732067,8.41726875 57.4308067,10.3127062 37.1464733,10.3127062 C16.8662733,10.3127062 0.421806667,8.41726875 0.421806667,6.08045625 C0.421806667,3.74158125 16.8662733,1.84614375 37.1464733,1.84614375 C57.4308067,1.84614375 73.8732067,3.74158125 73.8732067,6.08045625" id="Fill-5" fill="#DFE0DF" mask="url(#mask-2)"></path>
            </g>
            <g id="Group-10" transform="translate(0.000000, 0.688156)">
                <mask id="mask-4" fill="white">
                    <use xlink:href="#path-3"></use>
                </mask>
                <g id="Clip-9"></g>
                <path d="M38.95088,78.1169812 C17.4720133,78.1169812 0.000413333333,60.6806062 0.000413333333,39.2450438 C0.000413333333,17.8115437 17.4720133,0.37516875 38.95088,0.37516875 C52.5826133,0.37516875 64.9929467,7.29898125 72.14568,18.8984812 C72.4453467,19.3811063 72.2924133,20.0184187 71.8067467,20.3174812 C71.3190133,20.6165437 70.68248,20.4659812 70.38488,19.9792313 C63.6124133,8.99435625 51.85928,2.43766875 38.95088,2.43766875 C18.6128133,2.43766875 2.06708,18.9500437 2.06708,39.2450438 C2.06708,59.5421063 18.6128133,76.0544812 38.95088,76.0544812 C59.2889467,76.0544812 75.83468,59.5421063 75.83468,39.2450438 C75.83468,38.6757937 76.2976133,38.2137938 76.8680133,38.2137938 C77.44048,38.2137938 77.9013467,38.6757937 77.9013467,39.2450438 C77.9013467,60.6806062 60.4297467,78.1169812 38.95088,78.1169812" id="Fill-8" fill="#231F20" mask="url(#mask-4)"></path>
            </g>
            <g id="Group-13" transform="translate(56.800000, 12.000656)">
                <mask id="mask-6" fill="white">
                    <use xlink:href="#path-5"></use>
                </mask>
                <g id="Clip-12"></g>
                <path d="M34.91846,25.1454875 L21.06766,1.91555 C20.4063267,0.805925 19.2365933,0.1438625 17.94286,0.1438625 C16.6491267,0.1438625 15.48146,0.805925 14.81806,1.91555 L0.96726,25.1454875 C0.29146,26.281925 0.276993333,27.6452375 0.932126667,28.79405 C1.58519333,29.9408 2.76732667,30.6276125 4.09206,30.6276125 L31.7957267,30.6276125 C33.1183933,30.6276125 34.3005267,29.9408 34.95566,28.79405 C35.6087267,27.6452375 35.5963267,26.281925 34.91846,25.1454875" id="Fill-11" fill="#EF9454" mask="url(#mask-6)"></path>
            </g>
            <path d="M74.7430667,32.2518312 C73.6022667,32.2518312 72.6764,31.3298937 72.6764,30.1893312 L72.6764,20.8276437 C72.6764,19.6870812 73.6022667,18.7651437 74.7430667,18.7651437 C75.8838667,18.7651437 76.8097333,19.6870812 76.8097333,20.8276437 L76.8097333,30.1893312 C76.8097333,31.3298937 75.8838667,32.2518312 74.7430667,32.2518312" id="Fill-14" fill="#FEFEFE"></path>
            <path d="M76.86822,36.2155438 C76.86822,37.3849813 75.9175533,38.3357938 74.7436867,38.3357938 C73.56982,38.3357938 72.6170867,37.3849813 72.6170867,36.2155438 C72.6170867,35.0440438 73.56982,34.0952938 74.7436867,34.0952938 C75.9175533,34.0952938 76.86822,35.0440438 76.86822,36.2155438" id="Fill-16" fill="#FEFEFE"></path>
        </g>
    </g>
</svg>