<?xml version="1.0" encoding="UTF-8"?>
<svg width="200px" height="100px" viewBox="0 0 200 100" version="1.1" xmlns="http://www.w3.org/2000/svg" xmlns:xlink="http://www.w3.org/1999/xlink">
    <title>imagemaking / information</title>
    <defs>
        <polygon id="path-1" points="0.0713123953 0.297 6.94758509 0.297 6.94758509 7.1728876 0.0713123953 7.1728876"></polygon>
        <polygon id="path-3" points="0.000588682964 0.123938691 6.8764876 0.123938691 6.8764876 7 0.000588682964 7"></polygon>
        <polygon id="path-5" points="0 0.6727 6.9176 0.6727 6.9176 11.7067 0 11.7067"></polygon>
    </defs>
    <g id="imagemaking-/-information" stroke="none" stroke-width="1" fill="none" fill-rule="evenodd">
        <g id="Asset-95" transform="translate(37.000000, 1.000000)">
            <path d="M31,9.34148515 L31,43.3249505 C31,72.9465347 62.8857143,80.5724752 62.8857143,80.5724752 C62.8857143,80.5724752 94.7714286,74.4168317 94.7714286,43.3249505 L94.7714286,9.34148515 L88.1885714,11.4293069 C80.5980328,13.8355162 72.3029071,11.5599482 67,5.61673267 L62.8857143,1 L57.9877551,6.0970297 C52.5900509,11.7626878 44.4125295,13.8083332 36.9853061,11.3508911 L31,9.34148515 Z" id="Path" fill="#FFFFFF"></path>
            <path d="M38.2040816,11.1644554 C38.9160565,11.3756931 39.6386985,11.5491037 40.3689796,11.6839604 L40.3689796,34.5225743 C40.3689796,65.6340594 72.2546939,71.770099 72.2546939,71.770099 C78.1514163,70.1419877 83.7155587,67.4875965 88.6922449,63.9285149 C79.3469388,76.5142574 63.4873469,80.3762376 63.4873469,80.3762376 C63.4873469,80.3762376 31.6016327,74.2205941 31.6016327,43.1287129 L31.6016327,9.07663366 L38.2040816,11.1644554 Z" id="Path" fill="#E0E0E0"></path>
            <path d="M63.3502041,81.0623762 C63.2951008,81.071888 63.2387767,81.071888 63.1836735,81.0623762 C62.8604082,80.9839604 30.7297914,72.9365347 30.7297914,43.079703 L30.7297914,9.08643564 C30.7289683,8.84984466 30.8419875,8.6273143 31.0334694,8.48851485 C31.2273348,8.35250236 31.4727584,8.31277691 31.6995918,8.38069307 L37.7240816,10.3410891 C44.8764573,12.7015005 52.7478931,10.7505237 57.9722449,5.32247525 L62.8212245,0.225445545 C62.9590607,0.0748385508 63.1560498,-0.00758968308 63.36,-0.000481580723 C63.565455,0.00482991359 63.7600451,0.0933346846 63.8987755,0.245049505 L68.0130612,4.9009901 C73.1299262,10.6214585 81.1197792,12.8147554 88.437551,10.5077228 L95.0204082,8.38069307 C95.2440641,8.3129676 95.4864606,8.35278865 95.6767347,8.48851485 C95.8632786,8.63043446 95.9721565,8.85195645 95.9706285,9.08643564 L95.9706285,43.060099 C95.9706285,74.4264356 63.8204082,80.9937624 63.4873469,81.0525743 L63.3502041,81.0623762 Z M32.1991837,10.0960396 L32.1991837,43.060099 C32.1991837,70.7114851 60.9795918,78.9451485 63.3697959,79.5724752 C65.76,79.0431683 94.5012245,72.0837624 94.5012245,43.060099 L94.5012245,10.0862376 L88.8783673,11.870198 C81.0173054,14.3583328 72.4284144,12.0162009 66.9159184,5.88118812 L63.3404082,1.86237624 L59.0302041,6.38108911 C53.4048061,12.2287674 44.922141,14.3221479 37.2244898,11.7623762 L32.1991837,10.0960396 Z" id="Shape" fill="#303030" fill-rule="nonzero"></path>
            <path d="M24.7640816,64.2029703 L14.5861224,64.2029703 C14.1803622,64.2029703 13.8514286,63.8738331 13.8514286,63.4678218 C13.8514286,63.0618105 14.1803622,62.7326733 14.5861224,62.7326733 L24.7640816,62.7326733 C25.1698419,62.7326733 25.4987755,63.0618105 25.4987755,63.4678218 C25.4987755,63.8738331 25.1698419,64.2029703 24.7640816,64.2029703 L24.7640816,64.2029703 Z" id="Path" fill="#303030"></path>
            <path d="M19.2685714,71.299604 L0.734693878,71.299604 C0.328933653,71.299604 0,70.9704668 0,70.5644554 C0,70.1584441 0.328933653,69.8293069 0.734693878,69.8293069 L19.2685714,69.8293069 C19.6743317,69.8293069 20.0032653,70.1584441 20.0032653,70.5644554 C20.0032653,70.9704668 19.6743317,71.299604 19.2685714,71.299604 L19.2685714,71.299604 Z" id="Path" fill="#303030"></path>
            <path d="M33.9918367,81.0623762 L15.4579592,81.0623762 C15.052199,81.0623762 14.7232653,80.733239 14.7232653,80.3272277 C14.7232653,79.9212164 15.052199,79.5920792 15.4579592,79.5920792 L33.9918367,79.5920792 C34.397597,79.5920792 34.7265306,79.9212164 34.7265306,80.3272277 C34.7265306,80.733239 34.397597,81.0623762 33.9918367,81.0623762 Z" id="Path" fill="#303030"></path>
            <ellipse id="Oval" fill="#E0E0E0" cx="63.2228571" cy="95.5987129" rx="21.002449" ry="3.15623762"></ellipse>
        </g>
        <g id="Group-14" transform="translate(97.000000, 25.000000)">
            <path d="M1.0711,11.4138 C2.4171,10.0748 4.5931,10.0798 5.9331,11.4268 C7.2721,12.7718 7.2661,14.9488 5.9211,16.2878 C4.5751,17.6278 2.3981,17.6218 1.0581,16.2758 C-0.2809,14.9298 -0.2759,12.7528 1.0711,11.4138" id="Fill-1" fill="#8DB602"></path>
            <g id="Group-5" transform="translate(0.000000, 0.703200)">
                <mask id="mask-2" fill="white">
                    <use xlink:href="#path-1"></use>
                </mask>
                <g id="Clip-4"></g>
                <path d="M1.0847,1.2975 C2.4307,-0.0415 4.6077,-0.0365 5.9467,1.3105 C7.2857,2.6555 7.2807,4.8325 5.9347,6.1725 C4.5887,7.5115 2.4117,7.5055 1.0717,6.1595 C-0.2673,4.8145 -0.2613,2.6365 1.0847,1.2975" id="Fill-3" fill="#8DB602" mask="url(#mask-2)"></path>
            </g>
            <polygon id="Fill-6" fill="#8DB602" points="0.0408 13.6667 6.9258 13.6827 6.9078 19.6487 0.0228 19.6337"></polygon>
            <g id="Group-10" transform="translate(0.000000, 26.703200)">
                <mask id="mask-4" fill="white">
                    <use xlink:href="#path-3"></use>
                </mask>
                <g id="Clip-9"></g>
                <path d="M5.8631,5.9997 C4.5171,7.3387 2.3411,7.3327 1.0011,5.9867 C-0.3379,4.6417 -0.3319,2.4637 1.0131,1.1247 C2.3591,-0.2143 4.5361,-0.2093 5.8761,1.1377 C7.2151,2.4827 7.2091,4.6597 5.8631,5.9997" id="Fill-8" fill="#8DB602" mask="url(#mask-4)"></path>
            </g>
            <g id="Group-13" transform="translate(0.000000, 18.703200)">
                <mask id="mask-6" fill="white">
                    <use xlink:href="#path-5"></use>
                </mask>
                <g id="Clip-12"></g>
                <polygon id="Fill-11" fill="#8DB602" mask="url(#mask-6)" points="6.8846 11.7067 -0.0004 11.6907 0.0326 0.6727 6.9176 0.6877"></polygon>
            </g>
        </g>
    </g>
</svg>