{
  "header": {
    "addClass": "",
    "iconLogo": "icon-mapfre_044_logo_landing",
    "iconSize" : "",
    "title" : "/ Pólizas Seguro SCTR",
    "block": {
      "iconFile": "icon-mapfre_045_call",
      "tel1": "Lima: 213-3333",
      "tel2": "Provincias: 0-801-1-1133"
    }
  },
  "content" : {
    "iconClass" : "",
    "boxClass": "col col-12 col-lg-10",
    "mPrimary": true,
    "mSecondary" : true,
    "mAmount" :true,
    "titleAmount" : true,
    "primaryClass" : "g-c--gray9 g-font--medium",
    "text-primary" : "¡Estás a solo un paso de finalizar!",
    "secondaryClass" : "",
    "text-secondary" : "Realiza el pago en un banco afiliado <br> o vía online",
    "amountClass" :  "g-font--24 g-font-md--30",
    "text-amount" : "S/ 22,000",
    "titleAmountClass" : "g-font--11 g-py--10 g-m--0",
    "title-amount" : "Total a pagar"

  },
  "alert" : {
    "addClass" : "g-bg-c--red7 g-b--1 g-bc--orange1  g-p--10 ",
    "icon" : {
      "iconFile" : "icon-mapfre_051_alerta",
      "iconClass" : "g-font--25 g-font-md--21 g-c--orange1"
    },
    "titleClass" : "g-c--orange1 g-font--bold g-font--13",
    "titleText" : "Tienes 24 horas para relizar el pago antes de que expire la orden.",
    "subTitle" : false,
    "btnDetalle": false
  },
  "head" : {
    "addClass" : " g-mt--20  g-b--1 g-bc--gray7",
    "boxClass" : "g-bg-c--gray12",
    "itemClass" : "g-c--gray9",
    "contentLeft" : {
      "leftTitleClass" : "g-font--medium",
      "title" : "Documento de referencia:",
      "leftSubtitleClass" : "",
      "subtitle" : "RUC 44932385"
    },
    "contentRight" : false,
    "title" : {
      "title" : "Bancos afiliados:"
    },
    "content" : {
      "addClass" : "d-flex justify-content-around justify-content-sm-between align-items-center flex-wrap",
      "list" : [
        {
          "itemClass" : "d-block  g-p--10  zimg-mw--75",
          "icon" : false,
          "iconFile" : "",
          "iconClass" : "",
          "textClass" : "",
          "text" : "",
          "imgSrc" : {
            "srcImage" : "/images/BCP.png"
          }
        },
        {
          "itemClass" : " g-p--20 zimg-mw--75",
          "icon" : false,
          "iconFile" : "",
          "iconClass" : "",
          "textClass" : "",
          "text" : "",
          "imgSrc" : {
            "srcImage" : "/images/BBVA.png"
          }
        },
        {
          "itemClass" : " g-p--20 zimg-mw--75",
          "icon" : false,
          "iconFile" : "",
          "iconClass" : "",
          "textClass" : "",
          "text" : "",
          "imgSrc" : {
            "srcImage" : "/images/BanBif.png"
          }
        },
        {
          "itemClass" : " g-p--20 zimg-mw--75",
          "icon" : false,
          "iconFile" : "",
          "iconClass" : "",
          "textClass" : "",
          "text" : "",
          "imgSrc" : {
            "srcImage" : "/images/Interbank.png"
          }
        },
        {
          "itemClass" : " g-p--20 g-p--20 img-mw--75 flex-sm-grow-1",
          "icon" : false,
          "iconFile" : "",
          "iconClass" : "",
          "textClass" : "",
          "text" : "",
          "imgSrc" : {
            "srcImage" : "/images/Scotiabank.png"
          }
        }
      ]
    }
  },
  "footer": {
    "addClass": "",
    "iconFile": "icon-mapfre_044_logo_landing",
    "iconClass": "g-font--55",
    "title1": "¿Necesitas",
    "title2": "asistencia?",
    "tel1": "Lima: 213-3333",
    "tel2": "Provincias: 0-801-1-1133",
    "consult": "Escríbenos tu consulta",
    "copyright": "© Copyright MAPFRE PERÚ. Todos los derechos reservados"
  },
  "linkButton" : true,
  "addClass" : "g-text--uppercase g-px--25 ",
  "data" : "",
  "text" : "IR AL INICIO",
  "onclick" : ""

}