<?xml version="1.0" encoding="UTF-8"?>
<svg width="82px" height="26px" viewBox="0 0 82 26" version="1.1" xmlns="http://www.w3.org/2000/svg" xmlns:xlink="http://www.w3.org/1999/xlink">
    <!-- Generator: sketchtool 49.2 (51160) - http://www.bohemiancoding.com/sketch -->
    <title>E64E095F-C96A-4DCD-918F-44B8B92AA1FE</title>
    <desc>Created with sketchtool.</desc>
    <defs></defs>
    <g id="Symbols" stroke="none" stroke-width="1" fill="none" fill-rule="evenodd">
        <g id="logo-select-tarjeta-/-visa" transform="translate(-7.000000, -10.000000)">
            <g id="img_visa" transform="translate(7.000000, 10.000000)">
                <path d="M72.5500058,7.18970181 C72.4143077,7.19207785 72.2788736,7.19445388 72.1429115,7.19656592 C71.0541587,10.1014026 69.967254,13.0070313 68.8753332,15.910812 C68.6216253,16.5848144 69.0656801,16.6795918 69.5393034,16.6853999 C70.9020924,16.7020322 72.2654094,16.6954321 73.6284623,16.6835519 C74.123206,16.6793278 74.5297722,16.5190773 74.4012022,15.9068519 C73.7918809,12.9993752 73.1685673,10.0950665 72.5500058,7.18970181 Z M62.0833007,25.2470516 C61.2912885,25.2470516 60.4971643,25.206395 59.7088482,25.2581398 C58.8545311,25.3143727 58.8804035,24.9709034 59.1517996,24.3404617 C62.296352,17.0407494 65.4298162,9.73654899 68.5577363,2.43023659 C69.1488414,1.04896734 70.1964095,0.438325943 71.6690242,0.454166187 C72.9882525,0.468686411 74.3122329,0.522015231 75.6259171,0.435685903 C76.6193644,0.3704769 76.9982102,0.738762566 77.1964772,1.69498528 C78.478745,7.88033644 79.8185656,14.0543354 81.1364739,20.2322945 C81.4202782,21.5623469 81.6697621,22.9000555 81.9778548,24.2242999 C82.1288651,24.8729579 82.0443838,25.2470516 81.274548,25.2407155 C79.8674063,25.2290993 78.4597367,25.2314754 77.052859,25.2597238 C76.4789142,25.271076 76.3587924,24.9685273 76.2212462,24.4790638 C75.3772252,21.4723215 75.360857,21.4765456 72.2376889,21.4715295 C70.7864586,21.4688895 69.3336443,21.5053221 67.884262,21.4506732 C67.0993779,21.4208408 66.7052198,21.7183733 66.4171914,22.4404244 C65.2957021,25.2507477 65.2745818,25.2422995 62.2150388,25.2422995 L62.0833007,25.2422995 L62.0833007,25.2470516 Z" id="Fill-1" fill="#005BA4"></path>
                <path d="M0.945847351,0.503244542 C4.45419733,0.503244542 7.9628113,0.468132002 11.4701053,0.521196818 C12.7631972,0.541261127 13.5604894,1.30581689 13.8242295,2.60418886 C14.6983469,6.90587104 15.5827605,11.2051772 16.4674381,15.5044833 C16.587296,16.0866123 16.7314422,16.6639892 16.8953887,17.3781202 C17.5102542,17.0021784 17.5664871,16.5005707 17.7251535,16.0837082 C19.5549656,11.2835864 21.4027301,6.49006465 23.1726133,1.66750245 C23.5200426,0.721047893 23.9780897,0.376258589 24.975761,0.432755458 C26.466328,0.517236757 27.965871,0.47578812 29.460662,0.445163649 C30.1784891,0.430907429 30.2703625,0.636038585 29.9976463,1.28733661 C26.7746847,8.98358301 23.5709954,16.6882775 20.3802423,24.3982522 C20.1180863,25.0315979 19.7146881,25.2269609 19.0647101,25.2148167 C17.4817417,25.1847203 15.8966614,25.1717841 14.314749,25.2227368 C13.465448,25.2499293 13.0979543,24.9431565 12.8756629,24.1030956 C11.1577885,17.6117638 9.37232899,11.1381202 7.64785446,4.64837231 C7.40233068,3.7243581 6.97068404,3.11609274 6.08785446,2.70477441 C4.41406871,1.9241144 2.69540227,1.27308039 0.945847351,0.503244542" id="Fill-3" fill="#005BA4"></path>
                <path d="M47.1203953,25.6333952 C45.473802,25.492945 43.5558125,25.3435187 41.6576233,24.9042159 C40.4389805,24.6225236 40.1084475,24.0369626 40.3848597,22.8888089 C40.600551,21.9943632 40.7713617,21.0814371 40.861123,20.1666631 C40.9461323,19.3020498 41.2573931,19.1359912 42.0330371,19.5016368 C43.9320183,20.3968746 45.9513853,20.7920887 48.0457296,20.746152 C49.1542826,20.7215996 50.2430354,20.5249166 51.1638815,19.8488022 C52.4559174,18.8997076 52.5351186,17.6050316 51.3837969,16.4962146 C50.7430591,15.8789731 49.9507829,15.4887751 49.1756669,15.0703287 C48.0940423,14.4860877 46.9955214,13.921911 45.9653776,13.2545087 C41.31521,10.2422224 42.6452625,4.86234761 45.6501567,2.52538365 C48.4549359,0.343654087 51.7056179,-0.155313589 55.1178704,0.0382013877 C56.3835058,0.109746488 57.6509893,0.266036893 58.8794002,0.660986969 C59.5470665,0.875886275 59.8034145,1.14965849 59.6209876,1.89520596 C59.3606796,2.95861432 59.2017492,4.05132713 59.0678991,5.13981587 C58.9776097,5.87717922 58.733934,5.95796446 58.0491075,5.70399255 C56.0933654,4.9790374 54.0835025,4.57352716 51.9820301,5.04477441 C51.4577181,5.16225622 50.9666705,5.33174683 50.5260477,5.62848739 C49.2514361,6.4867646 49.1611467,7.65973464 50.2966282,8.69542258 C51.0532638,9.38552919 51.9933823,9.78523134 52.8783239,10.2715268 C53.7637935,10.7578223 54.6600873,11.2274855 55.5260206,11.7465175 C60.4803209,14.7176192 59.1576605,20.750904 55.872922,23.2114219 C53.8250425,24.7455495 50.8412686,25.6405233 47.1203953,25.6333952" id="Fill-5" fill="#005BA4"></path>
                <path d="M32.4683019,25.2213904 C29.2933891,25.2216544 29.3166214,25.2256145 29.8451576,22.0961103 C30.9853911,15.3481665 32.1250966,8.5994307 33.1974811,1.84039871 C33.3714598,0.74293383 33.7561137,0.333727534 34.8739069,0.415040785 C36.1862711,0.510346251 37.5110435,0.458337451 38.8297438,0.434313082 C39.5496829,0.421376883 39.7315817,0.707293281 39.6154199,1.40135996 C38.3619286,8.88719513 37.1113413,16.3732943 35.9130269,23.8678416 C35.7356162,24.9771867 35.2501127,25.3615766 34.1816883,25.2332706 C33.6180396,25.1656856 33.0398707,25.2213904 32.4683019,25.2213904" id="Fill-7" fill="#005BA4"></path>
                <path d="M16.0614263,13.5309474 C15.9980653,13.2426549 15.7863341,12.1496781 15.7665338,12.0475085 C15.1807087,9.0412943 14.5304667,6.02161584 13.9113772,3.0222657 C13.9071532,3.00193738 13.9021371,2.9837211 13.897649,2.96365679 C13.8733606,2.84406295 13.8485443,2.72420511 13.8242559,2.60408326 C13.5626279,1.31653545 12.7756317,0.554883737 11.5015481,0.523203249 C11.3911944,0.505778981 11.2768807,0.491786766 11.1578149,0.482018616 C11.1538548,0.481490608 11.1504227,0.480962599 11.1464627,0.480698595 C11.0247568,0.470930445 10.8996189,0.464066339 10.7684089,0.461426299 C9.10280724,0.430801828 7.43641361,0.424993738 5.77028397,0.427105771 C4.10389034,0.429745811 2.4374967,0.44004197 0.771367067,0.441889998 C0.626164833,0.442154002 0.451394145,0.418393637 0.304607886,0.445058047 C0.268175326,0.451394145 0.233062786,0.461162295 0.20085429,0.475418514 C0.104228804,0.51739516 0.0316276866,0.598180403 0.00733931291,0.748398714 C-0.00137282112,0.801199526 -0.00190082924,0.847400237 0.00364325605,0.887528854 C0.0427158572,1.1697492 0.396745304,1.16842918 0.643061093,1.24050228 C1.47968996,1.48549805 2.30813471,1.74976612 3.12153122,2.04967473 C3.39266339,2.14946827 3.66221154,2.25322186 3.92991166,2.36172753 C5.00018413,2.79575021 6.03983212,3.30290201 7.03222339,3.92251955 C7.18956981,4.00964089 7.34216416,4.10072229 7.49607852,4.19101168 C11.1971515,6.36112506 13.9288015,9.43096429 15.7623097,13.3337363 C15.8776795,13.504283 16.0535062,13.7329105 16.1015549,13.7263104 C16.1015549,13.7263104 16.0804346,13.6178047 16.0614263,13.5309474" id="Fill-9" fill="#F5A122"></path>
            </g>
        </g>
    </g>
</svg>