<?xml version="1.0" encoding="UTF-8"?>
<svg width="139px" height="24px" viewBox="0 0 24 24" version="1.1" xmlns="http://www.w3.org/2000/svg" xmlns:xlink="http://www.w3.org/1999/xlink">
    <title>Icons / icon_24 / edit_24x24</title>
    <text x="-51" y="21" fill="#8e8e8e" font-family="Arial, Helvetica, sans-serif" style="font-size: 12px;">Escribiendo...</text>
    <defs>
        <path d="M17.712,4.632 L15.888,6.456 L12.144,2.712 L13.968,0.888 C14.160001,0.69599904 14.3959986,0.6 14.676,0.6 C14.9560014,0.6 15.191999,0.69599904 15.384,0.888 L17.712,3.216 C17.904001,3.40800096 18,3.6439986 18,3.924 C18,4.2040014 17.904001,4.43999904 17.712,4.632 Z M0,14.856 L11.064,3.792 L14.808,7.536 L3.744,18.6 L0,18.6 L0,14.856 Z" id="path-1"></path>
    </defs>
    <g id="Icons-/-icon_24-/-edit_24x24" stroke="none" stroke-width="1" fill="none" fill-rule="evenodd">
        <g id="color-/-gary-797B7F" transform="translate(22, 2.000000)">
            <mask id="mask-2" fill="#8e8e8e">
                <use xlink:href="#path-1"></use>
            </mask>
            <use id="Mask" fill="#8e8e8e" xlink:href="#path-1"></use>
            <g id="Group" mask="url(#mask-2)">
                <g transform="translate(-3.000000, -2.000000)" id="color-/-gary-797B7F">
                    <rect id="color-/-verde-8DB602---links" fill="#8e8e8e" x="0" y="0" width="24" height="24"></rect>
                </g>
            </g>
        </g>
 
    </g>
</svg>