<svg xmlns="http://www.w3.org/2000/svg" width="21" height="21" viewBox="0 0 21 21">
    <path fill="#FFF" fill-rule="evenodd" d="M10.51 1.314c-.56 0-1.115.106-1.662.318a6.153 6.153 0 0 0-1.478.81c-.438.33-.79.685-1.058 1.068-.267.383-.4.746-.4 1.088v3.285c0 .643.16 1.464.482 2.463.322 1 .825 1.772 1.51 2.32a1.303 1.303 0 0 1 .493 1.19c-.042.22-.128.421-.258.606s-.297.325-.503.42l-5.768 2.73a1.438 1.438 0 0 0-.339.196c-.143.103-.215.29-.215.564v1.335l18.372-.02v-1.274c0-.355-.085-.578-.256-.667a2.145 2.145 0 0 0-.278-.133l-5.727-2.71a1.33 1.33 0 0 1-.667-1.714c.089-.212.222-.386.4-.523.712-.548 1.215-1.324 1.51-2.33.293-1.006.44-1.824.44-2.453V4.598c0-.356-.136-.725-.41-1.108a4.836 4.836 0 0 0-1.057-1.057 6.104 6.104 0 0 0-1.478-.801 4.597 4.597 0 0 0-1.653-.318zm0-1.314c.726 0 1.44.137 2.145.41.705.274 1.335.63 1.889 1.068.554.438 1.006.93 1.355 1.478.349.547.523 1.095.523 1.642v3.285c0 .397-.04.855-.123 1.375a8.935 8.935 0 0 1-.41 1.591 7.821 7.821 0 0 1-.76 1.56c-.315.5-.698.927-1.15 1.283l5.728 2.73.646.36c.431.239.647.55.647.934v1.99c0 .357-.127.661-.38.914s-.557.38-.913.38H1.314c-.37 0-.681-.127-.934-.38a1.245 1.245 0 0 1-.38-.913v-1.991c0-.356.219-.66.657-.914l.657-.38 5.768-2.73a4.982 4.982 0 0 1-1.17-1.334 9.18 9.18 0 0 1-.77-1.591 8.478 8.478 0 0 1-.42-1.58 8.473 8.473 0 0 1-.124-1.304V4.598c0-.547.171-1.095.513-1.642.343-.547.79-1.04 1.345-1.478A7.219 7.219 0 0 1 8.355.411 5.962 5.962 0 0 1 10.51 0z"/>
</svg>
