<?xml version="1.0" encoding="utf-8"?>
<!-- Generator: Adobe Illustrator 15.0.0, SVG Export Plug-In . SVG Version: 6.00 Build 0)  -->
<!DOCTYPE svg PUBLIC "-//W3C//DTD SVG 1.1//EN" "http://www.w3.org/Graphics/SVG/1.1/DTD/svg11.dtd">
<svg version="1.1" id="Capa_1" xmlns="http://www.w3.org/2000/svg" xmlns:xlink="http://www.w3.org/1999/xlink" x="0px" y="0px"
	 width="100px" height="56px" viewBox="-8.934 0 100 56" enable-background="new -8.934 0 100 56" xml:space="preserve">
<title>logo select tarjeta / banbif</title>
<desc>Created with Sketch.</desc>
<g id="logo-select-tarjeta-_x2F_-banbif">
	<g id="BanBif" transform="translate(1.000000, 14.000000)">
		<path id="banfif" fill="#0097DA" d="M10.196,20.147h3.994c0.794,0,1.374-0.652,1.374-1.479v-1.067c0-0.957-0.58-1.459-1.374-1.459
			h-3.994V20.147z M10.196,13.291h3.649c0.729,0,1.311-0.609,1.311-1.328v-0.979c0-0.74-0.58-1.328-1.311-1.328h-3.649V13.291z
			 M8.114,6.76h5.667c3.822,0,4.809,1.981,4.809,4.397c0,1.371-0.278,2.438-1.266,3.439c1.266,0.74,1.632,1.785,1.632,3.853
			c0,2.461-0.881,4.484-4.423,4.484H8.05c-0.708,0-1.159-0.587-1.159-1.283V8.023C6.89,7.326,7.448,6.76,8.114,6.76z M66.203,12.842
			c0-1.289,0.389-1.398,1.436-1.398c0.097-0.983-0.271-3.473,1.356-4.238c0.484-0.328,1.339-0.437,2.113-0.437
			c1.454-0.087,2.134,0.437,2.134,1.311c0,1.398-0.775,1.507-1.843,1.507c-0.95,0-0.95,0.437-0.95,1.857
			c0.854,0,2.309-0.328,2.309,1.289c0,1.638-0.775,1.42-2.424,1.42v7.47c0,1.311-0.757,1.311-1.339,1.311
			c-0.678,0-1.551-0.218-1.551-1.725v-7.055C66.299,14.154,66.203,13.389,66.203,12.842z M60.18,7.162
			c0,1.336,0.828,2.892,1.97,2.892c1.223,0,2.052-1.555,2.052-2.77C64.201,6.19,63.372,5,62.149,5C61.113,5,60.18,5.947,60.18,7.162
			L60.18,7.162z M61.008,7.284c0-0.607,0.207-1.215,0.83-1.215c0.727,0,1.119,0.243,1.119,1.215c0,0.607-0.498,1.336-1.016,1.336
			S61.008,7.891,61.008,7.284z M60.92,11.862c0-0.67,0.383-0.993,1.176-0.993h1.695c0.768,0,1.148,0.323,1.148,0.993v10.144
			c0,0.671-0.383,0.993-1.148,0.993h-1.695c-0.793,0-1.176-0.322-1.176-0.993V11.862z M49.537,20.147h3.985
			c0.794,0,1.373-0.652,1.373-1.479v-1.067c0-0.957-0.579-1.459-1.373-1.459h-3.985V20.147z M49.537,13.291h3.643
			c0.729,0,1.309-0.609,1.309-1.328v-0.979c0-0.74-0.578-1.328-1.309-1.328h-3.643V13.291z M47.458,6.76h5.658
			c3.813,0,4.802,1.981,4.802,4.397c0,1.371-0.258,2.438-1.244,3.439c1.265,0.74,1.629,1.785,1.629,3.853
			c0,2.461-0.899,4.484-4.438,4.484h-6.472c-0.707,0-1.156-0.587-1.156-1.283V8.023C46.237,7.326,46.794,6.76,47.458,6.76z
			 M36.989,11.814c3.237-1.355,6.862-1.93,6.862,3.078l0.106,6.867c0,0.782-0.842,1.24-1.704,1.24c-0.755,0-1.511-0.458-1.511-1.24
			V14.8c0-0.459-0.107-1.149-0.841-1.149c-0.972,0-1.942,0.574-2.784,1.01l-0.129,7.42c-0.086,0.688-0.625,0.918-1.058,0.918h-1.078
			c-0.648,0-0.95-0.573-0.95-1.585v-8.682c0-0.918,0.107-1.814,1.272-1.814C36.256,10.918,36.903,10.918,36.989,11.814z
			 M22.175,15.647c0,1.801-0.192,4.399,0.752,5.883c0.538,1.002,1.29,1.345,2.473,1.459c0.945,0.113,2.751-0.685,3.719-1.004
			c0.43,1.004,0.645,0.774,2.364,0.774c0.43,0,0.729-0.455,0.729-1.003V12c0-0.547-0.429-1.003-0.945-1.003
			c-1.935,0-1.504-0.114-2.257,0.775c-0.516-0.228-0.945-0.319-1.482-0.547c-1.72-0.456-3.849-0.798-4.708,1.117
			C22.39,13.14,22.175,14.508,22.175,15.647L22.175,15.647z M25.271,16.765c0-0.799-0.086-3.055,0.967-3.055
			c1.29,0,2.451,0.684,2.881,0.912v4.515c-1.161,0.57-1.699,0.911-2.988,0.911C25.186,20.047,25.271,17.447,25.271,16.765
			L25.271,16.765z"/>
	</g>
</g>
</svg>
