{
  "containerClass": "d-flex g-box--shadow1 align-items-lg-center justify-content-between flex-wrap flex-lg-nowrap ",
  "contentLeft": {
    "contentLeftClass": "g-br--1 g-bc--gray11",
    "radioCheck": {
      "radioCheckClass": "d-flex align-items-lg-center h-100 g-m--0",
      "classRadio": "d-flex align-items-center g-m--0 g-py--20 g-pl--20",
      "idradio": "radioCard",
      "label": {
        "label": ""
      }
    }
  },
  "contentClass": "g-px--20 g-pt--20 g-pt-lg--0 d-flex flex-column flex-fill w-7 w-lg-10",
  "cardClass": {
    "cardClass": "",
    "image": {
      "urlImage": "./../../../images/banks/master-card.svg",
      "imageClass": "g-box--shadow1 "
    },
    "textClass": "g-font--13 g-font--light g-c--gray10 g-pl--5",
    "text": "Mastercard"
  },
  "textContent": {
    "textClass": "g-font--bold g-c--gray2",
    "text": "XXXX XXXX XXXX X543"
  },
  "contentRight": {
    "rightClass": "g-bt--1 g-bt-lg--0 g-py--15 g-py-lg--0 g-px--20 d-flex align-items-center justify-content-center flex-grow-1 flex-lg-grow-0 w-10 w-lg-auto ",
    "icon": {
      "iconClass": "g-c--gray18 g-font--25 g-font-md--21 g-c--pointer ",
      "iconFile": "icon-mapfre_053_eliminar"
    }
  }
}