<svg width="40" height="27" viewBox="0 0 40 27" fill="none" xmlns="http://www.w3.org/2000/svg">
<path d="M14.4871 13.4873C14.4901 15.2289 15.575 16.7134 17.111 17.3034V9.66797C15.575 10.2618 14.4901 11.7464 14.4871 13.4873Z" fill="#0479BE"/>
<path d="M27.3116 8.09732C25.8639 6.76449 23.8848 6 21.8753 6H20.3476H18.5538C14.2474 6 11 9.25015 11 13.5602C11 17.6624 14.3757 20.9999 18.525 20.9999H20.3476H21.873L21.91 21C21.9102 21 21.9103 21 21.9104 21C23.8741 21 25.8481 20.2059 27.3259 18.8213C28.8538 17.3898 29.6954 15.5214 29.6954 13.5603C29.6953 11.4526 28.8487 9.51252 27.3116 8.09732ZM20.3476 19.221C19.7873 19.3947 19.1923 19.4885 18.5757 19.4885C15.2669 19.4885 12.5749 16.7964 12.5749 13.4873C12.5749 10.1782 15.2669 7.48608 18.5757 7.48608C19.1923 7.48608 19.7873 7.57993 20.3476 7.7536C22.7927 8.51155 24.5739 10.7953 24.5739 13.4873C24.5739 16.1794 22.7927 18.463 20.3476 19.221Z" fill="#0479BE"/>
<path d="M20.3476 9.80297C20.2466 9.75411 20.1438 9.70846 20.0385 9.66797V17.3034C20.1439 17.2629 20.2467 17.2174 20.3476 17.1687C21.7176 16.5076 22.662 15.1094 22.665 13.4874C22.662 11.866 21.7176 10.4651 20.3476 9.80297Z" fill="#0479BE"/>
</svg>
