<svg width="40" height="27" viewBox="0 0 40 27" fill="none" xmlns="http://www.w3.org/2000/svg">
<path d="M16.7056 19.4113C19.8568 19.4113 22.4113 16.8568 22.4113 13.7056C22.4113 10.5545 19.8568 8 16.7056 8C13.5545 8 11 10.5545 11 13.7056C11 16.8568 13.5545 19.4113 16.7056 19.4113Z" fill="#EE0005"/>
<path d="M23.7945 19.4113C26.9456 19.4113 29.5001 16.8568 29.5001 13.7056C29.5001 10.5545 26.9456 8 23.7945 8C20.6434 8 18.0889 10.5545 18.0889 13.7056C18.0889 16.8568 20.6434 19.4113 23.7945 19.4113Z" fill="#F9A000"/>
<path d="M18.0889 13.7057C18.0889 15.5173 18.9334 17.1316 20.2501 18.1768C21.5667 17.1316 22.4112 15.5173 22.4112 13.7057C22.4112 11.894 21.5667 10.2798 20.2501 9.23462C18.9334 10.2798 18.0889 11.8941 18.0889 13.7057Z" fill="#FF6300"/>
</svg>
