{
  "loginTitle" : {
    "iconTitle" : {
      "circle-addClass" : "",
      "addClass" : "g-font--25 g-font-md--21",
      "iconFile" : "icon-mapfre_037_user"
    },
    "title" : "Título formulario"
  },
  "tipdoc" : [
    {
      "addClass" : "g-form-focus",
      "value" : "D.N.I",
      "listOption" : [
        { "value" : "DNI" },
        { "value" : "RUC" },
        { "value" : "CEX" }
      ],
      "label" : "Tipo de documento"
    }
  ],
  "docType": true,
  "password" : true,
  "dataName": true,
  "dataEmail" : {
    "label": "Correo electrónico"
  },
  "newPassword" : {
    "addClass" : "",
    "iconFile" : "icon-mapfre_057_circle-check",
    "iconClass" : "g-c--green1 g-font--30 text-right g-ml--10 ",
    "input": {
      "label": "Nueva contraseña",
      "type": "password"
    }
  },
  "confNewPassword": {
    "addClass" : "",
    "iconFile" : "icon-mapfre_057_circle-check",
    "iconClass" : "g-c--green1 g-font--30 text-right g-ml--10 ",
    "input": {
      "label": "Confirmar nueva contraseña",
      "type": "password"
    }
  },
  "link" : true,
  "text-login-remenber" :true,
  "linkText" : "Lorem ipsum",
  "alert" : [
    {
      "addClass" : "g-bg-c--red7 g-b--1 g-bc--orange1 g-p--10 g-mt--20 ",
      "icon" : {
        "iconFile" : "icon-mapfre_013_atention",
        "iconClass" : "g-font--25 g-font-md--21 g-c--orange1  g-pr--10 "
      },
      "titleClass" : "g-c--orange1",
      "titleText" : "Los datos no se corresponden con ningún asegurado. Contacta a un <span class='g-font--bold'>asesor MAPFRE</span> para recibir más información",
      "subTitle" : false,
      "btnDetalle": false
    }
  ],
  "btn-primary": {
    "text" : "Botón primario",
    "addClass" : "block g-text--uppercase"
  },
  "btn-secondary" : {
    "text" : "Botón secundario <span class='g-font--bold'>Acción<span>",
    "addClass" : "block g-text--uppercase g-btn-outline"
  },
  "btn-disable" : {
    "text" : "Bóton disable",
    "addClass" : "block disabled g-text--uppercase g-btn-outline"
  }
}