<?xml version="1.0" encoding="UTF-8"?>
<svg width="93px" height="93px" viewBox="0 0 93 93" version="1.1" xmlns="http://www.w3.org/2000/svg" xmlns:xlink="http://www.w3.org/1999/xlink">
    <!-- Generator: Sketch 52.2 (67145) - http://www.bohemiancoding.com/sketch -->
    <title>93x93_mapfre@1x</title>
    <desc>Created with Sketch.</desc>
    <g id="01-02-03--CLIENTE-SPRINT-1" stroke="none" stroke-width="1" fill="none" fill-rule="evenodd">
        <g id="Option-3" transform="translate(-34.000000, -134.000000)">
            <g id="93x93_mapfre" transform="translate(34.000000, 134.000000)">
                <rect id="Rectangle" fill="#F6F6F6" fill-rule="nonzero" x="0" y="0" width="93" height="93" rx="12"></rect>
                <g id="Group-Copy" transform="translate(23.000000, 22.000000)" fill="#D81E05">
                    <path d="M23.5004775,2.23829231 C11.7577198,2.23829231 2.23827715,11.7577995 2.23827715,23.5 C2.23827715,35.2428372 11.7577198,44.762026 23.5004775,44.762026 C35.2432352,44.762026 44.7620412,35.2428372 44.7620412,23.5 C44.7620412,11.7577995 35.2432352,2.23829231 23.5004775,2.23829231 M23.5004775,0 C36.4790469,0 47,10.5213427 47,23.5 C47,36.4792939 36.4790469,47 23.5004775,47 C10.5212715,47 0,36.4792939 0,23.5 C0,10.5213427 10.5212715,0 23.5004775,0" id="Fill-1"></path>
                    <path d="M28.2720178,14.265729 C28.2559968,14.25873 28.238091,14.2511224 28.2186146,14.2441235 C26.7462561,13.725591 25.1570387,13.4428934 23.500282,13.4428934 C21.8520069,13.4428934 20.2703288,13.7228523 18.8039389,14.2368202 C18.7517922,14.2553827 18.7112686,14.2748581 18.6807973,14.295855 C18.1985976,14.5161704 17.8649844,14.9911876 17.8649844,15.5422805 C17.8649844,15.8347157 17.9585971,16.1055455 18.1194351,16.3285997 L22.8594432,24.2346983 C22.9719041,24.4680988 23.2166165,24.629988 23.500282,24.629988 C23.7773505,24.629988 24.017665,24.4750978 24.1332673,24.2496092 L28.8748461,16.3407718 C29.0435374,16.114066 29.1428046,15.8362373 29.1428046,15.5355858 C29.1428046,14.9644089 28.7834323,14.4744809 28.2720178,14.265729 M14.3306329,16.8602172 C14.3186957,16.8684334 14.3064444,16.8775624 14.2929365,16.8876044 C13.3175421,17.6815312 12.4659177,18.650128 11.7920945,19.780614 C11.1223552,20.9053182 10.6825639,22.0972734 10.459841,23.3065739 C10.4519875,23.3500892 10.4504169,23.3856927 10.4526158,23.4149058 C10.4168042,23.8339311 10.6269617,24.254478 11.0271718,24.4790537 C11.2398423,24.5974276 11.4751306,24.6436817 11.7022514,24.6242063 L19.3769242,24.6053395 C19.5924219,24.623902 19.8094903,24.522569 19.9247785,24.3293366 C20.0369253,24.1397558 20.0227891,23.9136586 19.9059303,23.7429445 L16.0841437,17.2920233 C15.9873896,17.0850972 15.8262375,16.9043411 15.6082267,16.7829242 C15.1926239,16.5504366 14.6903193,16.5963864 14.3306329,16.8602172 M32.6696169,16.8602172 C32.3099304,16.5963864 31.8069976,16.5504366 31.3920231,16.7829242 C31.1736981,16.9043411 31.0122319,17.0850972 30.9157919,17.2920233 L27.0940053,23.7429445 C26.9771465,23.9136586 26.9626962,24.1397558 27.0751571,24.3293366 C27.1904453,24.522569 27.4075137,24.623902 27.6223832,24.6053395 L35.29737,24.6242063 C35.5251191,24.6436817 35.7600933,24.5974276 35.9727639,24.4790537 C36.372974,24.254478 36.5828173,23.8339311 36.5470057,23.4149058 C36.550147,23.3856927 36.5476339,23.3500892 36.5397805,23.3065739 C36.3173718,22.0972734 35.8778946,20.9053182 35.2078411,19.780614 C34.5343321,18.650128 33.6823935,17.6815312 32.706685,16.8876044 C32.6938054,16.8775624 32.6812399,16.8684334 32.6696169,16.8602172 M24.6383991,26.8331424 L24.6383991,33.7173913 L22.3634214,33.7173913 L22.3634214,26.8331424 C21.2765085,26.8328381 19.8575533,26.8285779 19.3206937,26.8103197 L11.777016,26.8279693 C11.138062,26.8593125 10.4812023,26.7175073 9.88968292,26.3873384 C8.74308412,25.7455632 8.12706213,24.5627371 8.17669572,23.3723034 C8.17795227,23.195199 8.19805702,23.0418302 8.22004658,22.9198047 C8.48863343,21.4631058 9.01763956,20.0277081 9.82214354,18.6790368 C10.630103,17.3230622 11.6548168,16.1560598 12.8303162,15.1999395 C13.6194275,14.6360659 14.723932,14.3527597 15.7404782,14.5252995 C16.0275991,13.5856116 16.7017364,12.8084215 17.5791201,12.3659648 C17.7456125,12.2734566 17.9017384,12.209553 18.0308486,12.1642118 C19.7406944,11.565039 21.5834201,11.2391304 23.500282,11.2391304 C25.4262538,11.2391304 27.2780894,11.5683864 28.9961028,12.1736452 C29.9843767,12.5896276 30.8655301,13.4602387 31.2346406,14.4988252 C32.205637,14.2830743 33.2096178,14.4927391 34.0002998,15.073958 C35.1757992,16.0303826 36.3695185,17.3230622 37.1781062,18.6790368 C37.9822961,20.0277081 38.5113022,21.4631058 38.7795749,22.9198047 C38.8018786,23.0418302 38.8219834,23.195199 38.8232399,23.3723034 C38.8735018,24.5627371 38.2565374,25.7455632 37.1099386,26.3873384 C36.5184192,26.7175073 35.8625019,26.8593125 35.2232338,26.8279693 L27.6789278,26.8103197 C27.1423824,26.8285779 25.7249978,26.8328381 24.6383991,26.8331424" id="Fill-3"></path>
                </g>
            </g>
        </g>
    </g>
</svg>