{
  "table" : {
    "addClass" : "",
    "tableClass" : "",
    "tableHead" : {
      "number" : "#",
      "name" : "Nombre y apellidos",
      "dni" : "Documento de identidad",
      "salary" : "Sueldo mensual",
      "birthdate" : "Fecha de nacimiento"
    },
    "headNumber" : "#",
    "headName" : "Nombre y apellidos:",
    "headDni" : "Doc. Identidad:",
    "headSalary" : "Sueldo mensual:",
    "headBirthdate" : "Fecha de Nac.:",
    "tableBody" : [
      {
        "number" : "1",
        "name" : "Jaina Proudmoore of Kulltiras",
        "dni" : "DNI 764835930",
        "salary" : "S/ 900.00",
        "birthdate" : "27/04/1947"
      },
      {
        "number" : "2",
        "name" : "Jaina Proudmoore of Kulltiras",
        "dni" : "DNI 764835930",
        "salary" : "S/ 900.00",
        "birthdate" : "27/04/1947"
      },
      {
        "number" : "3",
        "name" : "Jaina Proudmoore of Kulltiras",
        "dni" : "DNI 764835930",
        "salary" : "S/ 900.00",
        "birthdate" : "27/04/1947"
      },
      {
        "number" : "4",
        "name" : "Jaina Proudmoore of Kulltiras",
        "dni" : "DNI 764835930",
        "salary" : "S/ 900.00",
        "birthdate" : "27/04/1947"
      },
      {
        "number" : "5",
        "name" : "Jaina Proudmoore of Kulltiras",
        "dni" : "DNI 764835930",
        "salary" : "S/ 900.00",
        "birthdate" : "27/04/1947"
      },
      {
        "number" : "6",
        "name" : "Jaina Proudmoore of Kulltiras",
        "dni" : "DNI 764835930",
        "salary" : "S/ 900.00",
        "birthdate" : "27/04/1947"
      },
      {
        "number" : "7",
        "name" : "Jaina Proudmoore of Kulltiras",
        "dni" : "DNI 764835930",
        "salary" : "S/ 900.00",
        "birthdate" : "27/04/1947"
      },
      {
        "number" : "8",
        "name" : "Jaina Proudmoore of Kulltiras",
        "dni" : "DNI 764835930",
        "salary" : "S/ 900.00",
        "birthdate" : "27/04/1947"
      },
      {
        "number" : "9",
        "name" : "Jaina Proudmoore of Kulltiras",
        "dni" : "DNI 764835930",
        "salary" : "S/ 900.00",
        "birthdate" : "27/04/1947"
      },
      {
        "number" : "10",
        "name" : "Jaina Proudmoore of Kulltiras",
        "dni" : "DNI 764835930",
        "salary" : "S/ 900.00",
        "birthdate" : "27/04/1947"
      }
    ]
  }
}