{
  "iconFile": "icon-mapfre_044_logo_landing ",
  "addClass": "g-font-lg--40 g-font--30",
  "acordion": [
    {
      "classAccordion": "g-bg-c--gray8 g-c--gray10 g-pt--5",
      "dataGroup": "true",
      "item": [
        {
          "dataOpen": "true",
          "itemClass": "",
          "titleClass": "",
          "boxClass": "",
          "clickClass": " g-pl--20   g-pr--15   g-py--10 ",
          "icon": {
            "iconFile": "icon-mapfre_022_car2",
            "iconClass": "g-px--15 g-font--20 "
          },
          "arrow": {
            "clickOn": {
              "iconFile": "icon-mapfre_101_ico-dow",
              "iconClass": "g-font--10 g-c-pointer g-c--white1"
            },
            "clickOff": {
              "iconFile": "icon-mapfre_102_ico-up",
              "iconClass": "g-c--pointer"
            }
          },
          "textClass": "g-text--uppercase g-font--bold",
          "text": "VEHÍCULOS",
          "contentClass": "",
          "content": false,
          "list": [
            {
              "iconFile": "",
              "text": "Seguro Vehicular"
            },
            {
              "iconFile": "",
              "text": "SOAT"
            },
            {
              "iconFile": "",
              "text": "Accidentes"
            },
            {
              "text": "Robo"
            },
            {
              "text": "Talleres"
            },
            {
              "text": "Cotización"
            }
          ],
          "classContent": "g-hover-nav g-font--12"
        },
        {
          "dataOpen": "",
          "itemClass": "",
          "titleClass": "",
          "boxClass": "",
          "clickClass": " g-pl--20   g-pr--15   g-py--10 ",
          "icon": {
            "iconFile": "icon-mapfre_023_cross2",
            "iconClass": "g-px--15 g-font--20 "
          },
          "arrow": {
            "clickOn": {
              "iconFile": "icon-mapfre_101_ico-dow",
              "iconClass": "g-font--10 g-c-pointer g-c--white1"
            },
            "clickOff": {
              "iconFile": "icon-mapfre_102_ico-up",
              "iconClass": "g-c--pointer g-font--10"
            }
          },
          "textClass": "g-text--uppercase g-font--bold",
          "text": "SALUD",
          "contentClass": "",
          "content": false,
          "list": [
            {
              "iconFile": "",
              "text": "Seguro Vehicular"
            },
            {
              "iconFile": "",
              "text": "SOAT"
            },
            {
              "iconFile": "",
              "text": "Accidentes"
            },
            {
              "text": "Robo"
            },
            {
              "text": "Talleres"
            },
            {
              "text": "Cotización"
            }
          ],
          "classContent": "g-hover-nav"
        },
        {
          "dataOpen": "",
          "itemClass": "",
          "titleClass": "",
          "boxClass": "",
          "clickClass": " g-pl--20   g-pr--15   g-py--10 ",
          "icon": {
            "iconFile": "icon-mapfre_024_house2",
            "iconClass": "g-px--15 g-font--20 "
          },
          "arrow": {
            "clickOn": {
              "iconFile": "icon-mapfre_101_ico-dow",
              "iconClass": "g-font--10 g-c-pointer g-c--white1"
            },
            "clickOff": {
              "iconFile": "icon-mapfre_102_ico-up",
              "iconClass": "g-c--pointer"
            }
          },
          "textClass": "g-text--uppercase g-font--bold",
          "text": "HOGAR",
          "contentClass": "",
          "content": false,
          "list": [
            {
              "iconFile": "",
              "text": "Seguro Vehicular"
            },
            {
              "iconFile": "",
              "text": "SOAT"
            },
            {
              "iconFile": "",
              "text": "Accidentes"
            },
            {
              "text": "Robo"
            },
            {
              "text": "Talleres"
            },
            {
              "text": "Cotización"
            }
          ],
          "classContent": "g-hover-nav"
        },
        {
          "dataOpen": "",
          "itemClass": "",
          "titleClass": "",
          "boxClass": "",
          "clickClass": " g-pl--20   g-pr--15   g-py--10 ",
          "icon": {
            "iconFile": "icon-mapfre_025_heart2",
            "iconClass": "g-px--15 g-font--20 "
          },
          "arrow": {
            "clickOn": {
              "iconFile": "icon-mapfre_101_ico-dow",
              "iconClass": "g-font--10 g-c-pointer g-c--white1"
            },
            "clickOff": {
              "iconFile": "icon-mapfre_102_ico-up",
              "iconClass": "g-c--pointer"
            }
          },
          "textClass": "g-text--uppercase g-font--bold",
          "text": "VIDA Y AHORROS",
          "contentClass": "",
          "content": false,
          "list": [
            {
              "iconFile": "",
              "text": "Seguro Vehicular"
            },
            {
              "iconFile": "",
              "text": "SOAT"
            },
            {
              "iconFile": "",
              "text": "Accidentes"
            },
            {
              "text": "Robo"
            },
            {
              "text": "Talleres"
            },
            {
              "text": "Cotización"
            }
          ],
          "classContent": "g-hover-nav"
        },
        {
          "dataOpen": "",
          "itemClass": "",
          "titleClass": "",
          "boxClass": "",
          "clickClass": " g-pl--20   g-pr--15   g-py--10 ",
          "icon": {
            "iconFile": "icon-mapfre_026_decesos",
            "iconClass": "g-px--15 g-font--20 "
          },
          "arrow": false,
          "textClass": "g-text--uppercase g-font--bold",
          "text": "DECESOS",
          "contentClass": "",
          "content": false,
          "classContent": "g-hover-nav"
        },
        {
          "dataOpen": "",
          "itemClass": "",
          "titleClass": "",
          "boxClass": "",
          "clickClass": " g-pl--20   g-pr--15   g-py--10 ",
          "icon": {
            "iconFile": "icon-mapfre_027_box",
            "iconClass": "g-px--15 g-font--20 "
          },
          "arrow": false,
          "textClass": "g-text--uppercase g-font--bold",
          "text": "SERVICIOS MAPFRE",
          "contentClass": "",
          "content": false,
          "classContent": "g-hover-nav"
        },
        {
          "dataOpen": "",
          "itemClass": "",
          "titleClass": "",
          "boxClass": "",
          "clickClass": " g-pl--20   g-pr--15   g-py--10 ",
          "icon": {
            "iconFile": "icon-mapfre_028_pagos",
            "iconClass": "g-px--15 g-font--20 "
          },
          "arrow": false,
          "textClass": "g-text--uppercase g-font--bold",
          "text": "Mis Pagos",
          "contentClass": "",
          "content": false,
          "classContent": "g-hover-nav"
        },
        {
          "dataOpen": "",
          "itemClass": "",
          "titleClass": "",
          "boxClass": "",
          "clickClass": " g-pl--20   g-pr--15   g-py--10 ",
          "icon": {
            "iconFile": "icon-mapfre_029_location-pin2",
            "iconClass": "g-px--15 g-font--20 "
          },
          "arrow": false,
          "textClass": "g-text--uppercase g-font--bold",
          "text": "Red de Oficinas",
          "contentClass": "",
          "content": false,
          "classContent": "g-hover-nav"
        }
      ]
    }
  ],
  "list-btn": [
    {
      "iconFile": "icon-mapfre_030_call",
      "addClass": "g-font--30"
    },
    {
      "iconFile": "icon-mapfre_031_qanda",
      "addClass": "g-font--30"
    }
  ],
  "headerOIM": {
    "icoNav": {
      "iconFile": "icon-mapfre_047_bars",
      "addClass": "g-font--30",
      "iconFileOIM": "icon-mapfre_044_logo_landing ",
      "addClassOIM": "g-font-lg--40 g-font--30"
    },
    "headOimMobile": {
      "llamadaClass": "g-font--light g-c--gray2",
      "llamada": "MI MAPFRE",
      "bajada": "CONFIGURAR PAGO",
      "iconFile": "icon-mapfre_044_logo_landing ",
      "addClass": "g-font--30",
      "icoBack": {
        "icon": "icon-mapfre_010_arrow-left",
        "addClass": "g-items-icon g-c--gray3 g-font--25 g-font-md--21"
      }
    },
    "datos": {
      "icoCircle": "icon-mapfre_066_circle",
      "sizeCircle": "g-font--40 g-c--gray1",
      "icoUser": "icon-mapfre_037_user",
      "addClass": "g-c--white1 g-ico--center g-font--20",
      "tittle": "MIS NOTIFICACIONES",
      "icoAlert": "icon-mapfre_036_notification",
      "icoClose": "icon-mapfre_049_close2",
      "sizeClose": "g-font--40",
      "nameUser": "Hola <b>Gonzalo!</b>",
      "numb": 3,
      "alertBadge": {
        "icoCircle": "icon-mapfre_066_circle",
        "addClass": "g-font--30 g-c--green1",
        "addClassNum": "g-ico--center g-font--11 g-c--white1"
      },
      "list": [
        {
          "tipo": "Mi prefil"
        },
        {
          "tipo": "Cerrar sesión"
        }
      ]
    },
    "alert": {
      "ico": "icon-mapfre_014_perfil",
      "icoCircle": "icon-mapfre_066_circle",
      "sizeCircle": "g-font--40 g-c--gray1",
      "addClass": "g-c--white1 g-ico--center g-font--20",
      "tittle": "MIS NOTIFICACIONES",
      "icoAlert": "icon-mapfre_036_notification",
      "icoClose": "icon-mapfre_049_close2",
      "sizeClose": "g-font--40",
      "numb": 3,
      "alertBadge": {
        "icoCircle": "icon-mapfre_066_circle",
        "addClass": "g-font--30 g-c--green1",
        "addClassNum": "g-ico--center g-font--11 g-c--white1"
      },
      "list": [
        {
          "ico-drow": "icon-mapfre_057_circle-check",
          "fech": "HOY 10:23am",
          "tipo": "Solicitud de chofer de reemplazo confirmada",
          "desc": "Lunes 1 NOV - 9:30am"
        },
        {
          "ico-drow": "icon-mapfre_049_close2",
          "fech": "24/02  10:23am",
          "tipo": "Solicitud de chofer de reemplazo cancelada",
          "desc": "Servicio cancelado"
        },
        {
          "ico-drow": "icon-mapfre_057_circle-check",
          "fech": "24/02 10:23am",
          "tipo": "Pago automático emitido",
          "desc": "Fondo universitario"
        },
        {
          "ico-drow": "icon-mapfre_049_close2",
          "fech": "24/02 10:23am",
          "tipo": "Pago fallido",
          "desc": "Seguro SCTR"
        },
        {
          "ico-drow": "icon-mapfre_057_circle-check",
          "fech": "24/02 10:23am",
          "tipo": "Pago pendiente",
          "desc": "Seguro vehicular - Vence 17/05/18"
        },
        {
          "ico-drow": "icon-mapfre_049_close2",
          "fech": "24/02 10:23am",
          "tipo": "Póliza sin cobertura por inpago",
          "desc": "Salud - Venció 12/05/18"
        }
      ]
    }
  },
  "tabs": {
    "listTab": [
      {
        "addActive": "g-tablist__tab--active",
        "text": "Reportar"
      },
      {
        "addActive": false,
        "text": "Mis asistencias"
      }
    ]
  },
  "driverTittle": false,
  "cardbox": {
    "icon": {
      "addClass": "g-px-lg--25 g-px--15 g-pt--15 g-pt-lg--0 ",
      "iconClass": "g-items-icon  g-font--30 g-c--gray9",
      "icon": "icon-mapfre_019_car"
    },
    "left": {
      "addClass": "w-100  g-mb--10   g-mb-lg--0  g-o--hidden",
      "textClass": "g-font--medium g-font--16 g-c--gray2",
      "title1": "Póliza Full Cobertura",
      "text2Class": "text-truncate g-font--light g-font--16",
      "text2": "Seat Ibiza 2016 - CGG 5463"
    },
    "right": [
      {
        "addClass": "g-px-lg--15 g-font--13 w-px-lg--20",
        "content": [
          {
            "iconClass": " g-pr--5 ",
            "icon": "icon-mapfre_055_card",
            "textClass": "g-font--light ",
            "title": "Débito automático "
          },
          {
            "iconClass": " g-pr--5 ",
            "icon": "icon-mapfre_096_porcentage",
            "textClass": "g-font--light",
            "title": "4 cuotas "
          }
        ]
      },
      {
        "addClass": "g-px-lg--15 g-font--13 w-px-lg--20",
        "content": [
          {
            "iconClass": " g-pr--5 ",
            "icon": "icon-mapfre_063_agendar",
            "textClass": "g-font--light ",
            "title": "Renovación: 12/11/2019"
          },
          {
            "iconClass": " g-pr--5 ",
            "icon": "icon-mapfre_097_refresh",
            "textClass": "g-font--light",
            "title": "Automática "
          }
        ]
      }
    ],
    "btn": {
      "addClass": "d-flex flex-row flex-lg-column justify-content-between justify-content-lg-center align-items-center flex-grow-1 g-bl-lg--1 g-bc--gray11  g-bt--1 g-bt-lg--0 g-px--15 g-px-lg--0 g-py--15 g-py-lg--0 w-100 w-px-lg--19",
      "icon": false,
      "text": [
        {
          "textClass": "g-font--medium d-flex flex-row-reverse flex-lg-row aling-items-center g-ie-flex--0-1-auto",
          "text": "<span>Prima de Seguro</span> <span class='icon-mapfre_048_tooltip g-c--green1 g-font--25 g-font-md--21 g-c--pointer g-pr--10 g-pr-lg--0 g-pl-lg--5'></span>"
        },
        {
          "textClass": "",
          "text": "S/ 450.32"
        }
      ]
    }
  },
  "banner": false,
  "contentTabs": "g-px-lg--15",
  "leftClass": " g-pt-lg--30",
  "titleTabs": "",
  "tabVertical": {
    "listTab": [
      {
        "addActive": "g-font--18 ",
        "link": "#1",
        "text": "RENOVACIÓN"
      },
      {
        "addActive": "g-font--18 active g-font--bold",
        "link": "#2",
        "text": "MIS CUOTAS"
      },
      {
        "addActive": "g-font--18 ",
        "link": "#3",
        "text": "TIPO DE PAGO"
      },
      {
        "addActive": "g-font--18 ",
        "link": "#4",
        "text": "MIS TARJETAS"
      }
    ]
  },
  "mfselect": {
    "addClass": "g-form-focus",
    "label": "Seleccione",
    "disabled": false,
    "listOption": [
      {
        "value": "RENOVACIÓN"
      },
      {
        "value": "MIS CUOTAS"
      },
      {
        "value": "TIPO DE PAGO"
      }
    ]
  },
  "addClassContent": "g-mh-lg--60 g-pb-lg--50 g-max-w--82",
  "section": false,
  "contentPayments": {
    "title": {
      "textClass": "g-font--16 g-font--medium g-mt-lg--15 g-px-lg--15 g-px-lg--0",
      "text": "Mis cuotas"
    },
    "addClass": "d-flex flex-column flex-lg-row w-10 g-pt-lg--15 g-px-lg--15 g-px-lg--0 g-ie-flex--0-1-auto",
    "content": [
      {
        "content": "g-max-w-lg--31 g-pt--20 g-pr-lg--30 ",
        "lista": {
          "addClass": "green",
          "ico-font": "icon-mapfre_003_check",
          "list": [
            {
              "addClass": "g-mb--5 g-font--light",
              "text": "Puedes refinanciar las cuotas que te quedan como mejor te convenga. "
            },
            {
              "addClass": "g-mb--5 g-font--light",
              "text": "Nos adaptamos a tus necesidades."
            },
            {
              "addClass": "g-mb--5 g-font--light",
              "text": "Si tienes un pago pendiente se dividirá entre la cuotas que elijas."
            },
            {
              "addClass": "g-mb--5 g-font--light",
              "text": "Siempre podrás  volver a configurar tus cuotas."
            }
          ],
          "quotePayments": false
        }
      },
      {
        "content": "w-10 g-max-w-lg--51",
        "lista": false,
        "quotePayments": false,
        "cardBoxMin": false,
        "messages": {
          "addClass": "text-center g-mt--30",
          "icon": {
            "iconClass": "",
            "image": {
              "imageClass": "",
              "imageData": "/images/services/icon-time-none.svg"
            },
            "number": {
              "numberClass": "",
              "numberData": "48h"
            }
          },
          "text": [
            {
              "textClass": "g-font--20 g-font--medium g-c--gray2 ",
              "text": "Estimado usuario"
            },
            {
              "textClass": "g-font--ligth g-c--gray10 g-px--25 g-px-lg--0 g-pb--50 g-pb-lg--0",
              "text": "En un máximo de 48 horas se realizará tu refinanciamiento."
            }
          ]
        }
      }
    ]
  }
}