{
  "iconFile": "icon-mapfre_044_logo_landing ",
  "addClass": "g-font--45",
  "acordion": [
    {
      "classAccordion": "g-bg-c--gray8 g-c--gray10 g-pt--5",
      "dataGroup": "true",
      "item": [
        {
          "dataOpen": "true",
          "itemClass": "",
          "titleClass": "",
          "boxClass": "",
          "clickClass": " g-pl--20   g-pr--15   g-py--10 ",
          "icon": {
            "iconFile": "icon-mapfre_022_car2",
            "iconClass": " g-px--15  g-font--20 "
          },
          "arrow": {
            "clickOn": {
              "iconFile": "icon-mapfre_101_ico-dow",
              "iconClass": "g-font--10 g-c-pointer g-c--white1"
            },
            "clickOff": {
              "iconFile": "icon-mapfre_102_ico-up",
              "iconClass": "g-c--pointer g-font--10"
            }
          },
          "textClass": "g-text--uppercase g-font--bold",
          "text": "VEHÍCULOS",
          "contentClass": "",
          "content": false,
          "list": [
            {
              "iconFile": "",
              "text": "Seguro Vehicular"
            },
            {
              "iconFile": "",
              "text": "SOAT"
            },
            {
              "iconFile": "",
              "text": "Accidentes"
            },
            {
              "text": "Robo"
            },
            {
              "text": "Talleres"
            },
            {
              "text": "Cotización"
            }
          ],
          "classContent": "g-hover-nav g-font--12"
        },
        {
          "dataOpen": "",
          "itemClass": "",
          "titleClass": "",
          "boxClass": "",
          "clickClass": " g-pl--20   g-pr--15   g-py--10 ",
          "icon": {
            "iconFile": "icon-mapfre_023_cross2",
            "iconClass": " g-px--15  g-font--20 "
          },
          "arrow": {
            "clickOn": {
              "iconFile": "icon-mapfre_101_ico-dow",
              "iconClass": "g-font--10 g-c-pointer g-c--white1"
            },
            "clickOff": {
              "iconFile": "icon-mapfre_102_ico-up",
              "iconClass": "g-c--pointer g-font--10"
            }
          },
          "textClass": "g-text--uppercase g-font--bold",
          "text": "SALUD",
          "contentClass": "",
          "content": false,
          "list": [
            {
              "iconFile": "",
              "text": "Seguro Vehicular"
            },
            {
              "iconFile": "",
              "text": "SOAT"
            },
            {
              "iconFile": "",
              "text": "Accidentes"
            },
            {
              "text": "Robo"
            },
            {
              "text": "Talleres"
            },
            {
              "text": "Cotización"
            }
          ],
          "classContent": "g-hover-nav"
        },
        {
          "dataOpen": "",
          "itemClass": "",
          "titleClass": "",
          "boxClass": "",
          "clickClass": " g-pl--20   g-pr--15   g-py--10 ",
          "icon": {
            "iconFile": "icon-mapfre_024_house2",
            "iconClass": " g-px--15  g-font--20 "
          },
          "arrow": {
            "clickOn": {
              "iconFile": "icon-mapfre_101_ico-dow",
              "iconClass": "g-font--10 g-c-pointer g-c--white1"
            },
            "clickOff": {
              "iconFile": "icon-mapfre_102_ico-up",
              "iconClass": "g-c--pointer"
            }
          },
          "textClass": "g-text--uppercase g-font--bold",
          "text": "HOGAR",
          "contentClass": "",
          "content": false,
          "list": [
            {
              "iconFile": "",
              "text": "Seguro Vehicular"
            },
            {
              "iconFile": "",
              "text": "SOAT"
            },
            {
              "iconFile": "",
              "text": "Accidentes"
            },
            {
              "text": "Robo"
            },
            {
              "text": "Talleres"
            },
            {
              "text": "Cotización"
            }
          ],
          "classContent": "g-hover-nav"
        },
        {
          "dataOpen": "",
          "itemClass": "",
          "titleClass": "",
          "boxClass": "",
          "clickClass": " g-pl--20   g-pr--15   g-py--10 ",
          "icon": {
            "iconFile": "icon-mapfre_025_heart2",
            "iconClass": " g-px--15  g-font--20 "
          },
          "arrow": {
            "clickOn": {
              "iconFile": "icon-mapfre_101_ico-dow",
              "iconClass": "g-font--10 g-c-pointer g-c--white1"
            },
            "clickOff": {
              "iconFile": "icon-mapfre_102_ico-up",
              "iconClass": "g-c--pointer"
            }
          },
          "textClass": "g-text--uppercase g-font--bold",
          "text": "VIDA Y AHORROS",
          "contentClass": "",
          "content": false,
          "list": [
            {
              "iconFile": "",
              "text": "Seguro Vehicular"
            },
            {
              "iconFile": "",
              "text": "SOAT"
            },
            {
              "iconFile": "",
              "text": "Accidentes"
            },
            {
              "text": "Robo"
            },
            {
              "text": "Talleres"
            },
            {
              "text": "Cotización"
            }
          ],
          "classContent": "g-hover-nav"
        },
        {
          "dataOpen": "",
          "itemClass": "",
          "titleClass": "",
          "boxClass": "",
          "clickClass": " g-pl--20   g-pr--15   g-py--10 ",
          "icon": {
            "iconFile": "icon-mapfre_026_decesos",
            "iconClass": " g-px--15  g-font--20 "
          },
          "arrow": false,
          "textClass": "g-text--uppercase g-font--bold",
          "text": "DECESOS",
          "contentClass": "",
          "content": false,
          "classContent": "g-hover-nav"
        },
        {
          "dataOpen": "",
          "itemClass": "",
          "titleClass": "",
          "boxClass": "",
          "clickClass": " g-pl--20   g-pr--15   g-py--10 ",
          "icon": {
            "iconFile": "icon-mapfre_027_box",
            "iconClass": " g-px--15  g-font--20 "
          },
          "arrow": false,
          "textClass": "g-text--uppercase g-font--bold",
          "text": "SERVICIOS MAPFRE",
          "contentClass": "",
          "content": false,
          "classContent": "g-hover-nav"
        },
        {
          "dataOpen": "",
          "itemClass": "",
          "titleClass": "",
          "boxClass": "",
          "clickClass": " g-pl--20   g-pr--15   g-py--10 ",
          "icon": {
            "iconFile": "icon-mapfre_028_pagos",
            "iconClass": " g-px--15  g-font--20 "
          },
          "arrow": false,
          "textClass": "g-text--uppercase g-font--bold",
          "text": "Mis Pagos",
          "contentClass": "",
          "content": false,
          "classContent": "g-hover-nav"
        },
        {
          "dataOpen": "",
          "itemClass": "",
          "titleClass": "",
          "boxClass": "",
          "clickClass": " g-pl--20   g-pr--15   g-py--10 ",
          "icon": {
            "iconFile": "icon-mapfre_029_location-pin2",
            "iconClass": " g-px--15  g-font--20 "
          },
          "arrow": false,
          "textClass": "g-text--uppercase g-font--bold",
          "text": "Red de Oficinas",
          "contentClass": "",
          "content": false,
          "classContent": "g-hover-nav"
        }
      ]
    }
  ],
  "list-btn": [
    {
      "iconFile": "icon-mapfre_030_call",
      "addClass": "g-font--30"
    },
    {
      "iconFile": "icon-mapfre_031_qanda",
      "addClass": "g-font--30"
    }
  ],
  "headerOIM": {
    "icoNav": {
      "iconFile": "icon-mapfre_047_bars",
      "addClass": "g-font--30",
      "iconFileOIM": "icon-mapfre_044_logo_landing ",
      "addClassOIM": "g-font--30"
    },
    "headOimMobile": {
      "llamada": "SEGURO VEHICULAR",
      "bajada": "COTIZA TU SEGURO",
      "iconFile": "icon-mapfre_044_logo_landing ",
      "addClass": "g-font--30",
      "icoBack": {
        "icon": "icon-mapfre_010_arrow-left",
        "addClass": "g-items-icon g-c--gray3 g-font--25 g-font-md--21"
      }
    },
    "datos": {
      "icoCircle": "icon-mapfre_066_circle",
      "sizeCircle": "g-font--40 g-c--gray1",
      "icoUser": "icon-mapfre_037_user",
      "addClass": "g-c--white1 g-ico--center g-font--20",
      "tittle": "NOTIFICACIONES",
      "icoAlert": "icon-mapfre_036_notification",
      "icoClose": "icon-mapfre_049_close2",
      "sizeClose": "g-font--40",
      "nameUser": "Hola <b>Gonzalo!</b>",
      "numb": 3,
      "alertBadge": {
        "icoCircle": "icon-mapfre_066_circle",
        "addClass": "g-font--30 g-c--green1",
        "addClassNum": "g-ico--center g-font--11 g-c--white1"
      },
      "list": [
        {
          "tipo": "Mi prefil"
        },
        {
          "tipo": "Cerrar sesión"
        }
      ]
    },
    "alert": {
      "ico": "icon-mapfre_014_perfil",
      "icoCircle": "icon-mapfre_066_circle",
      "sizeCircle": "g-font--40 g-c--gray1",
      "addClass": "g-c--white1 g-ico--center g-font--20",
      "tittle": "NOTIFICACIONES",
      "icoAlert": "icon-mapfre_036_notification",
      "icoClose": "icon-mapfre_049_close2",
      "sizeClose": "g-font--40",
      "numb": 3,
      "alertBadge": {
        "icoCircle": "icon-mapfre_066_circle",
        "addClass": "g-font--30 g-c--green1",
        "addClassNum": "g-ico--center g-font--11 g-c--white1"
      },
      "list": [
        {
          "ico-drow": "icon-mapfre_057_circle-check",
          "fech": "HOY 10:23am",
          "tipo": "Solicitud de chofer de reemplazo confirmada",
          "desc": "Seguro vehicular"
        },
        {
          "ico-drow": "icon-mapfre_049_close2",
          "fech": "HOY 10:23am",
          "tipo": "Solicitud de auxilio mecánico cancelada",
          "desc": "Seguro vehicular"
        },
        {
          "ico-drow": "icon-mapfre_057_circle-check",
          "fech": "HOY 10:23am",
          "tipo": "Solicitud de auxilio mecánico cancelada",
          "desc": "Seguro vehicular"
        },
        {
          "ico-drow": "icon-mapfre_049_close2",
          "fech": "HOY 10:23am",
          "tipo": "Solicitud de auxilio mecánico cancelada",
          "desc": "Seguro vehicular"
        },
        {
          "ico-drow": "icon-mapfre_057_circle-check",
          "fech": "HOY 10:23am",
          "tipo": "Solicitud de auxilio mecánico cancelada",
          "desc": "Seguro vehicular"
        },
        {
          "ico-drow": "icon-mapfre_062_reloj",
          "fech": "HOY 10:23am",
          "tipo": "Solicitud de auxilio mecánico cancelada",
          "desc": "Seguro vehicular"
        },
        {
          "ico-drow": "icon-mapfre_049_close2",
          "fech": "HOY 10:23am",
          "tipo": "Solicitud de auxilio mecánico cancelada",
          "desc": "Seguro vehicular"
        }
      ]
    }
  },
  "quotation": {
    "quotationClass": "g-mt--40",
    "orderContent1": "order-2 order-lg-1 ",
    "orderContent2": "order-1 order-lg-2",
    "icon": false,
    "addContentClass": "g-mb--40 g-mb-lg--0",
    "contentClass": "g-p--10 g-py--20 g-pt-lg--40 g-px-lg--40 ",
    "title": {
      "textClass": "g-px--10 g-px-lg--0 g-pb--10",
      "text": "FORMA DE PAGO"
    },
    "step1": false,
    "step2": false,
    "step3": {
      "txtTab1": "Tarjeta",
      "txtTab2": "Bancario",
      "content1": [
        {
          "text": {
            "textClass": "g-c--gray2 g-font--medium g-font--16 g-pt--30 g-px--20 g-px-lg--0",
            "text": "Datos de la tarjeta"
          },
          "addClass": "g-px--20 g-px-lg--0",
          "formCase": [
            {
              "addContentClass": "g-w-100 g-pr-lg--15 g-pb--10",
              "input": {
                "label": "Nombre del titular",
                "type": "text",
                "value": "",
                "error": "",
                "addClass": "g-form-focus",
                "requerid": false,
                "tooltip": false,
                "title": ""
              }
            },
            {
              "addContentClass": "g-w-100 g-pr-lg--15 g-pb--10",
              "input": {
                "addClass": "g-form-focus",
                "contentIcon": "align-items-center g-font--18 ",
                "currency": false,
                "image": false,
                "imageRight": {
                  "src": "../../images/banks/visa.svg",
                  "imageRightClass": "g-box--shadow1 g-mb--5"
                },
                "type": "text",
                "value": "",
                "label": "Número en la tarjeta",
                "requerid": false,
                "title": "",
                "error": ""
              }
            }
          ]
        },
        {
          "text": false,
          "addClass": "g-px--20 g-px-lg--0",
          "formCase": [
            {
              "addContentClass": "g-w-50 g-pr-lg--15 g-pb--30",
              "inputTooltip": {
                "mfInput": {
                  "inputClass": "",
                  "label": "MM / AA",
                  "type": "text",
                  "value": "",
                  "error": "",
                  "addClass": "",
                  "requerid": false,
                  "title": "",
                  "tooltip": {
                    "iconClassTooltip":"g-pt--30",
                    "iconTooltip": true,
                    "icon": "icon-mapfre_048_tooltip",
                    "iconClass": "g-font--25 g-font-md--21 g-c--green1 g-c--pointer g-mb--10 g-pl--10",
                    "textArea": false,
                    "text": "",
                    "alignTooltip": "",
                    "addClass": "g-py--15 g-px--5 g-w-px--30",
                    "addClassTitle": "g-pb--10 g-font--medium text-center",
                    "title": "¿Dónde encontrar la Fecha Vcto.?",
                    "description": {
                      "descriptionClass": "d-flex flex-column justify-content-center text-center",
                      "description": "<div class='g-font--13 g-font--light g-line--11 g-mb--20 g-c--gray2'>Encontrarás la fecha de vencimiento al frente de tu tarjeta, debajo del número de tarjeta.</div> <img class='w-px--20 mx-auto' src='../../images/payments/card-front.png'>"
                    },
                    "link": false
                  }
                }
              }
            },
            {
              "addContentClass": "g-w-50 g-pr-lg--15 g-pb--30",
              "inputTooltip": {
                "mfInput": {
                  "inputClass": "",
                  "label": "CVV",
                  "type": "text",
                  "value": "",
                  "error": "",
                  "addClass": "",
                  "requerid": false,
                  "title": "",
                  "tooltip": {
                    "iconClassTooltip":"g-pt--30",
                    "iconTooltip": true,
                    "icon": "icon-mapfre_048_tooltip",
                    "iconClass": "g-font--25 g-font-md--21 g-c--green1 g-c--pointer g-mb--10 g-pl--10",
                    "textArea": false,
                    "text": "",
                    "alignTooltip": "",
                    "addClass": "g-py--15 g-px--5 g-w-px--30",
                    "addClassTitle": "g-pb--10 g-font--medium text-center",
                    "title": "¿Qué es el CVV?",
                    "description": {
                      "descriptionClass": "d-flex flex-column justify-content-center text-center",
                      "description": "<div class='g-font--13 g-font--light g-line--11 g-mb--20 g-c--gray2'>Un código de tres dígitos ubicado al reverso de tu tarjeta de crédito.</div> <img class='w-px--20 mx-auto' src='../../images/payments/card-back.png'>"
                    },
                    "link": false
                  }
                }
              }
            },
            {
              "addContentClass": "g-w-100 g-pr-lg--15 g-pb--10",
              "input": {
                "label": "Correo electrónico",
                "type": "text",
                "value": "",
                "error": "",
                "addClass": "g-form-focus",
                "requerid": false,
                "tooltip": false,
                "title": ""
              }
            }
          ],
          "footerTabs": {
            "footerClass": "g-pt--20 g-px--10 g-bt--1 g-bc--gray11 g-mt--30 g-mx-lg-n--40",
            "btn": [
              {
                "boxClass": "w-10 text-center ",
                "textClass": "g-px-lg--70",
                "text": "PAGAR $ 824,94"
              }
            ]
          }
        }
      ],
      "content2": {
        "text": [
          {
            "textClass": "g-c--gray2 g-font--light g-pt--25 g-px--10 g-px-lg--0",
            "text": "Generarémos un número de pago con el que podrás realizar la transacción."
          },
          {
            "textClass": "g-c--gray2 g-font--light g-pt--10 g-px--10 g-px-lg--0",
            "text": "Puedes realizar el pago en cualquiera de estos bancos:"
          }
        ],
        "brands": {
          "addClass": "justify-content-around text-center flex-wrap g-mt--30",
          "img": [
            {
              "imgClass": "g-w-50 g-w-md-33 text-lg-center g-pb-lg--20",
              "img": "/../../../images/banner/vehiculo/bbva.svg"
            },
            {
              "imgClass": "g-w-50 g-w-md-33 text-lg-center g-pb-lg--20",
              "img": "/../../../images/banner/vehiculo/bcp.svg"
            },
            {
              "imgClass": "g-w-50 g-w-md-33 text-lg-center g-pb-lg--20",
              "img": "/../../../images/banner/vehiculo/banbif.svg"
            },
            {
              "imgClass": "g-w-50 g-w-md-33 text-lg-center",
              "img": "/../../../images/banner/vehiculo/scotiabank.svg"
            },
            {
              "imgClass": "g-w-50 g-w-md-33 text-lg-center",
              "img": "/../../../images/banner/vehiculo/interbank.svg"
            }
          ]
        },
        "footerTabs": {
          "footerClass": "g-pt--20 g-px--10 g-bt--1 g-bc--gray11 g-mt--30 g-mx-lg-n--40",
          "btn": [
            {
              "boxClass": "w-10 text-center ",
              "textClass": "g-px-lg--70",
              "text": "GENERAR ORDEN DE PAGO"
            }
          ]
        }
      }
    },
    "footer": false
  },
  "cardRight": {
    "resumen": {
      "openCard": "true",
      "titleAccordion": {
        "titleCard": [
          {
            "titleCardClass": "w-100",
            "titleCard": "Full cobertura premium"
          },
          {
            "titleCardClass": "g-c--green1 g-c--pointer text-nowrap g-pr--5 ",
            "titleCard": "Ver resumen"
          }
        ],
        "colorArrow": "g-c--green1"
      },
      "contenido": [
        {
          "contentClass": "d-flex justify-content-between g-p--15",
          "contentItem": [
            {
              "itemClass": "g-font--light g-font--13 w-10",
              "item": "<div class='g-font--medium'> Full cobertura premium</div> Cuota 3 - Nº 7564839920 "
            },
            {
              "itemClass": "g-font--light g-bc--gray11 text-nowrap",
              "item": "$ 824,94"
            }
          ]
        }
      ],
      "footer": false
    },
    "videncia": false
  }
}